%!PS-Adobe-3.0 EPSF-3.0
%%BoundingBox: 0 0 502 180
%%Creator: yExport 1.5
%%Producer: org.freehep.graphicsio.ps.EPSGraphics2D Revision: 12753 
%%For: 
%%Title: 
%%CreationDate: Monday, February 26, 2018 at 2:42:29 PM Eastern Standard Time
%%LanguageLevel: 3
%%EndComments
%%BeginProlog
100 dict dup begin

%
% File: org/freehep/graphicsio.ps/PSProlog.txt
% Author: Charles Loomis
%

% Redefinitions which save some space in the output file.  These are also
% the same as the PDF operators.
/q {gsave} def
/Q {grestore} def

/n {newpath} def
/m {moveto} def
/l {lineto} def
/c {curveto} def
/h {closepath} def

/re {4 -2 roll moveto
     dup 0 exch rlineto exch 0 rlineto
     neg 0 exch rlineto closepath} def

/f {fill} def
/f* {eofill} def
/F {gsave vg&FC fill grestore} def
/F* {gsave vg&FC eofill grestore} def

/s {closepath stroke} def
/S {stroke} def

/b {closepath gsave vg&FC fill grestore
    gsave stroke grestore newpath} def
/B {gsave vg&FC fill grestore gsave stroke grestore newpath} def
/b* {closepath gsave vg&FC eofill grestore
    gsave stroke grestore newpath} def
/B* {gsave vg&FC eofill grestore gsave stroke grestore newpath} def

/g {1 array astore /vg&fcolor exch def} def
/G {setgray} def
/k {4 array astore /vg&fcolor exch def} def
/K {setcmykcolor} def
/rg {3 array astore /vg&fcolor exch def} def
/RG {setrgbcolor} def

% Initialize the fill color.
0 0 0 rg

/vg&FC {mark vg&fcolor aload pop
        counttomark 1 eq {G} if
        counttomark 3 eq {RG} if
        counttomark 4 eq {K} if
        cleartomark } def

/vg&DFC {/vg&fcolor exch def} def

/vg&C {mark exch aload pop
       counttomark 1 eq {G} if
       counttomark 3 eq {RG} if
       counttomark 4 eq {K} if
       cleartomark } def

/w {setlinewidth} def
/j {setlinejoin} def
/J {setlinecap} def
/M {setmiterlimit} def
/d {setdash} def
/i {setflat} def

/W {clip} def
/W* {eoclip} def

% Setup the default graphics state.
% (black; 1 pt. linewidth; miter join; butt-ends; solid)
/defaultGraphicsState {0 g 1 w 0 j 0 J [] 0 d} def

% Emulation of the rectangle operators for PostScript implementations
% which do not implement all Level 2 features.  This is an INCOMPLETE
% emulation; only the "x y width height rect..." form is emulated.
/*rf {gsave newpath re fill grestore} def
/*rs {gsave newpath re stroke grestore} def
/*rc {newpath re clip} def
/rf  /rectfill where {pop /rectfill}{/*rf} ifelse load def
/rs  /rectstroke where {pop /rectstroke}{/*rs} ifelse load def
/rc  /rectclip where {pop /rectclip}{/*rc} ifelse load def

% Emulation of the selectfont operator.  This includes a 20% increase in
% the fontsize which is necessary to get sizes similar to the Java fonts.
/*sf {exch findfont exch
      dup type /arraytype eq {makefont}{scalefont} ifelse setfont} bind def
/sf /selectfont where {pop {1.2 mul selectfont}}{{1.2 mul *sf}} ifelse def

% Special version of stroke which allows the dash pattern to continue
% across path segments.  (This may be needed for PostScript although
% modern printers seem to do this correctly.)
/vg&stroke {
  currentdash pop length 0 eq
  {stroke}
  {
    currentdash /vg&doffset exch def pop
    flattenpath
    {m vg&resetdash}
    {2 copy
     currentpoint
     3 -1 roll sub dup mul
     3 1 roll sub dup mul
     add sqrt
     3 1 roll l
     currentdash 3 -1 roll add setdash}
     {}
     {h vg&resetdash}
     pathforall
     stroke
     vg&resetdash
  } ifelse
} def
/vg&resetdash {currentdash pop vg&doffset setdash} def

% Initialize variables for safety.
/delta 0 def
/xv 0 def  /yv 0 def  /width 0 def  /height 0 def

% Initialize to portrait INTERNATIONAL (Letter-height, A4-width) page.
/pw 595 def  /ph 791  def  /po true def /ftp false def

% Initialize margins to 20 points.
/ml 20 def  /mr 20 def  /mt 20 def  /mb 20 def

% Temporary matrices.
/smatrix 0 def  /nmatrix 0 def

% set page size (usage: <page width><page height> setpagesize)
/setpagesize {/ph exch def /pw exch def} def

% set page orientation (usage: portrait or landscape)
/portrait {/po true def} def
/landscape {/po false def} def

% force natural size for image (usage: naturalsize)
/naturalsize {/ftp false def} def

% resize image to fill page (usage: fittopage)
/fittopage {/ftp true def} def

% set margins of the page (usage: <left><bottom><top><right> setmargins)
/setmargins {/mr exch def /mt exch def /mb exch def /ml exch def} def

% set the graphic's size (usage: <width><height> setsize)
/setsize {/gh exch def /gw exch def} def

% set the graphic's origin (usage: <x0><y0> setorigin)
/setorigin {/gy exch def /gx exch def} def

% calculate image center
/imagecenter {pw ml sub mr sub 2 div ml add
              ph mt sub mb sub 2 div mb add} def

% calculate the necessary scaling
/imagescale {po {gw}{gh} ifelse pw ml sub mr sub div
             po {gh}{gw} ifelse ph mt sub mb sub div
             2 copy lt {exch} if pop
             ftp not {1 2 copy lt {exch} if pop} if
             1 exch div /sfactor exch def
             /gw gw sfactor mul def /gh gh sfactor mul def} def

% calculate image origin
/imageorigin {pw ml sub mr sub 2 div ml add
              po {gw}{gh} ifelse 2 div sub
              ph mt sub mb sub 2 div mb add
              po {gh}{gw} ifelse 2 div po {add}{sub} ifelse} def

% calculate the clipping origin
/cliporigin  {pw ml sub mr sub 2 div ml add
              po {gw}{gh} ifelse 2 div sub floor
              ph mt sub mb sub 2 div mb add
              po {gh}{gw} ifelse 2 div sub floor} def

% Set the clipping region to the bounding box.
/cliptobounds {cliporigin po {gw}{gh} ifelse 1 add
                          po {gh}{gw} ifelse 1 add rc} def

% set the base transformation matrix (usage: setbasematrix)
/setbasematrix {imageorigin translate
                po {0}{90} ifelse rotate
                sfactor sfactor neg scale
                /defaultmatrix matrix currentmatrix def} def

% The lower-right bias in drawing 1 pt. wide lines.
/bias  {q 0.5 0.5 translate} def
/unbias {Q} def

% Define the composite fonts used to print Unicode strings.
% Undefine particular values in an encoding array.
/vg&undef { {exch dup 3 -1 roll /.notdef put} forall } def
/vg&redef { {3 -1 roll dup 4 2 roll put} forall } def

% usage: key encoding basefontname vg&newbasefont font
/vg&newbasefont {
findfont dup length dict copy
  begin
    currentdict /FID undef
    /Encoding exch def
    dup /FontName exch def
    currentdict
  end
definefont
} def

% usage: key encoding basefontname vg&newskewedbasefont font
/vg&newskewedbasefont {
findfont dup length dict copy
  begin
    currentdict /FID undef
    /Encoding exch def
    dup /FontName exch def
    exch FontMatrix exch matrix concatmatrix /FontMatrix exch def
    currentdict
  end
definefont
} def

% usage: basekey suffix vg&nconcat name
/vg&nconcat {
  2 {dup length string cvs exch} repeat
  dup length 3 -1 roll dup length 3 -1 roll add string
  dup 0 4 -1 roll dup length 5 1 roll putinterval
  dup 4 -2 roll exch putinterval cvn
} def

%usage: fontname vg&skewmatrix matrix
/vg&skewmatrix {
findfont dup /FontInfo known
  {
    /FontInfo get dup /ItalicAngle known
    {
      [ 1 0 4 -1 roll /ItalicAngle get neg dup sin exch cos div 1 0 0 ]
    }
    {pop matrix} ifelse
  }
  {pop matrix} ifelse
} def

% usage: newfontname basefontname vg&newcompositefont --
/vg&newcompositefont {
/vg&fstyle exch def
/vg&bfont exch def
/vg&fname exch def
<<
/FontStyleBits vg&fstyle
/FontType 0
/FontMatrix matrix
/FontName vg&fname
/FMapType 2
/Encoding [ 0 1 255 {pop 6} for ]
          dup 16#00 0 put % Latin
          dup 16#03 1 put % Greek
          dup 16#20 2 put % Punctuation
          dup 16#21 3 put % Arrows
          dup 16#22 4 put % MathOps
          dup 16#27 5 put % Dingbats

/FDepVector [
vg&bfont /-UC-Latin vg&nconcat UCLatinEncoding
vg&bfont vg&newbasefont

vg&bfont vg&skewmatrix
vg&bfont /-UC-Greek vg&nconcat UCGreekEncoding
/Symbol vg&newskewedbasefont

vg&bfont /-UC-Punctuation vg&nconcat UCPunctuationEncoding
vg&bfont vg&newbasefont

/Arrows-UC findfont
/MathOps-UC findfont
/Dingbats-UC findfont
/Undefined-UC findfont ]
>>
vg&fname exch definefont pop
} def

% Null encoding vector (all elements set to .notdef)
/NullEncoding [ 256 {/.notdef} repeat ] def

% Unicode Latin encoding (unicode codes \u0000-\u00ff)
/UCLatinEncoding
  ISOLatin1Encoding dup length array copy
  dup 16#60 /grave put
  [ 16#90 16#91 16#92 16#93 16#94 16#95 16#96
    16#97 16#98 16#9a 16#9b 16#9d 16#9e 16#9f
  ] vg&undef
  def

% Unicode Greek encoding (unicode codes \u0370-\u03ff)
/UCGreekEncoding
  NullEncoding dup length array copy
  << 16#91 /Alpha    16#92 /Beta      16#93 /Gamma    16#94 /Delta
     16#95 /Epsilon  16#96 /Zeta      16#97 /Eta      16#98 /Theta
     16#99 /Iota     16#9a /Kappa     16#9b /Lambda   16#9c /Mu
     16#9d /Nu       16#9e /Xi        16#9f /Omicron  16#a0 /Pi
     16#a1 /Rho      16#a3 /Sigma     16#a4 /Tau      16#a5 /Upsilon
     16#a6 /Phi      16#a7 /Chi       16#a8 /Psi      16#a9 /Omega
     16#b1 /alpha    16#b2 /beta      16#b3 /gamma    16#b4 /delta
     16#b5 /epsilon  16#b6 /zeta      16#b7 /eta      16#b8 /theta
     16#b9 /iota     16#ba /kappa     16#bb /lambda   16#bc /mu
     16#bd /nu       16#be /xi        16#bf /omicron  16#c0 /pi
     16#c1 /rho      16#c2 /sigma1    16#c3 /sigma    16#c4 /tau
     16#c5 /upsilon  16#c6 /phi1      16#c7 /chi      16#c8 /psi
     16#c9 /omega    16#7e /semicolon 16#87 /dotmath  16#d1 /theta1
     16#d2 /Upsilon1 16#d5 /phi       16#d6 /omega1
  >> vg&redef
  def

% Unicode punctuation encoding (unicode codes \u2000-\u206f)
/UCPunctuationEncoding
  NullEncoding dup length array copy
  << 16#10 /hyphen          16#11 /hyphen              16#12 /endash
     16#13 /emdash          16#18 /quoteleft           16#19 /quoteright
     16#1a /quotesinglbase  16#1b /quotesingle         16#1c /quotedblleft
     16#1d /quotedblright   16#1e /quotedblbase        16#1f /quotedbl
     16#20 /dagger          16#21 /daggerdbl           16#22 /bullet
     16#24 /period          16#26 /ellipsis            16#27 /periodcentered
     16#30 /perthousand     16#44 /fraction
     16#70 /zerosuperior    16#74 /foursuperior        16#75 /fivesuperior
     16#76 /sixsuperior     16#77 /sevensuperior       16#78 /eightsuperior
     16#79 /ninesuperior    16#7b /hyphensuperior      16#7d /parenleftsuperior
     16#7e /parenrightsuperior
     16#80 /zeroinferior    16#84 /fourinferior        16#85 /fiveinferior
     16#81 /oneinferior     16#82 /twoinferior         16#83 /threeinferior
     16#86 /sixinferior     16#87 /seveninferior       16#88 /eightinferior
     16#89 /nineinferior    16#8b /hypheninferior      16#8d /parenleftinferior
     16#8e /parenrightinferior
  >> vg&redef
  def

% Unicode mathematical operators encoding (unicode codes \u2200-\u22ff)
/UCMathOpsEncoding
  NullEncoding dup length array copy
  << 16#00 /universal       16#02 /partialdiff         16#03 /existential
     16#05 /emptyset        16#06 /Delta               16#07 /gradient
     16#08 /element         16#09 /notelement          16#0b /suchthat
     16#0f /product         16#11 /summation           16#12 /minus
     16#15 /fraction        16#17 /asteriskmath        16#19 /bullet
     16#1a /radical         16#1d /proportional        16#1e /infinity
     16#20 /angle           16#23 /bar                 16#27 /logicaland
     16#28 /logicalor       16#29 /intersection        16#2a /union
     16#2b /integral        16#34 /therefore           16#36 /colon
     16#3c /similar         16#45 /congruent           16#48 /approxequal
     16#60 /notequal        16#61 /equivalence         16#64 /lessequal
     16#65 /greaterequal    16#82 /propersubset        16#83 /propersuperset
     16#86 /reflexsubset    16#87 /reflexsuperset      16#95 /circleplus
     16#97 /circlemultiply  16#a5 /perpendicular       16#03 /existential
     16#c0 /logicaland      16#c1 /logicalor           16#c2 /intersection
     16#c3 /union           16#c4 /diamond             16#c5 /dotmath
  >> vg&redef
  def

% Unicode arrows encoding (unicode codes \u2190-\u21ff)
% Also includes those "Letterlike" unicode characters
% which are available in the symbol font. (unicode codes \u2100-\u214f)
/UCArrowsEncoding
  NullEncoding dup length array copy
  << 16#11 /Ifraktur        16#1c /Rfraktur            16#22 /trademarkserif
     16#35 /aleph
     16#90 /arrowleft       16#91 /arrowup             16#92 /arrowright
     16#93 /arrowdown       16#94 /arrowboth           16#d0 /arrowdblleft
     16#d1 /arrowdblup      16#d2 /arrowdblright       16#d3 /arrowdbldown
     16#d4 /arrowdblboth
  >> vg&redef
  def

/ZapfDingbats findfont /Encoding get
dup length array copy /UCDingbatsEncoding exch def
16#20 1 16#7f {
  dup 16#20 sub exch
  UCDingbatsEncoding exch get
  UCDingbatsEncoding 3 1 roll put
} for
16#a0 1 16#ff {
  dup 16#40 sub exch
  UCDingbatsEncoding exch get
  UCDingbatsEncoding 3 1 roll put
} for
UCDingbatsEncoding [ 16#c0 1 16#ff {} for ] vg&undef
[ 16#00  16#05 16#0a 16#0b  16#28 16#4c 16#4e  16#53 16#54 16#55  16#57 16#5f
  16#60  16#68 16#69 16#6a  16#6b 16#6c 16#6d  16#6e 16#6f 16#70  16#71 16#72
  16#73  16#74 16#75 16#95  16#96 16#97 16#b0  16#bf
] vg&undef pop

% Define the base fonts which don't change.
/Undefined-UC NullEncoding       /Helvetica    vg&newbasefont pop
/MathOps-UC   UCMathOpsEncoding  /Symbol       vg&newbasefont pop
/Arrows-UC    UCArrowsEncoding   /Symbol       vg&newbasefont pop
/Dingbats-UC  UCDingbatsEncoding /ZapfDingbats vg&newbasefont pop

% Make the SansSerif composite fonts.
/SansSerif /Helvetica 16#00 vg&newcompositefont
/SansSerif-Bold /Helvetica-Bold 16#01 vg&newcompositefont
/SansSerif-Italic /Helvetica-Oblique 16#02 vg&newcompositefont
/SansSerif-BoldItalic /Helvetica-BoldOblique 16#03 vg&newcompositefont

% Make the Serif composite fonts.
/Serif /Times-Roman 16#00 vg&newcompositefont
/Serif-Bold /Times-Bold 16#01 vg&newcompositefont
/Serif-Italic /Times-Italic 16#02 vg&newcompositefont
/Serif-BoldItalic /Times-BoldItalic 16#03 vg&newcompositefont

% Make the Monospaced composite fonts.
/Monospaced /Courier 16#00 vg&newcompositefont
/Monospaced-Bold /Courier-Bold 16#01 vg&newcompositefont
/Monospaced-Italic /Courier-Oblique 16#02 vg&newcompositefont
/Monospaced-BoldItalic /Courier-BoldOblique 16#03 vg&newcompositefont

% Make the Dialog composite fonts.
/Dialog /Helvetica 16#00 vg&newcompositefont
/Dialog-Bold /Helvetica-Bold 16#01 vg&newcompositefont
/Dialog-Italic /Helvetica-Oblique 16#02 vg&newcompositefont
/Dialog-BoldItalic /Helvetica-BoldOblique 16#03 vg&newcompositefont

% Make the DialogInput composite fonts.
/DialogInput /Courier 16#00 vg&newcompositefont
/DialogInput-Bold /Courier-Bold 16#01 vg&newcompositefont
/DialogInput-Italic /Courier-Oblique 16#02 vg&newcompositefont
/DialogInput-BoldItalic /Courier-BoldOblique 16#03 vg&newcompositefont

% Make the Typewriter composite fonts (JDK 1.1 only).
/Typewriter /Courier 16#00 vg&newcompositefont
/Typewriter-Bold /Courier-Bold 16#01 vg&newcompositefont
/Typewriter-Italic /Courier-Oblique 16#02 vg&newcompositefont
/Typewriter-BoldItalic /Courier-BoldOblique 16#03 vg&newcompositefont


/cfontH {
 dup /fontsize exch def /SansSerif exch sf
 /vg&fontstyles [{cfontH} {cfontHB} {cfontHI} {cfontHBI}] def
} def
/cfontHB {
  dup /fontsize exch def /SansSerif-Bold exch sf
 /vg&fontstyles [{cfontH} {cfontHB} {cfontHI} {cfontHBI}] def
} def
/cfontHI {
 dup /fontsize exch def /SansSerif-Italic exch sf
 /vg&fontstyles [{cfontH} {cfontHB} {cfontHI} {cfontHBI}] def
} def
/cfontHBI {
 dup /fontsize exch def /SansSerif-BoldItalic exch sf
 /vg&fontstyles [{cfontH} {cfontHB} {cfontHI} {cfontHBI}] def
} def

/cfontT {
 dup /fontsize exch def /Serif exch sf
 /vg&fontstyles [{cfontT} {cfontTB} {cfontTI} {cfontTBI}] def
} def
/cfontTB {
 dup /fontsize exch def /Serif-Bold exch sf
 /vg&fontstyles [{cfontT} {cfontTB} {cfontTI} {cfontTBI}] def
} def
/cfontTI {
 dup /fontsize exch def /Serif-Italic exch sf
 /vg&fontstyles [{cfontT} {cfontTB} {cfontTI} {cfontTBI}] def
} def
/cfontTBI {
 dup /fontsize exch def /Serif-BoldItalic exch sf
 /vg&fontstyles [{cfontT} {cfontTB} {cfontTI} {cfontTBI}] def
} def

/cfontC {
 dup /fontsize exch def /Typewriter exch sf
 /vg&fontstyles [{cfontC} {cfontCB} {cfontCI} {cfontCBI}] def
} def
/cfontCB {
 dup /fontsize exch def /Typewriter-Bold exch sf
 /vg&fontstyles [{cfontC} {cfontCB} {cfontCI} {cfontCBI}] def
} def
/cfontCI {
 dup /fontsize exch def /Typewriter-Italic exch sf
 /vg&fontstyles [{cfontC} {cfontCB} {cfontCI} {cfontCBI}] def
} def
/cfontCBI {
 dup /fontsize exch def /Typewriter-BoldItalic exch sf
 /vg&fontstyles [{cfontC} {cfontCB} {cfontCI} {cfontCBI}] def
} def

% Darken or lighten the current color.
/darken {0.7 exch exp 3 copy
         q 4 -1 roll vg&C
         currentrgbcolor 3 {4 -2 roll mul} repeat
         3 array astore Q} def

/displayColorMap
<< /Cr   [1.00 0.00 0.00]       /Cg     [0.00 1.00 0.00]
   /Cb   [0.00 0.00 1.00]       /Cc     [1.00 0.00 0.00 0.00]
   /Cm   [0.00 1.00 0.00 0.00]  /Cy     [0.00 0.00 1.00 0.00]
   /Co   [1.00 0.78 0.00]       /Cp     [1.00 0.67 0.67]
   /Cw   [1   ]                 /Cgrl   [0.75]
   /Cgr  [0.50]                 /Cgrd   [0.25]
   /Ck   [0   ]
   /CGr  [1.00 0.00 0.00]       /CGg    [0.00 1.00 0.00]
   /CGb  [0.00 0.00 1.00]       /CGc    [1.00 0.00 0.00 0.00]
   /CGm  [0.00 1.00 0.00 0.00]  /CGy    [0.00 0.00 1.00 0.00]
   /CGo  [1.00 0.78 0.00]       /CGp    [1.00 0.67 0.67]
   /CGw  [1   ]                 /CGgrl  [0.75]
   /CGgr [0.50]                 /CGgrd  [0.25]
   /CGk  [0   ]
   /CIr  [1.00 0.00 0.00]       /CIg    [0.00 1.00 0.00]
   /CIb  [0.00 0.00 1.00]       /CIc    [1.00 0.00 0.00 0.00]
   /CIm  [0.00 1.00 0.00 0.00]  /CIy    [0.00 0.00 1.00 0.00]
   /CIo  [1.00 0.78 0.00]       /CIp    [1.00 0.67 0.67]
   /CIw  [1   ]                 /CIgrl  [0.75]
   /CIgr [0.50]                 /CIgrd  [0.25]
   /CIk  [0   ]
>> def

/printColorMap
<< /Cr   [1.00 0.33 0.33]       /Cg     [0.33 1.00 0.33]
   /Cb   [0.33 0.33 1.00]       /Cc     [1.00 0.00 0.00 0.00]
   /Cm   [0.00 1.00 0.00 0.00]  /Cy     [0.00 0.00 1.00 0.00]
   /Co   [1.00 0.78 0.00]       /Cp     [1.00 0.67 0.67]
   /Cw   [1   ]                 /Cgrl   [0.75]
   /Cgr  [0.50]                 /Cgrd   [0.25]
   /Ck   [0   ]
   /CGr  [1.00 0.33 0.33]       /CGg    [0.33 1.00 0.33]
   /CGb  [0.33 0.33 1.00]       /CGc    [1.00 0.00 0.00 0.00]
   /CGm  [0.00 1.00 0.00 0.00]  /CGy    [0.00 0.00 1.00 0.00]
   /CGo  [1.00 0.78 0.00]       /CGp    [1.00 0.67 0.67]
   /CGw  [1   ]                 /CGgrl  [0.75]
   /CGgr [0.50]                 /CGgrd  [0.25]
   /CGk  [0   ]
   /CIr  [1.00 0.33 0.33]       /CIg    [0.33 1.00 0.33]
   /CIb  [0.33 0.33 1.00]       /CIc    [1.00 0.00 0.00 0.00]
   /CIm  [0.00 1.00 0.00 0.00]  /CIy    [0.00 0.00 1.00 0.00]
   /CIo  [1.00 0.78 0.00]       /CIp    [1.00 0.67 0.67]
   /CIw  [1   ]                 /CIgrl  [0.75]
   /CIgr [0.50]                 /CIgrd  [0.25]
   /CIk  [0   ]
>> def

/grayColorMap
<< /Cr   [0   ]                 /Cg     [0   ]
   /Cb   [0   ]                 /Cc     [0   ]
   /Cm   [0   ]                 /Cy     [0   ]
   /Co   [0   ]                 /Cp     [0   ]
   /Cw   [0   ]                 /Cgrl   [0   ]
   /Cgr  [0   ]                 /Cgrd   [0   ]
   /Ck   [0   ]
   /CGr  [0.75]                 /CGg    [1   ]
   /CGb  [0.50]                 /CGc    [0.75]
   /CGm  [0.50]                 /CGy    [1   ]
   /CGo  [0.75]                 /CGp    [1   ]
   /CGw  [0   ]                 /CGgrl  [0.25]
   /CGgr [0.50]                 /CGgrd  [0.75]
   /CGk  [1   ]
   /CIr  [1   ]                 /CIg    [1   ]
   /CIb  [1   ]                 /CIc    [1   ]
   /CIm  [1   ]                 /CIy    [1   ]
   /CIo  [1   ]                 /CIp    [1   ]
   /CIw  [1   ]                 /CIgrl  [1   ]
   /CIgr [1   ]                 /CIgrd  [1   ]
   /CIk  [1   ]
>> def

/bwColorMap
<< /Cr   [0   ]                 /Cg     [0   ]
   /Cb   [0   ]                 /Cc     [0   ]
   /Cm   [0   ]                 /Cy     [0   ]
   /Co   [0   ]                 /Cp     [0   ]
   /Cw   [0   ]                 /Cgrl   [0   ]
   /Cgr  [0   ]                 /Cgrd   [0   ]
   /Ck   [0   ]
   /CGr  [1   ]                 /CGg    [1   ]
   /CGb  [1   ]                 /CGc    [1   ]
   /CGm  [1   ]                 /CGy    [1   ]
   /CGo  [1   ]                 /CGp    [1   ]
   /CGw  [0   ]                 /CGgrl  [1   ]
   /CGgr [1   ]                 /CGgrd  [1   ]
   /CGk  [1   ]
   /CIr  [1   ]                 /CIg    [1   ]
   /CIb  [1   ]                 /CIc    [1   ]
   /CIm  [1   ]                 /CIy    [1   ]
   /CIo  [1   ]                 /CIp    [1   ]
   /CIw  [1   ]                 /CIgrl  [1   ]
   /CIgr [1   ]                 /CIgrd  [1   ]
   /CIk  [1   ]
>> def

%
% The following routines handle the alignment of and printing of
% tagged strings.
%

% Predefine the bounding box values.
/bbllx 0 def /bblly 0 def /bburx 0 def /bbury 0 def

% This routine pops the first unicode character off of a string and returns
% the remainder of the string, the character code of first character,
% and a "true" if the string was non-zero length.
% <string>      popfirst <remaining string> <true>
% <null string> popfirst <false>
/popfirst {
  dup length 1 gt
    {dup 0 get /vg&fbyte exch def
     dup 1 get /vg&cbyte exch def
     dup length 2 sub 2 exch getinterval true}
    {pop false} ifelse
} def

% This routine shows a single unicode character given the font and
% character codes.
% <font code> <char code> unicharshow --
/unicharshow {
  2 string
  dup 0 5 -1 roll put
  dup 1 4 -1 roll put
  internalshow
} def

% This is an internal routine to alternate between determining the
% bounding box for stringsize and showing the string for recshow.
% <string> internalshow --
/internalshow {show} def

% This is an internal routine to alternate between determining the
% bounding box for stringsize and stroking various ornaments.
% <string> internalstroke --
/internalstroke {S} def

% Sets up internalshow to use the null device to determine string size.
% -- nullinternalshow --
/nullinternalshow {/internalshow {false charpath flattenpath
                                  pathbbox updatebbox} def} def

% Sets up internalstroke to use the null device to determine string size.
% -- nullinternalstroke --
/nullinternalstroke {
 /internalstroke {flattenpath pathbbox updatebbox} def} def

% This routine tests to see if the character code matches the first
% character of a string.
% <char code> <string> testchar <char code> <true or false>
/testchar {exch dup 3 -1 roll 0 get eq} def

% Raise the text baseline for superscripts.
% -- raise --
/raise {
  0 fontsize 2 div rmoveto
  /fontsize fontsize 2 mul 3 div def
  currentfont /FontName get fontsize sf
} def

% Un-raise the text baseline for superscripts.
% -- unraise --
/unraise {
  /fontsize fontsize 1.5 mul def
  0 fontsize 2 div neg rmoveto
} def

% Lower the text baseline for subscripts.
% -- lower --
/lower {
  0 fontsize 3 div neg rmoveto
  /fontsize fontsize 2 mul 3 div def
  currentfont /FontName get fontsize sf
} def

% Un-lower the text baseline for subscripts.
% -- unlower --
/unlower {
  /fontsize fontsize 1.5 mul def
  0 fontsize 3 div rmoveto
} def

% Compare the top two elements on the stack and leave only the
% larger one.
/maxval {2 copy gt {pop} {exch pop} ifelse} def

% Tokenize a string.  Do not use the usual PostScript token because
% parentheses will not be interpreted correctly because of rescanning
% of the string.
/vg&token {/vg&string exch def /vg&index -1 def /vg&level 0 def
0 2 vg&string length 2 sub {
  dup dup 1 add exch vg&string exch get 8 bitshift vg&string 3 -1 roll get or
  dup 16#f0fe eq {pop 1}{16#f0ff eq {-1}{0} ifelse} ifelse
  /vg&level exch vg&level add def
  vg&level 0 eq {/vg&index exch def exit} if pop
} for
vg&index 0 ge {
  vg&string vg&index 2 add dup vg&string length exch sub getinterval
  vg&index 2 gt {vg&string 2 vg&index 2 sub getinterval}{()} ifelse
  true}
{false} ifelse
} bind def

% Recursively show an unicode string.
% <string> recshow --
/recshow {
  popfirst
  {
    % Test to see if this is a string attribute.
    vg&fbyte 16#f0 and 16#e0 eq
    {
      q

      % Font style.
      currentfont dup /FontStyleBits known {/FontStyleBits get}{pop 0} ifelse
      vg&cbyte or vg&fontstyles exch get fontsize exch exec

      vg&token pop recshow currentpoint Q m recshow
    }
    {
      vg&fbyte 16#F8 and 16#F0 eq {

        % Superscript and/or subscript.
        vg&cbyte 16#00 eq {
          vg&token pop exch vg&token pop 3 -1 roll
          q raise recshow unraise currentpoint pop Q exch
          q lower recshow unlower currentpoint pop Q
          maxval currentpoint exch pop m recshow } if

        % Strikeout.
        vg&cbyte 16#01 eq {
          vg&token pop currentpoint 3 -1 roll recshow
          q 0 J vg&underline vg&uthick w
          currentpoint 4 -2 roll fontsize 3 div add moveto
          fontsize 3 div add lineto internalstroke Q
          recshow} if

        % Underline.
        vg&cbyte 16#02 eq {
          vg&token pop currentpoint 3 -1 roll recshow
          q 0 J vg&underline vg&uthick w
          currentpoint 4 -2 roll vg&uoffset add moveto
          vg&uoffset add lineto internalstroke Q
          recshow} if

        % Dashed underline.
        vg&cbyte 16#03 eq {
          vg&token pop currentpoint 3 -1 roll recshow
          q 0 J [ vg&uthick 5 mul vg&uthick 2 mul] 0 d
          vg&underline vg&uthick w
          currentpoint 4 -2 roll vg&uoffset add moveto
          vg&uoffset add lineto internalstroke Q
          recshow} if

        % Dotted underline.
        vg&cbyte 16#04 eq {
          vg&token pop currentpoint 3 -1 roll recshow
          q 1 J [ 0 vg&uthick 3 mul] 0 d
          vg&underline vg&uthick w
          currentpoint 4 -2 roll vg&uoffset add moveto
          vg&uoffset add lineto internalstroke Q
          recshow} if

        % Thick underline.
        vg&cbyte 16#05 eq {
          vg&token pop currentpoint 3 -1 roll recshow
          q 0 J vg&underline vg&uthick 2 mul w
          currentpoint 4 -2 roll vg&uoffset vg&uthick 2 div sub add moveto
          vg&uoffset vg&uthick 2 div sub add lineto internalstroke Q
          recshow} if

        % Gray thick underline.
        vg&cbyte 16#06 eq {
          vg&token pop currentpoint 3 -1 roll recshow
          q 0 J vg&underline vg&uthick 2 mul w 0.5 setgray
          currentpoint 4 -2 roll vg&uoffset vg&uthick 2 div sub add moveto
          vg&uoffset vg&uthick 2 div sub add lineto internalstroke Q
          recshow} if

        % Overbar.
        vg&cbyte 16#07 eq {
          vg&token pop dup stringsize relative 4 1 roll pop pop exch
          3 -1 roll recshow
          q 0 J vg&underline vg&uthick w
          vg&uoffset neg add dup currentpoint pop exch m l internalstroke Q
          recshow} if
      }
      {
        vg&fbyte vg&cbyte unicharshow recshow
      } ifelse
    } ifelse
  } if
} def

% Get the underline position and thickness from the current font.
/vg&underline {

currentfont dup /FontType get 0 eq {/FDepVector get 0 get} if
dup dup /FontInfo known {
  /FontInfo get dup
  dup /UnderlinePosition known {
    /UnderlinePosition get /vg&uoffset exch def
  }
  {
    pop /vg&uoffset 0 def
  } ifelse
  dup /UnderlineThickness known {
    /UnderlineThickness get /vg&uthick exch def
  }
  {
    pop /vg&uthick 0 def
  } ifelse
}
{
  pop /vg&uoffset 0 def /vg&uthick 0 def
} ifelse
/FontMatrix get
currentfont dup /FontType get 0 eq
{/FontMatrix get matrix concatmatrix}{pop} ifelse
dup 0 vg&uoffset 3 -1 roll transform /vg&uoffset exch def pop
0 vg&uthick 3 -1 roll transform /vg&uthick exch def pop
} def

% Make a frame with the coordinates on the stack.
% <llx> <lly> <urx> <ury> frame --
/frame {4 copy m 3 1 roll exch l 4 -2 roll l l h} def

% Resets the accumulated bounding box to a degenerate box at the
% current point.
% -- resetbbox --
/resetbbox {
  currentpoint 2 copy
  /bbury exch def
  /bburx exch def
  /bblly exch def
  /bbllx exch def
} def

% Update the accumulated bounding box.
% <llx'> <lly'> <urx'> <ury'> updatebbox --
/updatebbox {
  dup bbury gt {/bbury exch def} {pop} ifelse
  dup bburx gt {/bburx exch def} {pop} ifelse
  dup bblly lt {/bblly exch def} {pop} ifelse
  dup bbllx lt {/bbllx exch def} {pop} ifelse
} def

% Set the bounding box to the values on the stack.
% <llx'> <lly'> <urx'> <ury'> updatebbox --
/restorebbox {
  /bbury exch def /bburx exch def /bblly exch def /bbllx exch def
} def

% Push the accumulated bounding box onto the stack.
% -- pushbbox <llx> <lly> <urx> <ury>
/pushbbox {bbllx bblly bburx bbury} def

% Make the relative bounding box relative to the currentpoint.
% <llx'> <lly'> <urx'> <ury'> inflate <llx> <lly> <urx> <ury>
/inflate {
  2 {fontsize 0.2 mul add 4 1 roll} repeat
  2 {fontsize 0.2 mul sub 4 1 roll} repeat
} def

% Make the relative bounding box relative to the currentpoint.
% <llx'> <lly'> <urx'> <ury'> relative <llx> <lly> <urx> <ury>
/relative {
  currentpoint 3 -1 roll add 3 1 roll add exch 4 2 roll
  currentpoint 3 -1 roll add 3 1 roll add exch 4 2 roll
} def

% Returns the size of a string appropriate for recshow.
% <string> stringsize <llx> <lly> <urx> <ury>
/stringsize {
  pushbbox /internalshow load /internalstroke load 7 -1 roll
  q
  nulldevice 0 0 m
  nullinternalshow nullinternalstroke
  resetbbox
  recshow
  /internalstroke exch def /internalshow exch def
  pushbbox 8 -4 roll restorebbox
  Q
} def

% Calculate values for string positioning.
/calcval {4 copy
  3 -1 roll sub /widy exch def sub neg /widx exch def
  pop pop /dy exch def /dx exch def} def

% Utilities to position a string.
% First letter (U=upper, C=center, B=baseline, L=lower)
% Second letter (L=left, C=center, R=right)
/align [
{calcval dx neg widy dy add neg rmoveto} % UL
{calcval dx neg widy 2 div dy add neg rmoveto} % CL
{calcval dx neg 0 rmoveto} % BL
{calcval dx neg dy neg rmoveto} % LL
{calcval widx dx add neg widy dy add neg rmoveto} % UR
{calcval widx dx add neg widy 2 div dy add neg rmoveto} % CR
{calcval widx dx add neg 0 rmoveto} % BR
{calcval widx dx add neg dy neg rmoveto} % LR
{calcval widx 2 div dx add neg widy dy add neg rmoveto} % UC
{calcval widx 2 div dx add neg widy 2 div dy add neg rmoveto} % CC
{calcval widx 2 div dx add neg 0 rmoveto} % BC
{calcval widx 2 div dx add neg dy neg rmoveto} % LC
] def

/vg&str {m q 1 -1 scale dup stringsize 4 copy align 11 -1 roll get exec
         q inflate relative frame exch exec Q recshow Q} def

end /procDict exch def
%%EndProlog

%%BeginSetup
save
procDict begin
printColorMap begin
502 180 setpagesize
0 0 0 0 setmargins
0 0 setorigin
502 180 setsize
naturalsize
portrait
imagescale
cliptobounds
setbasematrix
/Helvetica 10 sf
defaultGraphicsState
%%EndSetup

0.00000 0.00000 0.00000 RG
[ 1.00000 0.00000 0.00000 1.00000 0.00000 0.00000 ] defaultmatrix matrix concatmatrix setmatrix
cliprestore
1.00000 1.00000 1.00000 RG
newpath
0.00000 0.00000 m
502.000 0.00000 l
502.000 180.000 l
0.00000 180.000 l
0.00000 0.00000 l
h
f
0.00000 0.00000 0.00000 RG
0.00000 0.00000 0.00000 RG
[ 1.00000 0.00000 0.00000 1.00000 0.00000 0.00000 ] defaultmatrix matrix concatmatrix setmatrix
cliprestore
1.00000 1.00000 1.00000 RG
newpath
0.00000 0.00000 m
502.000 0.00000 l
502.000 180.000 l
0.00000 180.000 l
0.00000 0.00000 l
h
f
0.00000 0.00000 0.00000 RG
0 0 502 180 rc
q
[ 1.00000 0.00000 0.00000 1.00000 0.00000 0.00000 ] concat
[ 1.00000 0.00000 0.00000 1.00000 15.0000 185.000 ] concat
1.00000 1.00000 1.00000 RG
newpath
-15.0000 -185.000 m
487.000 -185.000 l
487.000 -5.00000 l
-15.0000 -5.00000 l
-15.0000 -185.000 l
h
f
0.00000 0.00000 0.00000 RG
[ 1.00000 0.00000 0.00000 1.00000 15.0000 185.000 ] defaultmatrix matrix concatmatrix setmatrix
[ 1.00000 0.00000 0.00000 1.00000 15.0000 185.000 ] defaultmatrix matrix concatmatrix setmatrix
[ 1.00000 0.00000 0.00000 1.00000 0.00000 0.00000 ] defaultmatrix matrix concatmatrix setmatrix
[ 1.00000 0.00000 0.00000 1.00000 15.0000 185.000 ] defaultmatrix matrix concatmatrix setmatrix
1.00000 1.00000 1.00000 RG
newpath
0.00000 -110.000 m
120.000 -110.000 l
120.000 -80.0000 l
0.00000 -80.0000 l
0.00000 -110.000 l
h
f
0 J
1.45000 M
0.00000 0.00000 0.00000 RG
newpath
0.00000 -110.000 m
120.000 -110.000 l
120.000 -80.0000 l
0.00000 -80.0000 l
0.00000 -110.000 l
h
S
2 J
10.0000 M
0 J
1.45000 M
newpath
8.88086 -98.6270 m
8.88086 -95.3301 l
10.3652 -95.3301 l
10.9173 -95.3301 11.3444 -95.4707 11.6465 -95.7520  c
11.9486 -96.0436 12.0996 -96.4551 12.0996 -96.9863  c
12.0996 -97.5072 11.9486 -97.9082 11.6465 -98.1895  c
11.3444 -98.4811 10.9173 -98.6270 10.3652 -98.6270  c
8.88086 -98.6270 l
h
7.69336 -99.5957 m
10.3652 -99.5957 l
11.3548 -99.5957 12.0996 -99.3717 12.5996 -98.9238  c
13.0996 -98.4863 13.3496 -97.8405 13.3496 -96.9863  c
13.3496 -96.1217 13.0996 -95.4655 12.5996 -95.0176  c
12.0996 -94.5801 11.3548 -94.3613 10.3652 -94.3613  c
8.88086 -94.3613 l
8.88086 -90.8457 l
7.69336 -90.8457 l
7.69336 -99.5957 l
h
14.7734 -93.4395 m
14.7734 -97.4082 l
15.8516 -97.4082 l
15.8516 -93.4707 l
15.8516 -92.8561 15.9714 -92.3926 16.2109 -92.0801  c
16.4609 -91.7676 16.8255 -91.6113 17.3047 -91.6113  c
17.8880 -91.6113 18.3464 -91.7936 18.6797 -92.1582  c
19.0234 -92.5332 19.1953 -93.0436 19.1953 -93.6895  c
19.1953 -97.4082 l
20.2734 -97.4082 l
20.2734 -90.8457 l
19.1953 -90.8457 l
19.1953 -91.8613 l
18.9349 -91.4551 18.6328 -91.1530 18.2891 -90.9551  c
17.9453 -90.7676 17.5443 -90.6738 17.0859 -90.6738  c
16.3255 -90.6738 15.7474 -90.9082 15.3516 -91.3770  c
14.9661 -91.8457 14.7734 -92.5332 14.7734 -93.4395  c
h
17.4922 -97.5645 m
17.4922 -97.5645 l
h
22.4883 -99.9707 m
23.5664 -99.9707 l
23.5664 -90.8457 l
22.4883 -90.8457 l
22.4883 -99.9707 l
h
25.8223 -99.9707 m
26.9004 -99.9707 l
26.9004 -90.8457 l
25.8223 -90.8457 l
25.8223 -99.9707 l
h
36.7832 -96.4082 m
36.6582 -96.4707 36.5228 -96.5176 36.3770 -96.5488  c
36.2415 -96.5905 36.0853 -96.6113 35.9082 -96.6113  c
35.3040 -96.6113 34.8353 -96.4134 34.5020 -96.0176  c
34.1790 -95.6217 34.0176 -95.0488 34.0176 -94.2988  c
34.0176 -90.8457 l
32.9395 -90.8457 l
32.9395 -97.4082 l
34.0176 -97.4082 l
34.0176 -96.3926 l
34.2467 -96.7884 34.5436 -97.0801 34.9082 -97.2676  c
35.2728 -97.4655 35.7155 -97.5645 36.2363 -97.5645  c
36.3092 -97.5645 36.3874 -97.5592 36.4707 -97.5488  c
36.5645 -97.5384 36.6634 -97.5228 36.7676 -97.5020  c
36.7832 -96.4082 l
h
40.4512 -96.6582 m
39.8783 -96.6582 39.4199 -96.4290 39.0762 -95.9707  c
38.7428 -95.5228 38.5762 -94.9082 38.5762 -94.1270  c
38.5762 -93.3353 38.7428 -92.7155 39.0762 -92.2676  c
39.4095 -91.8197 39.8678 -91.5957 40.4512 -91.5957  c
41.0241 -91.5957 41.4772 -91.8197 41.8105 -92.2676  c
42.1543 -92.7259 42.3262 -93.3457 42.3262 -94.1270  c
42.3262 -94.8978 42.1543 -95.5124 41.8105 -95.9707  c
41.4772 -96.4290 41.0241 -96.6582 40.4512 -96.6582  c
h
40.4512 -97.5645 m
41.3887 -97.5645 42.1230 -97.2572 42.6543 -96.6426  c
43.1960 -96.0384 43.4668 -95.1999 43.4668 -94.1270  c
43.4668 -93.0540 43.1960 -92.2103 42.6543 -91.5957  c
42.1230 -90.9811 41.3887 -90.6738 40.4512 -90.6738  c
39.5137 -90.6738 38.7741 -90.9811 38.2324 -91.5957  c
37.7012 -92.2103 37.4355 -93.0540 37.4355 -94.1270  c
37.4355 -95.1999 37.7012 -96.0384 38.2324 -96.6426  c
38.7741 -97.2572 39.5137 -97.5645 40.4512 -97.5645  c
h
44.6211 -97.4082 m
45.6992 -97.4082 l
47.0586 -92.2832 l
48.3867 -97.4082 l
49.6680 -97.4082 l
51.0117 -92.2832 l
52.3555 -97.4082 l
53.4336 -97.4082 l
51.7148 -90.8457 l
50.4492 -90.8457 l
49.0273 -96.2207 l
47.6211 -90.8457 l
46.3398 -90.8457 l
44.6211 -97.4082 l
h
59.2480 -97.2207 m
59.2480 -96.1895 l
58.9460 -96.3457 58.6283 -96.4603 58.2949 -96.5332  c
57.9720 -96.6165 57.6335 -96.6582 57.2793 -96.6582  c
56.7480 -96.6582 56.3470 -96.5749 56.0762 -96.4082  c
55.8053 -96.2520 55.6699 -96.0072 55.6699 -95.6738  c
55.6699 -95.4238 55.7637 -95.2259 55.9512 -95.0801  c
56.1491 -94.9447 56.5397 -94.8145 57.1230 -94.6895  c
57.4824 -94.5957 l
58.2533 -94.4395 58.8001 -94.2103 59.1230 -93.9082  c
59.4460 -93.6061 59.6074 -93.1895 59.6074 -92.6582  c
59.6074 -92.0436 59.3626 -91.5592 58.8730 -91.2051  c
58.3939 -90.8509 57.7324 -90.6738 56.8887 -90.6738  c
56.5345 -90.6738 56.1647 -90.7103 55.7793 -90.7832  c
55.4043 -90.8457 55.0085 -90.9447 54.5918 -91.0801  c
54.5918 -92.2051 l
54.9876 -91.9967 55.3783 -91.8405 55.7637 -91.7363  c
56.1491 -91.6322 56.5345 -91.5801 56.9199 -91.5801  c
57.4199 -91.5801 57.8053 -91.6634 58.0762 -91.8301  c
58.3574 -92.0072 58.4980 -92.2572 58.4980 -92.5801  c
58.4980 -92.8717 58.3991 -93.0957 58.2012 -93.2520  c
58.0033 -93.4082 57.5710 -93.5592 56.9043 -93.7051  c
56.5293 -93.7832 l
55.8626 -93.9290 55.3783 -94.1478 55.0762 -94.4395  c
54.7845 -94.7311 54.6387 -95.1270 54.6387 -95.6270  c
54.6387 -96.2520 54.8574 -96.7311 55.2949 -97.0645  c
55.7324 -97.3978 56.3522 -97.5645 57.1543 -97.5645  c
57.5501 -97.5645 57.9251 -97.5332 58.2793 -97.4707  c
58.6335 -97.4186 58.9564 -97.3353 59.2480 -97.2207  c
h
68.4551 -99.9707 m
68.4551 -99.0645 l
67.4238 -99.0645 l
67.0384 -99.0645 66.7676 -98.9863 66.6113 -98.8301  c
66.4655 -98.6738 66.3926 -98.3926 66.3926 -97.9863  c
66.3926 -97.4082 l
68.1738 -97.4082 l
68.1738 -96.5645 l
66.3926 -96.5645 l
66.3926 -90.8457 l
65.3145 -90.8457 l
65.3145 -96.5645 l
64.2832 -96.5645 l
64.2832 -97.4082 l
65.3145 -97.4082 l
65.3145 -97.8613 l
65.3145 -98.5905 65.4811 -99.1217 65.8145 -99.4551  c
66.1582 -99.7988 66.6999 -99.9707 67.4395 -99.9707  c
68.4551 -99.9707 l
h
73.1641 -96.4082 m
73.0391 -96.4707 72.9036 -96.5176 72.7578 -96.5488  c
72.6224 -96.5905 72.4661 -96.6113 72.2891 -96.6113  c
71.6849 -96.6113 71.2161 -96.4134 70.8828 -96.0176  c
70.5599 -95.6217 70.3984 -95.0488 70.3984 -94.2988  c
70.3984 -90.8457 l
69.3203 -90.8457 l
69.3203 -97.4082 l
70.3984 -97.4082 l
70.3984 -96.3926 l
70.6276 -96.7884 70.9245 -97.0801 71.2891 -97.2676  c
71.6536 -97.4655 72.0964 -97.5645 72.6172 -97.5645  c
72.6901 -97.5645 72.7682 -97.5592 72.8516 -97.5488  c
72.9453 -97.5384 73.0443 -97.5228 73.1484 -97.5020  c
73.1641 -96.4082 l
h
76.8320 -96.6582 m
76.2591 -96.6582 75.8008 -96.4290 75.4570 -95.9707  c
75.1237 -95.5228 74.9570 -94.9082 74.9570 -94.1270  c
74.9570 -93.3353 75.1237 -92.7155 75.4570 -92.2676  c
75.7904 -91.8197 76.2487 -91.5957 76.8320 -91.5957  c
77.4049 -91.5957 77.8581 -91.8197 78.1914 -92.2676  c
78.5352 -92.7259 78.7070 -93.3457 78.7070 -94.1270  c
78.7070 -94.8978 78.5352 -95.5124 78.1914 -95.9707  c
77.8581 -96.4290 77.4049 -96.6582 76.8320 -96.6582  c
h
76.8320 -97.5645 m
77.7695 -97.5645 78.5039 -97.2572 79.0352 -96.6426  c
79.5768 -96.0384 79.8477 -95.1999 79.8477 -94.1270  c
79.8477 -93.0540 79.5768 -92.2103 79.0352 -91.5957  c
78.5039 -90.9811 77.7695 -90.6738 76.8320 -90.6738  c
75.8945 -90.6738 75.1549 -90.9811 74.6133 -91.5957  c
74.0820 -92.2103 73.8164 -93.0540 73.8164 -94.1270  c
73.8164 -95.1999 74.0820 -96.0384 74.6133 -96.6426  c
75.1549 -97.2572 75.8945 -97.5645 76.8320 -97.5645  c
h
86.7363 -96.1426 m
87.0072 -96.6322 87.3301 -96.9915 87.7051 -97.2207  c
88.0801 -97.4499 88.5228 -97.5645 89.0332 -97.5645  c
89.7207 -97.5645 90.2467 -97.3249 90.6113 -96.8457  c
90.9863 -96.3665 91.1738 -95.6895 91.1738 -94.8145  c
91.1738 -90.8457 l
90.0957 -90.8457 l
90.0957 -94.7676 l
90.0957 -95.4030 89.9811 -95.8717 89.7520 -96.1738  c
89.5332 -96.4759 89.1947 -96.6270 88.7363 -96.6270  c
88.1738 -96.6270 87.7311 -96.4395 87.4082 -96.0645  c
87.0853 -95.6999 86.9238 -95.1947 86.9238 -94.5488  c
86.9238 -90.8457 l
85.8457 -90.8457 l
85.8457 -94.7676 l
85.8457 -95.4030 85.7311 -95.8717 85.5020 -96.1738  c
85.2832 -96.4759 84.9395 -96.6270 84.4707 -96.6270  c
83.9186 -96.6270 83.4811 -96.4395 83.1582 -96.0645  c
82.8353 -95.6999 82.6738 -95.1947 82.6738 -94.5488  c
82.6738 -90.8457 l
81.5957 -90.8457 l
81.5957 -97.4082 l
82.6738 -97.4082 l
82.6738 -96.3926 l
82.9238 -96.7884 83.2207 -97.0801 83.5645 -97.2676  c
83.9082 -97.4655 84.3145 -97.5645 84.7832 -97.5645  c
85.2624 -97.5645 85.6686 -97.4447 86.0020 -97.2051  c
86.3353 -96.9655 86.5801 -96.6113 86.7363 -96.1426  c
h
98.3652 -98.6270 m
98.3652 -91.8145 l
99.8027 -91.8145 l
101.011 -91.8145 101.891 -92.0853 102.443 -92.6270  c
103.006 -93.1790 103.287 -94.0488 103.287 -95.2363  c
103.287 -96.4030 103.006 -97.2572 102.443 -97.7988  c
101.891 -98.3509 101.011 -98.6270 99.8027 -98.6270  c
98.3652 -98.6270 l
h
97.1777 -99.5957 m
99.6152 -99.5957 l
101.313 -99.5957 102.558 -99.2415 103.350 -98.5332  c
104.141 -97.8353 104.537 -96.7363 104.537 -95.2363  c
104.537 -93.7259 104.136 -92.6165 103.334 -91.9082  c
102.542 -91.1999 101.303 -90.8457 99.6152 -90.8457  c
97.1777 -90.8457 l
97.1777 -99.5957 l
h
107.605 -95.0176 m
107.605 -91.8145 l
109.512 -91.8145 l
110.147 -91.8145 110.616 -91.9447 110.918 -92.2051  c
111.230 -92.4759 111.387 -92.8822 111.387 -93.4238  c
111.387 -93.9759 111.230 -94.3770 110.918 -94.6270  c
110.616 -94.8874 110.147 -95.0176 109.512 -95.0176  c
107.605 -95.0176 l
h
107.605 -98.6270 m
107.605 -95.9863 l
109.355 -95.9863 l
109.939 -95.9863 110.371 -96.0957 110.652 -96.3145  c
110.934 -96.5332 111.074 -96.8613 111.074 -97.2988  c
111.074 -97.7467 110.934 -98.0801 110.652 -98.2988  c
110.371 -98.5176 109.939 -98.6270 109.355 -98.6270  c
107.605 -98.6270 l
h
106.418 -99.5957 m
109.449 -99.5957 l
110.355 -99.5957 111.048 -99.4082 111.527 -99.0332  c
112.017 -98.6582 112.262 -98.1270 112.262 -97.4395  c
112.262 -96.8978 112.137 -96.4655 111.887 -96.1426  c
111.637 -95.8301 111.272 -95.6374 110.793 -95.5645  c
111.376 -95.4395 111.829 -95.1790 112.152 -94.7832  c
112.475 -94.3874 112.637 -93.8926 112.637 -93.2988  c
112.637 -92.5176 112.371 -91.9134 111.840 -91.4863  c
111.309 -91.0592 110.548 -90.8457 109.559 -90.8457  c
106.418 -90.8457 l
106.418 -99.5957 l
h
f
2 J
10.0000 M
1.00000 1.00000 1.00000 RG
newpath
140.000 -110.000 m
260.000 -110.000 l
260.000 -80.0000 l
140.000 -80.0000 l
140.000 -110.000 l
h
f
0 J
1.45000 M
0.00000 0.00000 0.00000 RG
newpath
140.000 -110.000 m
260.000 -110.000 l
260.000 -80.0000 l
140.000 -80.0000 l
140.000 -110.000 l
h
S
2 J
10.0000 M
0 J
1.45000 M
newpath
153.715 -99.5957 m
161.105 -99.5957 l
161.105 -98.5957 l
158.012 -98.5957 l
158.012 -90.8457 l
156.824 -90.8457 l
156.824 -98.5957 l
153.715 -98.5957 l
153.715 -99.5957 l
h
166.014 -96.4082 m
165.889 -96.4707 165.753 -96.5176 165.607 -96.5488  c
165.472 -96.5905 165.316 -96.6113 165.139 -96.6113  c
164.535 -96.6113 164.066 -96.4134 163.732 -96.0176  c
163.410 -95.6217 163.248 -95.0488 163.248 -94.2988  c
163.248 -90.8457 l
162.170 -90.8457 l
162.170 -97.4082 l
163.248 -97.4082 l
163.248 -96.3926 l
163.477 -96.7884 163.774 -97.0801 164.139 -97.2676  c
164.503 -97.4655 164.946 -97.5645 165.467 -97.5645  c
165.540 -97.5645 165.618 -97.5592 165.701 -97.5488  c
165.795 -97.5384 165.894 -97.5228 165.998 -97.5020  c
166.014 -96.4082 l
h
170.119 -94.1426 m
169.255 -94.1426 168.650 -94.0436 168.307 -93.8457  c
167.973 -93.6478 167.807 -93.3092 167.807 -92.8301  c
167.807 -92.4447 167.932 -92.1374 168.182 -91.9082  c
168.442 -91.6895 168.786 -91.5801 169.213 -91.5801  c
169.817 -91.5801 170.296 -91.7884 170.650 -92.2051  c
171.015 -92.6322 171.197 -93.1999 171.197 -93.9082  c
171.197 -94.1426 l
170.119 -94.1426 l
h
172.275 -94.5957 m
172.275 -90.8457 l
171.197 -90.8457 l
171.197 -91.8457 l
170.947 -91.4499 170.640 -91.1530 170.275 -90.9551  c
169.911 -90.7676 169.463 -90.6738 168.932 -90.6738  c
168.255 -90.6738 167.718 -90.8613 167.322 -91.2363  c
166.926 -91.6217 166.729 -92.1270 166.729 -92.7520  c
166.729 -93.4915 166.973 -94.0488 167.463 -94.4238  c
167.963 -94.7988 168.702 -94.9863 169.682 -94.9863  c
171.197 -94.9863 l
171.197 -95.0957 l
171.197 -95.5957 171.031 -95.9811 170.697 -96.2520  c
170.374 -96.5228 169.921 -96.6582 169.338 -96.6582  c
168.963 -96.6582 168.593 -96.6113 168.229 -96.5176  c
167.874 -96.4238 167.536 -96.2884 167.213 -96.1113  c
167.213 -97.1113 l
167.609 -97.2676 167.989 -97.3822 168.354 -97.4551  c
168.729 -97.5280 169.093 -97.5645 169.447 -97.5645  c
170.395 -97.5645 171.104 -97.3197 171.572 -96.8301  c
172.041 -96.3405 172.275 -95.5957 172.275 -94.5957  c
h
179.957 -94.8145 m
179.957 -90.8457 l
178.879 -90.8457 l
178.879 -94.7676 l
178.879 -95.3926 178.754 -95.8561 178.504 -96.1582  c
178.264 -96.4707 177.905 -96.6270 177.426 -96.6270  c
176.842 -96.6270 176.379 -96.4395 176.035 -96.0645  c
175.702 -95.6999 175.535 -95.1947 175.535 -94.5488  c
175.535 -90.8457 l
174.457 -90.8457 l
174.457 -97.4082 l
175.535 -97.4082 l
175.535 -96.3926 l
175.796 -96.7884 176.098 -97.0801 176.441 -97.2676  c
176.796 -97.4655 177.202 -97.5645 177.660 -97.5645  c
178.410 -97.5645 178.978 -97.3301 179.363 -96.8613  c
179.759 -96.4030 179.957 -95.7207 179.957 -94.8145  c
h
186.281 -97.2207 m
186.281 -96.1895 l
185.979 -96.3457 185.661 -96.4603 185.328 -96.5332  c
185.005 -96.6165 184.667 -96.6582 184.312 -96.6582  c
183.781 -96.6582 183.380 -96.5749 183.109 -96.4082  c
182.839 -96.2520 182.703 -96.0072 182.703 -95.6738  c
182.703 -95.4238 182.797 -95.2259 182.984 -95.0801  c
183.182 -94.9447 183.573 -94.8145 184.156 -94.6895  c
184.516 -94.5957 l
185.286 -94.4395 185.833 -94.2103 186.156 -93.9082  c
186.479 -93.6061 186.641 -93.1895 186.641 -92.6582  c
186.641 -92.0436 186.396 -91.5592 185.906 -91.2051  c
185.427 -90.8509 184.766 -90.6738 183.922 -90.6738  c
183.568 -90.6738 183.198 -90.7103 182.812 -90.7832  c
182.438 -90.8457 182.042 -90.9447 181.625 -91.0801  c
181.625 -92.2051 l
182.021 -91.9967 182.411 -91.8405 182.797 -91.7363  c
183.182 -91.6322 183.568 -91.5801 183.953 -91.5801  c
184.453 -91.5801 184.839 -91.6634 185.109 -91.8301  c
185.391 -92.0072 185.531 -92.2572 185.531 -92.5801  c
185.531 -92.8717 185.432 -93.0957 185.234 -93.2520  c
185.036 -93.4082 184.604 -93.5592 183.938 -93.7051  c
183.562 -93.7832 l
182.896 -93.9290 182.411 -94.1478 182.109 -94.4395  c
181.818 -94.7311 181.672 -95.1270 181.672 -95.6270  c
181.672 -96.2520 181.891 -96.7311 182.328 -97.0645  c
182.766 -97.3978 183.385 -97.5645 184.188 -97.5645  c
184.583 -97.5645 184.958 -97.5332 185.312 -97.4707  c
185.667 -97.4186 185.990 -97.3353 186.281 -97.2207  c
h
191.674 -99.9707 m
191.674 -99.0645 l
190.643 -99.0645 l
190.257 -99.0645 189.986 -98.9863 189.830 -98.8301  c
189.684 -98.6738 189.611 -98.3926 189.611 -97.9863  c
189.611 -97.4082 l
191.393 -97.4082 l
191.393 -96.5645 l
189.611 -96.5645 l
189.611 -90.8457 l
188.533 -90.8457 l
188.533 -96.5645 l
187.502 -96.5645 l
187.502 -97.4082 l
188.533 -97.4082 l
188.533 -97.8613 l
188.533 -98.5905 188.700 -99.1217 189.033 -99.4551  c
189.377 -99.7988 189.919 -99.9707 190.658 -99.9707  c
191.674 -99.9707 l
h
195.117 -96.6582 m
194.544 -96.6582 194.086 -96.4290 193.742 -95.9707  c
193.409 -95.5228 193.242 -94.9082 193.242 -94.1270  c
193.242 -93.3353 193.409 -92.7155 193.742 -92.2676  c
194.076 -91.8197 194.534 -91.5957 195.117 -91.5957  c
195.690 -91.5957 196.143 -91.8197 196.477 -92.2676  c
196.820 -92.7259 196.992 -93.3457 196.992 -94.1270  c
196.992 -94.8978 196.820 -95.5124 196.477 -95.9707  c
196.143 -96.4290 195.690 -96.6582 195.117 -96.6582  c
h
195.117 -97.5645 m
196.055 -97.5645 196.789 -97.2572 197.320 -96.6426  c
197.862 -96.0384 198.133 -95.1999 198.133 -94.1270  c
198.133 -93.0540 197.862 -92.2103 197.320 -91.5957  c
196.789 -90.9811 196.055 -90.6738 195.117 -90.6738  c
194.180 -90.6738 193.440 -90.9811 192.898 -91.5957  c
192.367 -92.2103 192.102 -93.0540 192.102 -94.1270  c
192.102 -95.1999 192.367 -96.0384 192.898 -96.6426  c
193.440 -97.2572 194.180 -97.5645 195.117 -97.5645  c
h
203.725 -96.4082 m
203.600 -96.4707 203.464 -96.5176 203.318 -96.5488  c
203.183 -96.5905 203.027 -96.6113 202.850 -96.6113  c
202.245 -96.6113 201.777 -96.4134 201.443 -96.0176  c
201.120 -95.6217 200.959 -95.0488 200.959 -94.2988  c
200.959 -90.8457 l
199.881 -90.8457 l
199.881 -97.4082 l
200.959 -97.4082 l
200.959 -96.3926 l
201.188 -96.7884 201.485 -97.0801 201.850 -97.2676  c
202.214 -97.4655 202.657 -97.5645 203.178 -97.5645  c
203.251 -97.5645 203.329 -97.5592 203.412 -97.5488  c
203.506 -97.5384 203.605 -97.5228 203.709 -97.5020  c
203.725 -96.4082 l
h
209.955 -96.1426 m
210.226 -96.6322 210.549 -96.9915 210.924 -97.2207  c
211.299 -97.4499 211.742 -97.5645 212.252 -97.5645  c
212.939 -97.5645 213.465 -97.3249 213.830 -96.8457  c
214.205 -96.3665 214.393 -95.6895 214.393 -94.8145  c
214.393 -90.8457 l
213.314 -90.8457 l
213.314 -94.7676 l
213.314 -95.4030 213.200 -95.8717 212.971 -96.1738  c
212.752 -96.4759 212.413 -96.6270 211.955 -96.6270  c
211.393 -96.6270 210.950 -96.4395 210.627 -96.0645  c
210.304 -95.6999 210.143 -95.1947 210.143 -94.5488  c
210.143 -90.8457 l
209.064 -90.8457 l
209.064 -94.7676 l
209.064 -95.4030 208.950 -95.8717 208.721 -96.1738  c
208.502 -96.4759 208.158 -96.6270 207.689 -96.6270  c
207.137 -96.6270 206.700 -96.4395 206.377 -96.0645  c
206.054 -95.6999 205.893 -95.1947 205.893 -94.5488  c
205.893 -90.8457 l
204.814 -90.8457 l
204.814 -97.4082 l
205.893 -97.4082 l
205.893 -96.3926 l
206.143 -96.7884 206.439 -97.0801 206.783 -97.2676  c
207.127 -97.4655 207.533 -97.5645 208.002 -97.5645  c
208.481 -97.5645 208.887 -97.4447 209.221 -97.2051  c
209.554 -96.9655 209.799 -96.6113 209.955 -96.1426  c
h
224.678 -96.4082 m
224.678 -99.9707 l
225.756 -99.9707 l
225.756 -90.8457 l
224.678 -90.8457 l
224.678 -91.8301 l
224.449 -91.4447 224.162 -91.1530 223.818 -90.9551  c
223.475 -90.7676 223.058 -90.6738 222.568 -90.6738  c
221.777 -90.6738 221.131 -90.9915 220.631 -91.6270  c
220.131 -92.2624 219.881 -93.0957 219.881 -94.1270  c
219.881 -95.1582 220.131 -95.9863 220.631 -96.6113  c
221.131 -97.2467 221.777 -97.5645 222.568 -97.5645  c
223.058 -97.5645 223.475 -97.4707 223.818 -97.2832  c
224.162 -97.0957 224.449 -96.8040 224.678 -96.4082  c
h
221.006 -94.1270 m
221.006 -93.3353 221.167 -92.7103 221.490 -92.2520  c
221.813 -91.8040 222.261 -91.5801 222.834 -91.5801  c
223.407 -91.5801 223.855 -91.8040 224.178 -92.2520  c
224.511 -92.7103 224.678 -93.3353 224.678 -94.1270  c
224.678 -94.9186 224.511 -95.5384 224.178 -95.9863  c
223.855 -96.4342 223.407 -96.6582 222.834 -96.6582  c
222.261 -96.6582 221.813 -96.4342 221.490 -95.9863  c
221.167 -95.5384 221.006 -94.9186 221.006 -94.1270  c
h
230.951 -94.1426 m
230.087 -94.1426 229.482 -94.0436 229.139 -93.8457  c
228.805 -93.6478 228.639 -93.3092 228.639 -92.8301  c
228.639 -92.4447 228.764 -92.1374 229.014 -91.9082  c
229.274 -91.6895 229.618 -91.5801 230.045 -91.5801  c
230.649 -91.5801 231.128 -91.7884 231.482 -92.2051  c
231.847 -92.6322 232.029 -93.1999 232.029 -93.9082  c
232.029 -94.1426 l
230.951 -94.1426 l
h
233.107 -94.5957 m
233.107 -90.8457 l
232.029 -90.8457 l
232.029 -91.8457 l
231.779 -91.4499 231.472 -91.1530 231.107 -90.9551  c
230.743 -90.7676 230.295 -90.6738 229.764 -90.6738  c
229.087 -90.6738 228.550 -90.8613 228.154 -91.2363  c
227.758 -91.6217 227.561 -92.1270 227.561 -92.7520  c
227.561 -93.4915 227.805 -94.0488 228.295 -94.4238  c
228.795 -94.7988 229.535 -94.9863 230.514 -94.9863  c
232.029 -94.9863 l
232.029 -95.0957 l
232.029 -95.5957 231.863 -95.9811 231.529 -96.2520  c
231.206 -96.5228 230.753 -96.6582 230.170 -96.6582  c
229.795 -96.6582 229.425 -96.6113 229.061 -96.5176  c
228.706 -96.4238 228.368 -96.2884 228.045 -96.1113  c
228.045 -97.1113 l
228.441 -97.2676 228.821 -97.3822 229.186 -97.4551  c
229.561 -97.5280 229.925 -97.5645 230.279 -97.5645  c
231.227 -97.5645 231.936 -97.3197 232.404 -96.8301  c
232.873 -96.3405 233.107 -95.5957 233.107 -94.5957  c
h
236.398 -99.2676 m
236.398 -97.4082 l
238.617 -97.4082 l
238.617 -96.5645 l
236.398 -96.5645 l
236.398 -93.0020 l
236.398 -92.4707 236.471 -92.1270 236.617 -91.9707  c
236.763 -91.8249 237.060 -91.7520 237.508 -91.7520  c
238.617 -91.7520 l
238.617 -90.8457 l
237.508 -90.8457 l
236.674 -90.8457 236.096 -91.0020 235.773 -91.3145  c
235.461 -91.6270 235.305 -92.1895 235.305 -93.0020  c
235.305 -96.5645 l
234.523 -96.5645 l
234.523 -97.4082 l
235.305 -97.4082 l
235.305 -99.2676 l
236.398 -99.2676 l
h
243.010 -94.1426 m
242.145 -94.1426 241.541 -94.0436 241.197 -93.8457  c
240.864 -93.6478 240.697 -93.3092 240.697 -92.8301  c
240.697 -92.4447 240.822 -92.1374 241.072 -91.9082  c
241.333 -91.6895 241.676 -91.5801 242.104 -91.5801  c
242.708 -91.5801 243.187 -91.7884 243.541 -92.2051  c
243.906 -92.6322 244.088 -93.1999 244.088 -93.9082  c
244.088 -94.1426 l
243.010 -94.1426 l
h
245.166 -94.5957 m
245.166 -90.8457 l
244.088 -90.8457 l
244.088 -91.8457 l
243.838 -91.4499 243.531 -91.1530 243.166 -90.9551  c
242.801 -90.7676 242.354 -90.6738 241.822 -90.6738  c
241.145 -90.6738 240.609 -90.8613 240.213 -91.2363  c
239.817 -91.6217 239.619 -92.1270 239.619 -92.7520  c
239.619 -93.4915 239.864 -94.0488 240.354 -94.4238  c
240.854 -94.7988 241.593 -94.9863 242.572 -94.9863  c
244.088 -94.9863 l
244.088 -95.0957 l
244.088 -95.5957 243.921 -95.9811 243.588 -96.2520  c
243.265 -96.5228 242.812 -96.6582 242.229 -96.6582  c
241.854 -96.6582 241.484 -96.6113 241.119 -96.5176  c
240.765 -96.4238 240.426 -96.2884 240.104 -96.1113  c
240.104 -97.1113 l
240.499 -97.2676 240.880 -97.3822 241.244 -97.4551  c
241.619 -97.5280 241.984 -97.5645 242.338 -97.5645  c
243.286 -97.5645 243.994 -97.3197 244.463 -96.8301  c
244.932 -96.3405 245.166 -95.5957 245.166 -94.5957  c
h
f
2 J
10.0000 M
1.00000 1.00000 1.00000 RG
newpath
291.000 -50.0000 m
411.000 -50.0000 l
411.000 -20.0000 l
291.000 -20.0000 l
291.000 -50.0000 l
h
f
0 J
1.45000 M
0.00000 0.00000 0.00000 RG
newpath
291.000 -50.0000 m
411.000 -50.0000 l
411.000 -20.0000 l
291.000 -20.0000 l
291.000 -50.0000 l
h
S
2 J
10.0000 M
0 J
1.45000 M
newpath
309.779 -39.3145 m
309.779 -38.1582 l
309.331 -38.3665 308.904 -38.5228 308.498 -38.6270  c
308.102 -38.7415 307.722 -38.7988 307.357 -38.7988  c
306.712 -38.7988 306.212 -38.6738 305.857 -38.4238  c
305.514 -38.1738 305.342 -37.8145 305.342 -37.3457  c
305.342 -36.9603 305.456 -36.6686 305.686 -36.4707  c
305.915 -36.2728 306.357 -36.1165 307.014 -36.0020  c
307.717 -35.8457 l
308.602 -35.6790 309.253 -35.3822 309.670 -34.9551  c
310.097 -34.5384 310.311 -33.9759 310.311 -33.2676  c
310.311 -32.4134 310.024 -31.7676 309.451 -31.3301  c
308.889 -30.8926 308.055 -30.6738 306.951 -30.6738  c
306.545 -30.6738 306.107 -30.7207 305.639 -30.8145  c
305.170 -30.9082 304.686 -31.0488 304.186 -31.2363  c
304.186 -32.4551 l
304.665 -32.1842 305.133 -31.9811 305.592 -31.8457  c
306.061 -31.7103 306.514 -31.6426 306.951 -31.6426  c
307.628 -31.6426 308.149 -31.7728 308.514 -32.0332  c
308.889 -32.3040 309.076 -32.6842 309.076 -33.1738  c
309.076 -33.6009 308.941 -33.9342 308.670 -34.1738  c
308.410 -34.4238 307.977 -34.6061 307.373 -34.7207  c
306.654 -34.8613 l
305.769 -35.0384 305.128 -35.3145 304.732 -35.6895  c
304.347 -36.0645 304.154 -36.5853 304.154 -37.2520  c
304.154 -38.0332 304.425 -38.6426 304.967 -39.0801  c
305.508 -39.5280 306.258 -39.7520 307.217 -39.7520  c
307.633 -39.7520 308.050 -39.7155 308.467 -39.6426  c
308.894 -39.5697 309.331 -39.4603 309.779 -39.3145  c
h
317.568 -34.8145 m
317.568 -30.8457 l
316.490 -30.8457 l
316.490 -34.7676 l
316.490 -35.3926 316.365 -35.8561 316.115 -36.1582  c
315.876 -36.4707 315.516 -36.6270 315.037 -36.6270  c
314.454 -36.6270 313.990 -36.4395 313.646 -36.0645  c
313.313 -35.6999 313.146 -35.1947 313.146 -34.5488  c
313.146 -30.8457 l
312.068 -30.8457 l
312.068 -39.9707 l
313.146 -39.9707 l
313.146 -36.3926 l
313.407 -36.7884 313.709 -37.0801 314.053 -37.2676  c
314.407 -37.4655 314.813 -37.5645 315.271 -37.5645  c
316.021 -37.5645 316.589 -37.3301 316.975 -36.8613  c
317.370 -36.4030 317.568 -35.7207 317.568 -34.8145  c
h
319.705 -37.4082 m
320.783 -37.4082 l
320.783 -30.8457 l
319.705 -30.8457 l
319.705 -37.4082 l
h
319.705 -39.9707 m
320.783 -39.9707 l
320.783 -38.5957 l
319.705 -38.5957 l
319.705 -39.9707 l
h
324.086 -31.8301 m
324.086 -28.3457 l
323.008 -28.3457 l
323.008 -37.4082 l
324.086 -37.4082 l
324.086 -36.4082 l
324.315 -36.8040 324.602 -37.0957 324.945 -37.2832  c
325.289 -37.4707 325.701 -37.5645 326.180 -37.5645  c
326.982 -37.5645 327.633 -37.2467 328.133 -36.6113  c
328.633 -35.9863 328.883 -35.1582 328.883 -34.1270  c
328.883 -33.0957 328.633 -32.2624 328.133 -31.6270  c
327.633 -30.9915 326.982 -30.6738 326.180 -30.6738  c
325.701 -30.6738 325.289 -30.7676 324.945 -30.9551  c
324.602 -31.1530 324.315 -31.4447 324.086 -31.8301  c
h
327.758 -34.1270 m
327.758 -34.9186 327.591 -35.5384 327.258 -35.9863  c
326.935 -36.4342 326.492 -36.6582 325.930 -36.6582  c
325.357 -36.6582 324.904 -36.4342 324.570 -35.9863  c
324.247 -35.5384 324.086 -34.9186 324.086 -34.1270  c
324.086 -33.3353 324.247 -32.7103 324.570 -32.2520  c
324.904 -31.8040 325.357 -31.5801 325.930 -31.5801  c
326.492 -31.5801 326.935 -31.8040 327.258 -32.2520  c
327.591 -32.7103 327.758 -33.3353 327.758 -34.1270  c
h
335.549 -39.2676 m
335.549 -37.4082 l
337.768 -37.4082 l
337.768 -36.5645 l
335.549 -36.5645 l
335.549 -33.0020 l
335.549 -32.4707 335.622 -32.1270 335.768 -31.9707  c
335.913 -31.8249 336.210 -31.7520 336.658 -31.7520  c
337.768 -31.7520 l
337.768 -30.8457 l
336.658 -30.8457 l
335.825 -30.8457 335.247 -31.0020 334.924 -31.3145  c
334.611 -31.6270 334.455 -32.1895 334.455 -33.0020  c
334.455 -36.5645 l
333.674 -36.5645 l
333.674 -37.4082 l
334.455 -37.4082 l
334.455 -39.2676 l
335.549 -39.2676 l
h
341.723 -36.6582 m
341.150 -36.6582 340.691 -36.4290 340.348 -35.9707  c
340.014 -35.5228 339.848 -34.9082 339.848 -34.1270  c
339.848 -33.3353 340.014 -32.7155 340.348 -32.2676  c
340.681 -31.8197 341.139 -31.5957 341.723 -31.5957  c
342.296 -31.5957 342.749 -31.8197 343.082 -32.2676  c
343.426 -32.7259 343.598 -33.3457 343.598 -34.1270  c
343.598 -34.8978 343.426 -35.5124 343.082 -35.9707  c
342.749 -36.4290 342.296 -36.6582 341.723 -36.6582  c
h
341.723 -37.5645 m
342.660 -37.5645 343.395 -37.2572 343.926 -36.6426  c
344.467 -36.0384 344.738 -35.1999 344.738 -34.1270  c
344.738 -33.0540 344.467 -32.2103 343.926 -31.5957  c
343.395 -30.9811 342.660 -30.6738 341.723 -30.6738  c
340.785 -30.6738 340.046 -30.9811 339.504 -31.5957  c
338.973 -32.2103 338.707 -33.0540 338.707 -34.1270  c
338.707 -35.1999 338.973 -36.0384 339.504 -36.6426  c
340.046 -37.2572 340.785 -37.5645 341.723 -37.5645  c
h
354.520 -37.2207 m
354.520 -36.1895 l
354.217 -36.3457 353.900 -36.4603 353.566 -36.5332  c
353.243 -36.6165 352.905 -36.6582 352.551 -36.6582  c
352.020 -36.6582 351.618 -36.5749 351.348 -36.4082  c
351.077 -36.2520 350.941 -36.0072 350.941 -35.6738  c
350.941 -35.4238 351.035 -35.2259 351.223 -35.0801  c
351.421 -34.9447 351.811 -34.8145 352.395 -34.6895  c
352.754 -34.5957 l
353.525 -34.4395 354.072 -34.2103 354.395 -33.9082  c
354.717 -33.6061 354.879 -33.1895 354.879 -32.6582  c
354.879 -32.0436 354.634 -31.5592 354.145 -31.2051  c
353.665 -30.8509 353.004 -30.6738 352.160 -30.6738  c
351.806 -30.6738 351.436 -30.7103 351.051 -30.7832  c
350.676 -30.8457 350.280 -30.9447 349.863 -31.0801  c
349.863 -32.2051 l
350.259 -31.9967 350.650 -31.8405 351.035 -31.7363  c
351.421 -31.6322 351.806 -31.5801 352.191 -31.5801  c
352.691 -31.5801 353.077 -31.6634 353.348 -31.8301  c
353.629 -32.0072 353.770 -32.2572 353.770 -32.5801  c
353.770 -32.8717 353.671 -33.0957 353.473 -33.2520  c
353.275 -33.4082 352.842 -33.5592 352.176 -33.7051  c
351.801 -33.7832 l
351.134 -33.9290 350.650 -34.1478 350.348 -34.4395  c
350.056 -34.7311 349.910 -35.1270 349.910 -35.6270  c
349.910 -36.2520 350.129 -36.7311 350.566 -37.0645  c
351.004 -37.3978 351.624 -37.5645 352.426 -37.5645  c
352.822 -37.5645 353.197 -37.5332 353.551 -37.4707  c
353.905 -37.4186 354.228 -37.3353 354.520 -37.2207  c
h
362.209 -34.3926 m
362.209 -33.8770 l
357.240 -33.8770 l
357.292 -33.1270 357.516 -32.5592 357.912 -32.1738  c
358.318 -31.7884 358.876 -31.5957 359.584 -31.5957  c
360.001 -31.5957 360.402 -31.6426 360.787 -31.7363  c
361.183 -31.8405 361.574 -31.9967 361.959 -32.2051  c
361.959 -31.1738 l
361.563 -31.0176 361.162 -30.8978 360.756 -30.8145  c
360.350 -30.7207 359.938 -30.6738 359.521 -30.6738  c
358.480 -30.6738 357.652 -30.9759 357.037 -31.5801  c
356.423 -32.1947 356.115 -33.0228 356.115 -34.0645  c
356.115 -35.1374 356.407 -35.9863 356.990 -36.6113  c
357.574 -37.2467 358.355 -37.5645 359.334 -37.5645  c
360.219 -37.5645 360.917 -37.2780 361.428 -36.7051  c
361.949 -36.1426 362.209 -35.3717 362.209 -34.3926  c
h
361.131 -34.7207 m
361.120 -35.3040 360.954 -35.7728 360.631 -36.1270  c
360.308 -36.4811 359.881 -36.6582 359.350 -36.6582  c
358.745 -36.6582 358.261 -36.4863 357.896 -36.1426  c
357.542 -35.7988 357.339 -35.3197 357.287 -34.7051  c
361.131 -34.7207 l
h
367.779 -36.4082 m
367.654 -36.4707 367.519 -36.5176 367.373 -36.5488  c
367.238 -36.5905 367.081 -36.6113 366.904 -36.6113  c
366.300 -36.6113 365.831 -36.4134 365.498 -36.0176  c
365.175 -35.6217 365.014 -35.0488 365.014 -34.2988  c
365.014 -30.8457 l
363.936 -30.8457 l
363.936 -37.4082 l
365.014 -37.4082 l
365.014 -36.3926 l
365.243 -36.7884 365.540 -37.0801 365.904 -37.2676  c
366.269 -37.4655 366.712 -37.5645 367.232 -37.5645  c
367.305 -37.5645 367.383 -37.5592 367.467 -37.5488  c
367.561 -37.5384 367.660 -37.5228 367.764 -37.5020  c
367.779 -36.4082 l
h
368.135 -37.4082 m
369.275 -37.4082 l
371.322 -31.9082 l
373.385 -37.4082 l
374.525 -37.4082 l
372.057 -30.8457 l
370.588 -30.8457 l
368.135 -37.4082 l
h
381.627 -34.3926 m
381.627 -33.8770 l
376.658 -33.8770 l
376.710 -33.1270 376.934 -32.5592 377.330 -32.1738  c
377.736 -31.7884 378.294 -31.5957 379.002 -31.5957  c
379.419 -31.5957 379.820 -31.6426 380.205 -31.7363  c
380.601 -31.8405 380.992 -31.9967 381.377 -32.2051  c
381.377 -31.1738 l
380.981 -31.0176 380.580 -30.8978 380.174 -30.8145  c
379.768 -30.7207 379.356 -30.6738 378.939 -30.6738  c
377.898 -30.6738 377.070 -30.9759 376.455 -31.5801  c
375.840 -32.1947 375.533 -33.0228 375.533 -34.0645  c
375.533 -35.1374 375.825 -35.9863 376.408 -36.6113  c
376.992 -37.2467 377.773 -37.5645 378.752 -37.5645  c
379.637 -37.5645 380.335 -37.2780 380.846 -36.7051  c
381.367 -36.1426 381.627 -35.3717 381.627 -34.3926  c
h
380.549 -34.7207 m
380.538 -35.3040 380.372 -35.7728 380.049 -36.1270  c
379.726 -36.4811 379.299 -36.6582 378.768 -36.6582  c
378.163 -36.6582 377.679 -36.4863 377.314 -36.1426  c
376.960 -35.7988 376.757 -35.3197 376.705 -34.7051  c
380.549 -34.7207 l
h
387.197 -36.4082 m
387.072 -36.4707 386.937 -36.5176 386.791 -36.5488  c
386.656 -36.5905 386.499 -36.6113 386.322 -36.6113  c
385.718 -36.6113 385.249 -36.4134 384.916 -36.0176  c
384.593 -35.6217 384.432 -35.0488 384.432 -34.2988  c
384.432 -30.8457 l
383.354 -30.8457 l
383.354 -37.4082 l
384.432 -37.4082 l
384.432 -36.3926 l
384.661 -36.7884 384.958 -37.0801 385.322 -37.2676  c
385.687 -37.4655 386.130 -37.5645 386.650 -37.5645  c
386.723 -37.5645 386.801 -37.5592 386.885 -37.5488  c
386.979 -37.5384 387.077 -37.5228 387.182 -37.5020  c
387.197 -36.4082 l
h
392.492 -31.8457 m
394.430 -31.8457 l
394.430 -38.5176 l
392.320 -38.0957 l
392.320 -39.1738 l
394.414 -39.5957 l
395.602 -39.5957 l
395.602 -31.8457 l
397.539 -31.8457 l
397.539 -30.8457 l
392.492 -30.8457 l
392.492 -31.8457 l
h
f
2 J
10.0000 M
1.00000 1.00000 1.00000 RG
newpath
291.000 -110.000 m
411.000 -110.000 l
411.000 -80.0000 l
291.000 -80.0000 l
291.000 -110.000 l
h
f
0 J
1.45000 M
0.00000 0.00000 0.00000 RG
newpath
291.000 -110.000 m
411.000 -110.000 l
411.000 -80.0000 l
291.000 -80.0000 l
291.000 -110.000 l
h
S
2 J
10.0000 M
0 J
1.45000 M
newpath
309.779 -99.3145 m
309.779 -98.1582 l
309.331 -98.3665 308.904 -98.5228 308.498 -98.6270  c
308.102 -98.7415 307.722 -98.7988 307.357 -98.7988  c
306.712 -98.7988 306.212 -98.6738 305.857 -98.4238  c
305.514 -98.1738 305.342 -97.8145 305.342 -97.3457  c
305.342 -96.9603 305.456 -96.6686 305.686 -96.4707  c
305.915 -96.2728 306.357 -96.1165 307.014 -96.0020  c
307.717 -95.8457 l
308.602 -95.6790 309.253 -95.3822 309.670 -94.9551  c
310.097 -94.5384 310.311 -93.9759 310.311 -93.2676  c
310.311 -92.4134 310.024 -91.7676 309.451 -91.3301  c
308.889 -90.8926 308.055 -90.6738 306.951 -90.6738  c
306.545 -90.6738 306.107 -90.7207 305.639 -90.8145  c
305.170 -90.9082 304.686 -91.0488 304.186 -91.2363  c
304.186 -92.4551 l
304.665 -92.1842 305.133 -91.9811 305.592 -91.8457  c
306.061 -91.7103 306.514 -91.6426 306.951 -91.6426  c
307.628 -91.6426 308.149 -91.7728 308.514 -92.0332  c
308.889 -92.3040 309.076 -92.6842 309.076 -93.1738  c
309.076 -93.6009 308.941 -93.9342 308.670 -94.1738  c
308.410 -94.4238 307.977 -94.6061 307.373 -94.7207  c
306.654 -94.8613 l
305.769 -95.0384 305.128 -95.3145 304.732 -95.6895  c
304.347 -96.0645 304.154 -96.5853 304.154 -97.2520  c
304.154 -98.0332 304.425 -98.6426 304.967 -99.0801  c
305.508 -99.5280 306.258 -99.7520 307.217 -99.7520  c
307.633 -99.7520 308.050 -99.7155 308.467 -99.6426  c
308.894 -99.5697 309.331 -99.4603 309.779 -99.3145  c
h
317.568 -94.8145 m
317.568 -90.8457 l
316.490 -90.8457 l
316.490 -94.7676 l
316.490 -95.3926 316.365 -95.8561 316.115 -96.1582  c
315.876 -96.4707 315.516 -96.6270 315.037 -96.6270  c
314.454 -96.6270 313.990 -96.4395 313.646 -96.0645  c
313.313 -95.6999 313.146 -95.1947 313.146 -94.5488  c
313.146 -90.8457 l
312.068 -90.8457 l
312.068 -99.9707 l
313.146 -99.9707 l
313.146 -96.3926 l
313.407 -96.7884 313.709 -97.0801 314.053 -97.2676  c
314.407 -97.4655 314.813 -97.5645 315.271 -97.5645  c
316.021 -97.5645 316.589 -97.3301 316.975 -96.8613  c
317.370 -96.4030 317.568 -95.7207 317.568 -94.8145  c
h
319.705 -97.4082 m
320.783 -97.4082 l
320.783 -90.8457 l
319.705 -90.8457 l
319.705 -97.4082 l
h
319.705 -99.9707 m
320.783 -99.9707 l
320.783 -98.5957 l
319.705 -98.5957 l
319.705 -99.9707 l
h
324.086 -91.8301 m
324.086 -88.3457 l
323.008 -88.3457 l
323.008 -97.4082 l
324.086 -97.4082 l
324.086 -96.4082 l
324.315 -96.8040 324.602 -97.0957 324.945 -97.2832  c
325.289 -97.4707 325.701 -97.5645 326.180 -97.5645  c
326.982 -97.5645 327.633 -97.2467 328.133 -96.6113  c
328.633 -95.9863 328.883 -95.1582 328.883 -94.1270  c
328.883 -93.0957 328.633 -92.2624 328.133 -91.6270  c
327.633 -90.9915 326.982 -90.6738 326.180 -90.6738  c
325.701 -90.6738 325.289 -90.7676 324.945 -90.9551  c
324.602 -91.1530 324.315 -91.4447 324.086 -91.8301  c
h
327.758 -94.1270 m
327.758 -94.9186 327.591 -95.5384 327.258 -95.9863  c
326.935 -96.4342 326.492 -96.6582 325.930 -96.6582  c
325.357 -96.6582 324.904 -96.4342 324.570 -95.9863  c
324.247 -95.5384 324.086 -94.9186 324.086 -94.1270  c
324.086 -93.3353 324.247 -92.7103 324.570 -92.2520  c
324.904 -91.8040 325.357 -91.5801 325.930 -91.5801  c
326.492 -91.5801 326.935 -91.8040 327.258 -92.2520  c
327.591 -92.7103 327.758 -93.3353 327.758 -94.1270  c
h
335.549 -99.2676 m
335.549 -97.4082 l
337.768 -97.4082 l
337.768 -96.5645 l
335.549 -96.5645 l
335.549 -93.0020 l
335.549 -92.4707 335.622 -92.1270 335.768 -91.9707  c
335.913 -91.8249 336.210 -91.7520 336.658 -91.7520  c
337.768 -91.7520 l
337.768 -90.8457 l
336.658 -90.8457 l
335.825 -90.8457 335.247 -91.0020 334.924 -91.3145  c
334.611 -91.6270 334.455 -92.1895 334.455 -93.0020  c
334.455 -96.5645 l
333.674 -96.5645 l
333.674 -97.4082 l
334.455 -97.4082 l
334.455 -99.2676 l
335.549 -99.2676 l
h
341.723 -96.6582 m
341.150 -96.6582 340.691 -96.4290 340.348 -95.9707  c
340.014 -95.5228 339.848 -94.9082 339.848 -94.1270  c
339.848 -93.3353 340.014 -92.7155 340.348 -92.2676  c
340.681 -91.8197 341.139 -91.5957 341.723 -91.5957  c
342.296 -91.5957 342.749 -91.8197 343.082 -92.2676  c
343.426 -92.7259 343.598 -93.3457 343.598 -94.1270  c
343.598 -94.8978 343.426 -95.5124 343.082 -95.9707  c
342.749 -96.4290 342.296 -96.6582 341.723 -96.6582  c
h
341.723 -97.5645 m
342.660 -97.5645 343.395 -97.2572 343.926 -96.6426  c
344.467 -96.0384 344.738 -95.1999 344.738 -94.1270  c
344.738 -93.0540 344.467 -92.2103 343.926 -91.5957  c
343.395 -90.9811 342.660 -90.6738 341.723 -90.6738  c
340.785 -90.6738 340.046 -90.9811 339.504 -91.5957  c
338.973 -92.2103 338.707 -93.0540 338.707 -94.1270  c
338.707 -95.1999 338.973 -96.0384 339.504 -96.6426  c
340.046 -97.2572 340.785 -97.5645 341.723 -97.5645  c
h
354.520 -97.2207 m
354.520 -96.1895 l
354.217 -96.3457 353.900 -96.4603 353.566 -96.5332  c
353.243 -96.6165 352.905 -96.6582 352.551 -96.6582  c
352.020 -96.6582 351.618 -96.5749 351.348 -96.4082  c
351.077 -96.2520 350.941 -96.0072 350.941 -95.6738  c
350.941 -95.4238 351.035 -95.2259 351.223 -95.0801  c
351.421 -94.9447 351.811 -94.8145 352.395 -94.6895  c
352.754 -94.5957 l
353.525 -94.4395 354.072 -94.2103 354.395 -93.9082  c
354.717 -93.6061 354.879 -93.1895 354.879 -92.6582  c
354.879 -92.0436 354.634 -91.5592 354.145 -91.2051  c
353.665 -90.8509 353.004 -90.6738 352.160 -90.6738  c
351.806 -90.6738 351.436 -90.7103 351.051 -90.7832  c
350.676 -90.8457 350.280 -90.9447 349.863 -91.0801  c
349.863 -92.2051 l
350.259 -91.9967 350.650 -91.8405 351.035 -91.7363  c
351.421 -91.6322 351.806 -91.5801 352.191 -91.5801  c
352.691 -91.5801 353.077 -91.6634 353.348 -91.8301  c
353.629 -92.0072 353.770 -92.2572 353.770 -92.5801  c
353.770 -92.8717 353.671 -93.0957 353.473 -93.2520  c
353.275 -93.4082 352.842 -93.5592 352.176 -93.7051  c
351.801 -93.7832 l
351.134 -93.9290 350.650 -94.1478 350.348 -94.4395  c
350.056 -94.7311 349.910 -95.1270 349.910 -95.6270  c
349.910 -96.2520 350.129 -96.7311 350.566 -97.0645  c
351.004 -97.3978 351.624 -97.5645 352.426 -97.5645  c
352.822 -97.5645 353.197 -97.5332 353.551 -97.4707  c
353.905 -97.4186 354.228 -97.3353 354.520 -97.2207  c
h
362.209 -94.3926 m
362.209 -93.8770 l
357.240 -93.8770 l
357.292 -93.1270 357.516 -92.5592 357.912 -92.1738  c
358.318 -91.7884 358.876 -91.5957 359.584 -91.5957  c
360.001 -91.5957 360.402 -91.6426 360.787 -91.7363  c
361.183 -91.8405 361.574 -91.9967 361.959 -92.2051  c
361.959 -91.1738 l
361.563 -91.0176 361.162 -90.8978 360.756 -90.8145  c
360.350 -90.7207 359.938 -90.6738 359.521 -90.6738  c
358.480 -90.6738 357.652 -90.9759 357.037 -91.5801  c
356.423 -92.1947 356.115 -93.0228 356.115 -94.0645  c
356.115 -95.1374 356.407 -95.9863 356.990 -96.6113  c
357.574 -97.2467 358.355 -97.5645 359.334 -97.5645  c
360.219 -97.5645 360.917 -97.2780 361.428 -96.7051  c
361.949 -96.1426 362.209 -95.3717 362.209 -94.3926  c
h
361.131 -94.7207 m
361.120 -95.3040 360.954 -95.7728 360.631 -96.1270  c
360.308 -96.4811 359.881 -96.6582 359.350 -96.6582  c
358.745 -96.6582 358.261 -96.4863 357.896 -96.1426  c
357.542 -95.7988 357.339 -95.3197 357.287 -94.7051  c
361.131 -94.7207 l
h
367.779 -96.4082 m
367.654 -96.4707 367.519 -96.5176 367.373 -96.5488  c
367.238 -96.5905 367.081 -96.6113 366.904 -96.6113  c
366.300 -96.6113 365.831 -96.4134 365.498 -96.0176  c
365.175 -95.6217 365.014 -95.0488 365.014 -94.2988  c
365.014 -90.8457 l
363.936 -90.8457 l
363.936 -97.4082 l
365.014 -97.4082 l
365.014 -96.3926 l
365.243 -96.7884 365.540 -97.0801 365.904 -97.2676  c
366.269 -97.4655 366.712 -97.5645 367.232 -97.5645  c
367.305 -97.5645 367.383 -97.5592 367.467 -97.5488  c
367.561 -97.5384 367.660 -97.5228 367.764 -97.5020  c
367.779 -96.4082 l
h
368.135 -97.4082 m
369.275 -97.4082 l
371.322 -91.9082 l
373.385 -97.4082 l
374.525 -97.4082 l
372.057 -90.8457 l
370.588 -90.8457 l
368.135 -97.4082 l
h
381.627 -94.3926 m
381.627 -93.8770 l
376.658 -93.8770 l
376.710 -93.1270 376.934 -92.5592 377.330 -92.1738  c
377.736 -91.7884 378.294 -91.5957 379.002 -91.5957  c
379.419 -91.5957 379.820 -91.6426 380.205 -91.7363  c
380.601 -91.8405 380.992 -91.9967 381.377 -92.2051  c
381.377 -91.1738 l
380.981 -91.0176 380.580 -90.8978 380.174 -90.8145  c
379.768 -90.7207 379.356 -90.6738 378.939 -90.6738  c
377.898 -90.6738 377.070 -90.9759 376.455 -91.5801  c
375.840 -92.1947 375.533 -93.0228 375.533 -94.0645  c
375.533 -95.1374 375.825 -95.9863 376.408 -96.6113  c
376.992 -97.2467 377.773 -97.5645 378.752 -97.5645  c
379.637 -97.5645 380.335 -97.2780 380.846 -96.7051  c
381.367 -96.1426 381.627 -95.3717 381.627 -94.3926  c
h
380.549 -94.7207 m
380.538 -95.3040 380.372 -95.7728 380.049 -96.1270  c
379.726 -96.4811 379.299 -96.6582 378.768 -96.6582  c
378.163 -96.6582 377.679 -96.4863 377.314 -96.1426  c
376.960 -95.7988 376.757 -95.3197 376.705 -94.7051  c
380.549 -94.7207 l
h
387.197 -96.4082 m
387.072 -96.4707 386.937 -96.5176 386.791 -96.5488  c
386.656 -96.5905 386.499 -96.6113 386.322 -96.6113  c
385.718 -96.6113 385.249 -96.4134 384.916 -96.0176  c
384.593 -95.6217 384.432 -95.0488 384.432 -94.2988  c
384.432 -90.8457 l
383.354 -90.8457 l
383.354 -97.4082 l
384.432 -97.4082 l
384.432 -96.3926 l
384.661 -96.7884 384.958 -97.0801 385.322 -97.2676  c
385.687 -97.4655 386.130 -97.5645 386.650 -97.5645  c
386.723 -97.5645 386.801 -97.5592 386.885 -97.5488  c
386.979 -97.5384 387.077 -97.5228 387.182 -97.5020  c
387.197 -96.4082 l
h
393.305 -91.8457 m
397.445 -91.8457 l
397.445 -90.8457 l
391.883 -90.8457 l
391.883 -91.8457 l
392.331 -92.3040 392.940 -92.9238 393.711 -93.7051  c
394.492 -94.4967 394.982 -95.0072 395.180 -95.2363  c
395.565 -95.6530 395.831 -96.0072 395.977 -96.2988  c
396.133 -96.6009 396.211 -96.8926 396.211 -97.1738  c
396.211 -97.6426 396.044 -98.0228 395.711 -98.3145  c
395.388 -98.6061 394.966 -98.7520 394.445 -98.7520  c
394.070 -98.7520 393.674 -98.6895 393.258 -98.5645  c
392.852 -98.4395 392.414 -98.2415 391.945 -97.9707  c
391.945 -99.1738 l
392.424 -99.3613 392.867 -99.5020 393.273 -99.5957  c
393.690 -99.6999 394.070 -99.7520 394.414 -99.7520  c
395.320 -99.7520 396.044 -99.5228 396.586 -99.0645  c
397.128 -98.6165 397.398 -98.0124 397.398 -97.2520  c
397.398 -96.8978 397.331 -96.5592 397.195 -96.2363  c
397.060 -95.9134 396.815 -95.5332 396.461 -95.0957  c
396.357 -94.9811 396.044 -94.6530 395.523 -94.1113  c
395.003 -93.5697 394.263 -92.8145 393.305 -91.8457  c
h
f
2 J
10.0000 M
1.00000 1.00000 1.00000 RG
newpath
291.000 -170.000 m
411.000 -170.000 l
411.000 -140.000 l
291.000 -140.000 l
291.000 -170.000 l
h
f
0 J
1.45000 M
0.00000 0.00000 0.00000 RG
newpath
291.000 -170.000 m
411.000 -170.000 l
411.000 -140.000 l
291.000 -140.000 l
291.000 -170.000 l
h
S
2 J
10.0000 M
0 J
1.45000 M
newpath
309.779 -159.314 m
309.779 -158.158 l
309.331 -158.367 308.904 -158.523 308.498 -158.627  c
308.102 -158.742 307.722 -158.799 307.357 -158.799  c
306.712 -158.799 306.212 -158.674 305.857 -158.424  c
305.514 -158.174 305.342 -157.814 305.342 -157.346  c
305.342 -156.960 305.456 -156.669 305.686 -156.471  c
305.915 -156.273 306.357 -156.117 307.014 -156.002  c
307.717 -155.846 l
308.602 -155.679 309.253 -155.382 309.670 -154.955  c
310.097 -154.538 310.311 -153.976 310.311 -153.268  c
310.311 -152.413 310.024 -151.768 309.451 -151.330  c
308.889 -150.893 308.055 -150.674 306.951 -150.674  c
306.545 -150.674 306.107 -150.721 305.639 -150.814  c
305.170 -150.908 304.686 -151.049 304.186 -151.236  c
304.186 -152.455 l
304.665 -152.184 305.133 -151.981 305.592 -151.846  c
306.061 -151.710 306.514 -151.643 306.951 -151.643  c
307.628 -151.643 308.149 -151.773 308.514 -152.033  c
308.889 -152.304 309.076 -152.684 309.076 -153.174  c
309.076 -153.601 308.941 -153.934 308.670 -154.174  c
308.410 -154.424 307.977 -154.606 307.373 -154.721  c
306.654 -154.861 l
305.769 -155.038 305.128 -155.314 304.732 -155.689  c
304.347 -156.064 304.154 -156.585 304.154 -157.252  c
304.154 -158.033 304.425 -158.643 304.967 -159.080  c
305.508 -159.528 306.258 -159.752 307.217 -159.752  c
307.633 -159.752 308.050 -159.715 308.467 -159.643  c
308.894 -159.570 309.331 -159.460 309.779 -159.314  c
h
317.568 -154.814 m
317.568 -150.846 l
316.490 -150.846 l
316.490 -154.768 l
316.490 -155.393 316.365 -155.856 316.115 -156.158  c
315.876 -156.471 315.516 -156.627 315.037 -156.627  c
314.454 -156.627 313.990 -156.439 313.646 -156.064  c
313.313 -155.700 313.146 -155.195 313.146 -154.549  c
313.146 -150.846 l
312.068 -150.846 l
312.068 -159.971 l
313.146 -159.971 l
313.146 -156.393 l
313.407 -156.788 313.709 -157.080 314.053 -157.268  c
314.407 -157.465 314.813 -157.564 315.271 -157.564  c
316.021 -157.564 316.589 -157.330 316.975 -156.861  c
317.370 -156.403 317.568 -155.721 317.568 -154.814  c
h
319.705 -157.408 m
320.783 -157.408 l
320.783 -150.846 l
319.705 -150.846 l
319.705 -157.408 l
h
319.705 -159.971 m
320.783 -159.971 l
320.783 -158.596 l
319.705 -158.596 l
319.705 -159.971 l
h
324.086 -151.830 m
324.086 -148.346 l
323.008 -148.346 l
323.008 -157.408 l
324.086 -157.408 l
324.086 -156.408 l
324.315 -156.804 324.602 -157.096 324.945 -157.283  c
325.289 -157.471 325.701 -157.564 326.180 -157.564  c
326.982 -157.564 327.633 -157.247 328.133 -156.611  c
328.633 -155.986 328.883 -155.158 328.883 -154.127  c
328.883 -153.096 328.633 -152.262 328.133 -151.627  c
327.633 -150.992 326.982 -150.674 326.180 -150.674  c
325.701 -150.674 325.289 -150.768 324.945 -150.955  c
324.602 -151.153 324.315 -151.445 324.086 -151.830  c
h
327.758 -154.127 m
327.758 -154.919 327.591 -155.538 327.258 -155.986  c
326.935 -156.434 326.492 -156.658 325.930 -156.658  c
325.357 -156.658 324.904 -156.434 324.570 -155.986  c
324.247 -155.538 324.086 -154.919 324.086 -154.127  c
324.086 -153.335 324.247 -152.710 324.570 -152.252  c
324.904 -151.804 325.357 -151.580 325.930 -151.580  c
326.492 -151.580 326.935 -151.804 327.258 -152.252  c
327.591 -152.710 327.758 -153.335 327.758 -154.127  c
h
335.549 -159.268 m
335.549 -157.408 l
337.768 -157.408 l
337.768 -156.564 l
335.549 -156.564 l
335.549 -153.002 l
335.549 -152.471 335.622 -152.127 335.768 -151.971  c
335.913 -151.825 336.210 -151.752 336.658 -151.752  c
337.768 -151.752 l
337.768 -150.846 l
336.658 -150.846 l
335.825 -150.846 335.247 -151.002 334.924 -151.314  c
334.611 -151.627 334.455 -152.189 334.455 -153.002  c
334.455 -156.564 l
333.674 -156.564 l
333.674 -157.408 l
334.455 -157.408 l
334.455 -159.268 l
335.549 -159.268 l
h
341.723 -156.658 m
341.150 -156.658 340.691 -156.429 340.348 -155.971  c
340.014 -155.523 339.848 -154.908 339.848 -154.127  c
339.848 -153.335 340.014 -152.715 340.348 -152.268  c
340.681 -151.820 341.139 -151.596 341.723 -151.596  c
342.296 -151.596 342.749 -151.820 343.082 -152.268  c
343.426 -152.726 343.598 -153.346 343.598 -154.127  c
343.598 -154.898 343.426 -155.512 343.082 -155.971  c
342.749 -156.429 342.296 -156.658 341.723 -156.658  c
h
341.723 -157.564 m
342.660 -157.564 343.395 -157.257 343.926 -156.643  c
344.467 -156.038 344.738 -155.200 344.738 -154.127  c
344.738 -153.054 344.467 -152.210 343.926 -151.596  c
343.395 -150.981 342.660 -150.674 341.723 -150.674  c
340.785 -150.674 340.046 -150.981 339.504 -151.596  c
338.973 -152.210 338.707 -153.054 338.707 -154.127  c
338.707 -155.200 338.973 -156.038 339.504 -156.643  c
340.046 -157.257 340.785 -157.564 341.723 -157.564  c
h
354.520 -157.221 m
354.520 -156.189 l
354.217 -156.346 353.900 -156.460 353.566 -156.533  c
353.243 -156.617 352.905 -156.658 352.551 -156.658  c
352.020 -156.658 351.618 -156.575 351.348 -156.408  c
351.077 -156.252 350.941 -156.007 350.941 -155.674  c
350.941 -155.424 351.035 -155.226 351.223 -155.080  c
351.421 -154.945 351.811 -154.814 352.395 -154.689  c
352.754 -154.596 l
353.525 -154.439 354.072 -154.210 354.395 -153.908  c
354.717 -153.606 354.879 -153.189 354.879 -152.658  c
354.879 -152.044 354.634 -151.559 354.145 -151.205  c
353.665 -150.851 353.004 -150.674 352.160 -150.674  c
351.806 -150.674 351.436 -150.710 351.051 -150.783  c
350.676 -150.846 350.280 -150.945 349.863 -151.080  c
349.863 -152.205 l
350.259 -151.997 350.650 -151.840 351.035 -151.736  c
351.421 -151.632 351.806 -151.580 352.191 -151.580  c
352.691 -151.580 353.077 -151.663 353.348 -151.830  c
353.629 -152.007 353.770 -152.257 353.770 -152.580  c
353.770 -152.872 353.671 -153.096 353.473 -153.252  c
353.275 -153.408 352.842 -153.559 352.176 -153.705  c
351.801 -153.783 l
351.134 -153.929 350.650 -154.148 350.348 -154.439  c
350.056 -154.731 349.910 -155.127 349.910 -155.627  c
349.910 -156.252 350.129 -156.731 350.566 -157.064  c
351.004 -157.398 351.624 -157.564 352.426 -157.564  c
352.822 -157.564 353.197 -157.533 353.551 -157.471  c
353.905 -157.419 354.228 -157.335 354.520 -157.221  c
h
362.209 -154.393 m
362.209 -153.877 l
357.240 -153.877 l
357.292 -153.127 357.516 -152.559 357.912 -152.174  c
358.318 -151.788 358.876 -151.596 359.584 -151.596  c
360.001 -151.596 360.402 -151.643 360.787 -151.736  c
361.183 -151.840 361.574 -151.997 361.959 -152.205  c
361.959 -151.174 l
361.563 -151.018 361.162 -150.898 360.756 -150.814  c
360.350 -150.721 359.938 -150.674 359.521 -150.674  c
358.480 -150.674 357.652 -150.976 357.037 -151.580  c
356.423 -152.195 356.115 -153.023 356.115 -154.064  c
356.115 -155.137 356.407 -155.986 356.990 -156.611  c
357.574 -157.247 358.355 -157.564 359.334 -157.564  c
360.219 -157.564 360.917 -157.278 361.428 -156.705  c
361.949 -156.143 362.209 -155.372 362.209 -154.393  c
h
361.131 -154.721 m
361.120 -155.304 360.954 -155.773 360.631 -156.127  c
360.308 -156.481 359.881 -156.658 359.350 -156.658  c
358.745 -156.658 358.261 -156.486 357.896 -156.143  c
357.542 -155.799 357.339 -155.320 357.287 -154.705  c
361.131 -154.721 l
h
367.779 -156.408 m
367.654 -156.471 367.519 -156.518 367.373 -156.549  c
367.238 -156.590 367.081 -156.611 366.904 -156.611  c
366.300 -156.611 365.831 -156.413 365.498 -156.018  c
365.175 -155.622 365.014 -155.049 365.014 -154.299  c
365.014 -150.846 l
363.936 -150.846 l
363.936 -157.408 l
365.014 -157.408 l
365.014 -156.393 l
365.243 -156.788 365.540 -157.080 365.904 -157.268  c
366.269 -157.465 366.712 -157.564 367.232 -157.564  c
367.305 -157.564 367.383 -157.559 367.467 -157.549  c
367.561 -157.538 367.660 -157.523 367.764 -157.502  c
367.779 -156.408 l
h
368.135 -157.408 m
369.275 -157.408 l
371.322 -151.908 l
373.385 -157.408 l
374.525 -157.408 l
372.057 -150.846 l
370.588 -150.846 l
368.135 -157.408 l
h
381.627 -154.393 m
381.627 -153.877 l
376.658 -153.877 l
376.710 -153.127 376.934 -152.559 377.330 -152.174  c
377.736 -151.788 378.294 -151.596 379.002 -151.596  c
379.419 -151.596 379.820 -151.643 380.205 -151.736  c
380.601 -151.840 380.992 -151.997 381.377 -152.205  c
381.377 -151.174 l
380.981 -151.018 380.580 -150.898 380.174 -150.814  c
379.768 -150.721 379.356 -150.674 378.939 -150.674  c
377.898 -150.674 377.070 -150.976 376.455 -151.580  c
375.840 -152.195 375.533 -153.023 375.533 -154.064  c
375.533 -155.137 375.825 -155.986 376.408 -156.611  c
376.992 -157.247 377.773 -157.564 378.752 -157.564  c
379.637 -157.564 380.335 -157.278 380.846 -156.705  c
381.367 -156.143 381.627 -155.372 381.627 -154.393  c
h
380.549 -154.721 m
380.538 -155.304 380.372 -155.773 380.049 -156.127  c
379.726 -156.481 379.299 -156.658 378.768 -156.658  c
378.163 -156.658 377.679 -156.486 377.314 -156.143  c
376.960 -155.799 376.757 -155.320 376.705 -154.705  c
380.549 -154.721 l
h
387.197 -156.408 m
387.072 -156.471 386.937 -156.518 386.791 -156.549  c
386.656 -156.590 386.499 -156.611 386.322 -156.611  c
385.718 -156.611 385.249 -156.413 384.916 -156.018  c
384.593 -155.622 384.432 -155.049 384.432 -154.299  c
384.432 -150.846 l
383.354 -150.846 l
383.354 -157.408 l
384.432 -157.408 l
384.432 -156.393 l
384.661 -156.788 384.958 -157.080 385.322 -157.268  c
385.687 -157.465 386.130 -157.564 386.650 -157.564  c
386.723 -157.564 386.801 -157.559 386.885 -157.549  c
386.979 -157.538 387.077 -157.523 387.182 -157.502  c
387.197 -156.408 l
h
395.883 -155.564 m
396.445 -155.439 396.883 -155.184 397.195 -154.799  c
397.518 -154.424 397.680 -153.955 397.680 -153.393  c
397.680 -152.528 397.383 -151.856 396.789 -151.377  c
396.195 -150.908 395.352 -150.674 394.258 -150.674  c
393.893 -150.674 393.513 -150.710 393.117 -150.783  c
392.732 -150.856 392.336 -150.965 391.930 -151.111  c
391.930 -152.252 l
392.253 -152.064 392.607 -151.919 392.992 -151.814  c
393.388 -151.721 393.799 -151.674 394.227 -151.674  c
394.966 -151.674 395.529 -151.820 395.914 -152.111  c
396.310 -152.403 396.508 -152.830 396.508 -153.393  c
396.508 -153.903 396.326 -154.304 395.961 -154.596  c
395.596 -154.887 395.096 -155.033 394.461 -155.033  c
393.430 -155.033 l
393.430 -156.002 l
394.508 -156.002 l
395.081 -156.002 395.523 -156.117 395.836 -156.346  c
396.148 -156.585 396.305 -156.924 396.305 -157.361  c
396.305 -157.809 396.143 -158.153 395.820 -158.393  c
395.508 -158.632 395.055 -158.752 394.461 -158.752  c
394.128 -158.752 393.773 -158.715 393.398 -158.643  c
393.034 -158.580 392.628 -158.476 392.180 -158.330  c
392.180 -159.377 l
392.638 -159.502 393.060 -159.596 393.445 -159.658  c
393.841 -159.721 394.211 -159.752 394.555 -159.752  c
395.461 -159.752 396.174 -159.549 396.695 -159.143  c
397.216 -158.736 397.477 -158.184 397.477 -157.486  c
397.477 -156.997 397.336 -156.585 397.055 -156.252  c
396.784 -155.919 396.393 -155.689 395.883 -155.564  c
h
f
2 J
10.0000 M
1.00000 1.00000 1.00000 RG
newpath
472.000 -35.0000 m
472.000 -26.7157 465.284 -20.0000 457.000 -20.0000  c
448.716 -20.0000 442.000 -26.7157 442.000 -35.0000  c
442.000 -43.2843 448.716 -50.0000 457.000 -50.0000  c
465.284 -50.0000 472.000 -43.2843 472.000 -35.0000  c
h
f
0 J
1.45000 M
newpath
458.058 -35.5645 m
458.620 -35.4395 459.058 -35.1842 459.370 -34.7988  c
459.693 -34.4238 459.854 -33.9551 459.854 -33.3926  c
459.854 -32.5280 459.558 -31.8561 458.964 -31.3770  c
458.370 -30.9082 457.526 -30.6738 456.433 -30.6738  c
456.068 -30.6738 455.688 -30.7103 455.292 -30.7832  c
454.907 -30.8561 454.511 -30.9655 454.104 -31.1113  c
454.104 -32.2520 l
454.427 -32.0645 454.782 -31.9186 455.167 -31.8145  c
455.563 -31.7207 455.974 -31.6738 456.401 -31.6738  c
457.141 -31.6738 457.703 -31.8197 458.089 -32.1113  c
458.485 -32.4030 458.683 -32.8301 458.683 -33.3926  c
458.683 -33.9030 458.500 -34.3040 458.136 -34.5957  c
457.771 -34.8874 457.271 -35.0332 456.636 -35.0332  c
455.604 -35.0332 l
455.604 -36.0020 l
456.683 -36.0020 l
457.256 -36.0020 457.698 -36.1165 458.011 -36.3457  c
458.323 -36.5853 458.479 -36.9238 458.479 -37.3613  c
458.479 -37.8092 458.318 -38.1530 457.995 -38.3926  c
457.683 -38.6322 457.229 -38.7520 456.636 -38.7520  c
456.302 -38.7520 455.948 -38.7155 455.573 -38.6426  c
455.209 -38.5801 454.802 -38.4759 454.354 -38.3301  c
454.354 -39.3770 l
454.813 -39.5020 455.235 -39.5957 455.620 -39.6582  c
456.016 -39.7207 456.386 -39.7520 456.729 -39.7520  c
457.636 -39.7520 458.349 -39.5488 458.870 -39.1426  c
459.391 -38.7363 459.651 -38.1842 459.651 -37.4863  c
459.651 -36.9967 459.511 -36.5853 459.229 -36.2520  c
458.959 -35.9186 458.568 -35.6895 458.058 -35.5645  c
h
f
2 J
10.0000 M
0.00000 0.00000 0.00000 RG
1.00000 1.00000 1.00000 RG
newpath
472.000 -95.0000 m
472.000 -86.7157 465.284 -80.0000 457.000 -80.0000  c
448.716 -80.0000 442.000 -86.7157 442.000 -95.0000  c
442.000 -103.284 448.716 -110.000 457.000 -110.000  c
465.284 -110.000 472.000 -103.284 472.000 -95.0000  c
h
f
0 J
1.45000 M
newpath
458.058 -95.5645 m
458.620 -95.4395 459.058 -95.1842 459.370 -94.7988  c
459.693 -94.4238 459.854 -93.9551 459.854 -93.3926  c
459.854 -92.5280 459.558 -91.8561 458.964 -91.3770  c
458.370 -90.9082 457.526 -90.6738 456.433 -90.6738  c
456.068 -90.6738 455.688 -90.7103 455.292 -90.7832  c
454.907 -90.8561 454.511 -90.9655 454.104 -91.1113  c
454.104 -92.2520 l
454.427 -92.0645 454.782 -91.9186 455.167 -91.8145  c
455.563 -91.7207 455.974 -91.6738 456.401 -91.6738  c
457.141 -91.6738 457.703 -91.8197 458.089 -92.1113  c
458.485 -92.4030 458.683 -92.8301 458.683 -93.3926  c
458.683 -93.9030 458.500 -94.3040 458.136 -94.5957  c
457.771 -94.8874 457.271 -95.0332 456.636 -95.0332  c
455.604 -95.0332 l
455.604 -96.0020 l
456.683 -96.0020 l
457.256 -96.0020 457.698 -96.1165 458.011 -96.3457  c
458.323 -96.5853 458.479 -96.9238 458.479 -97.3613  c
458.479 -97.8092 458.318 -98.1530 457.995 -98.3926  c
457.683 -98.6322 457.229 -98.7520 456.636 -98.7520  c
456.302 -98.7520 455.948 -98.7155 455.573 -98.6426  c
455.209 -98.5801 454.802 -98.4759 454.354 -98.3301  c
454.354 -99.3770 l
454.813 -99.5020 455.235 -99.5957 455.620 -99.6582  c
456.016 -99.7207 456.386 -99.7520 456.729 -99.7520  c
457.636 -99.7520 458.349 -99.5488 458.870 -99.1426  c
459.391 -98.7363 459.651 -98.1842 459.651 -97.4863  c
459.651 -96.9967 459.511 -96.5853 459.229 -96.2520  c
458.959 -95.9186 458.568 -95.6895 458.058 -95.5645  c
h
f
2 J
10.0000 M
0.00000 0.00000 0.00000 RG
1.00000 1.00000 1.00000 RG
newpath
472.000 -155.000 m
472.000 -146.716 465.284 -140.000 457.000 -140.000  c
448.716 -140.000 442.000 -146.716 442.000 -155.000  c
442.000 -163.284 448.716 -170.000 457.000 -170.000  c
465.284 -170.000 472.000 -163.284 472.000 -155.000  c
h
f
0 J
1.45000 M
newpath
458.058 -155.564 m
458.620 -155.439 459.058 -155.184 459.370 -154.799  c
459.693 -154.424 459.854 -153.955 459.854 -153.393  c
459.854 -152.528 459.558 -151.856 458.964 -151.377  c
458.370 -150.908 457.526 -150.674 456.433 -150.674  c
456.068 -150.674 455.688 -150.710 455.292 -150.783  c
454.907 -150.856 454.511 -150.965 454.104 -151.111  c
454.104 -152.252 l
454.427 -152.064 454.782 -151.919 455.167 -151.814  c
455.563 -151.721 455.974 -151.674 456.401 -151.674  c
457.141 -151.674 457.703 -151.820 458.089 -152.111  c
458.485 -152.403 458.683 -152.830 458.683 -153.393  c
458.683 -153.903 458.500 -154.304 458.136 -154.596  c
457.771 -154.887 457.271 -155.033 456.636 -155.033  c
455.604 -155.033 l
455.604 -156.002 l
456.683 -156.002 l
457.256 -156.002 457.698 -156.117 458.011 -156.346  c
458.323 -156.585 458.479 -156.924 458.479 -157.361  c
458.479 -157.809 458.318 -158.153 457.995 -158.393  c
457.683 -158.632 457.229 -158.752 456.636 -158.752  c
456.302 -158.752 455.948 -158.715 455.573 -158.643  c
455.209 -158.580 454.802 -158.476 454.354 -158.330  c
454.354 -159.377 l
454.813 -159.502 455.235 -159.596 455.620 -159.658  c
456.016 -159.721 456.386 -159.752 456.729 -159.752  c
457.636 -159.752 458.349 -159.549 458.870 -159.143  c
459.391 -158.736 459.651 -158.184 459.651 -157.486  c
459.651 -156.997 459.511 -156.585 459.229 -156.252  c
458.959 -155.919 458.568 -155.689 458.058 -155.564  c
h
f
2 J
10.0000 M
0.00000 0.00000 0.00000 RG
1.00000 1.00000 1.00000 RG
newpath
75.0000 -135.000 m
75.0000 -126.716 68.2843 -120.000 60.0000 -120.000  c
51.7157 -120.000 45.0000 -126.716 45.0000 -135.000  c
45.0000 -143.284 51.7157 -150.000 60.0000 -150.000  c
68.2843 -150.000 75.0000 -143.284 75.0000 -135.000  c
h
f
0 J
1.45000 M
0.00000 0.00000 0.00000 RG
newpath
75.0000 -135.000 m
75.0000 -126.716 68.2843 -120.000 60.0000 -120.000  c
51.7157 -120.000 45.0000 -126.716 45.0000 -135.000  c
45.0000 -143.284 51.7157 -150.000 60.0000 -150.000  c
68.2843 -150.000 75.0000 -143.284 75.0000 -135.000  c
h
S
2 J
10.0000 M
0 J
1.45000 M
newpath
57.6670 -131.846 m
59.6045 -131.846 l
59.6045 -138.518 l
57.4951 -138.096 l
57.4951 -139.174 l
59.5889 -139.596 l
60.7764 -139.596 l
60.7764 -131.846 l
62.7139 -131.846 l
62.7139 -130.846 l
57.6670 -130.846 l
57.6670 -131.846 l
h
f
2 J
10.0000 M
1.00000 1.00000 1.00000 RG
newpath
215.000 -135.000 m
215.000 -126.716 208.284 -120.000 200.000 -120.000  c
191.716 -120.000 185.000 -126.716 185.000 -135.000  c
185.000 -143.284 191.716 -150.000 200.000 -150.000  c
208.284 -150.000 215.000 -143.284 215.000 -135.000  c
h
f
0 J
1.45000 M
0.00000 0.00000 0.00000 RG
newpath
215.000 -135.000 m
215.000 -126.716 208.284 -120.000 200.000 -120.000  c
191.716 -120.000 185.000 -126.716 185.000 -135.000  c
185.000 -143.284 191.716 -150.000 200.000 -150.000  c
208.284 -150.000 215.000 -143.284 215.000 -135.000  c
h
S
2 J
10.0000 M
0 J
1.45000 M
newpath
198.479 -131.846 m
202.620 -131.846 l
202.620 -130.846 l
197.058 -130.846 l
197.058 -131.846 l
197.506 -132.304 198.115 -132.924 198.886 -133.705  c
199.667 -134.497 200.157 -135.007 200.354 -135.236  c
200.740 -135.653 201.006 -136.007 201.151 -136.299  c
201.308 -136.601 201.386 -136.893 201.386 -137.174  c
201.386 -137.643 201.219 -138.023 200.886 -138.314  c
200.563 -138.606 200.141 -138.752 199.620 -138.752  c
199.245 -138.752 198.849 -138.689 198.433 -138.564  c
198.026 -138.439 197.589 -138.242 197.120 -137.971  c
197.120 -139.174 l
197.599 -139.361 198.042 -139.502 198.448 -139.596  c
198.865 -139.700 199.245 -139.752 199.589 -139.752  c
200.495 -139.752 201.219 -139.523 201.761 -139.064  c
202.302 -138.617 202.573 -138.012 202.573 -137.252  c
202.573 -136.898 202.506 -136.559 202.370 -136.236  c
202.235 -135.913 201.990 -135.533 201.636 -135.096  c
201.532 -134.981 201.219 -134.653 200.698 -134.111  c
200.177 -133.570 199.438 -132.814 198.479 -131.846  c
h
f
2 J
10.0000 M
0 J
1.45000 M
newpath
120.000 -95.0000 m
131.961 -95.0000 l
S
newpath
139.961 -95.0000 m
127.961 -100.000 l
130.961 -95.0000 l
127.961 -90.0000 l
h
f
2 J
10.0000 M
0 J
1.45000 M
newpath
260.000 -85.0000 m
275.500 -85.0000 l
275.500 -35.0000 l
282.970 -35.0000 l
S
newpath
290.970 -35.0000 m
278.970 -40.0000 l
281.970 -35.0000 l
278.970 -30.0000 l
h
f
2 J
10.0000 M
0 J
1.45000 M
newpath
260.000 -95.0000 m
282.970 -95.0000 l
S
newpath
290.970 -95.0000 m
278.970 -100.000 l
281.970 -95.0000 l
278.970 -90.0000 l
h
f
2 J
10.0000 M
0 J
1.45000 M
newpath
260.000 -105.000 m
275.500 -105.000 l
275.500 -155.000 l
282.970 -155.000 l
S
newpath
290.970 -155.000 m
278.970 -160.000 l
281.970 -155.000 l
278.970 -150.000 l
h
f
2 J
10.0000 M
Q
[ 1.00000 0.00000 0.00000 1.00000 0.00000 0.00000 ] defaultmatrix matrix concatmatrix setmatrix
cliprestore

%%Trailer
%%EOF
