%!PS-Adobe-3.0 EPSF-3.0
%%BoundingBox: 0 0 200 171
%%Creator: yExport 1.5
%%Producer: org.freehep.graphicsio.ps.EPSGraphics2D Revision: 12753 
%%For: 
%%Title: 
%%CreationDate: Monday, February 26, 2018 at 4:03:26 PM Eastern Standard Time
%%LanguageLevel: 3
%%EndComments
%%BeginProlog
100 dict dup begin

%
% File: org/freehep/graphicsio.ps/PSProlog.txt
% Author: Charles Loomis
%

% Redefinitions which save some space in the output file.  These are also
% the same as the PDF operators.
/q {gsave} def
/Q {grestore} def

/n {newpath} def
/m {moveto} def
/l {lineto} def
/c {curveto} def
/h {closepath} def

/re {4 -2 roll moveto
     dup 0 exch rlineto exch 0 rlineto
     neg 0 exch rlineto closepath} def

/f {fill} def
/f* {eofill} def
/F {gsave vg&FC fill grestore} def
/F* {gsave vg&FC eofill grestore} def

/s {closepath stroke} def
/S {stroke} def

/b {closepath gsave vg&FC fill grestore
    gsave stroke grestore newpath} def
/B {gsave vg&FC fill grestore gsave stroke grestore newpath} def
/b* {closepath gsave vg&FC eofill grestore
    gsave stroke grestore newpath} def
/B* {gsave vg&FC eofill grestore gsave stroke grestore newpath} def

/g {1 array astore /vg&fcolor exch def} def
/G {setgray} def
/k {4 array astore /vg&fcolor exch def} def
/K {setcmykcolor} def
/rg {3 array astore /vg&fcolor exch def} def
/RG {setrgbcolor} def

% Initialize the fill color.
0 0 0 rg

/vg&FC {mark vg&fcolor aload pop
        counttomark 1 eq {G} if
        counttomark 3 eq {RG} if
        counttomark 4 eq {K} if
        cleartomark } def

/vg&DFC {/vg&fcolor exch def} def

/vg&C {mark exch aload pop
       counttomark 1 eq {G} if
       counttomark 3 eq {RG} if
       counttomark 4 eq {K} if
       cleartomark } def

/w {setlinewidth} def
/j {setlinejoin} def
/J {setlinecap} def
/M {setmiterlimit} def
/d {setdash} def
/i {setflat} def

/W {clip} def
/W* {eoclip} def

% Setup the default graphics state.
% (black; 1 pt. linewidth; miter join; butt-ends; solid)
/defaultGraphicsState {0 g 1 w 0 j 0 J [] 0 d} def

% Emulation of the rectangle operators for PostScript implementations
% which do not implement all Level 2 features.  This is an INCOMPLETE
% emulation; only the "x y width height rect..." form is emulated.
/*rf {gsave newpath re fill grestore} def
/*rs {gsave newpath re stroke grestore} def
/*rc {newpath re clip} def
/rf  /rectfill where {pop /rectfill}{/*rf} ifelse load def
/rs  /rectstroke where {pop /rectstroke}{/*rs} ifelse load def
/rc  /rectclip where {pop /rectclip}{/*rc} ifelse load def

% Emulation of the selectfont operator.  This includes a 20% increase in
% the fontsize which is necessary to get sizes similar to the Java fonts.
/*sf {exch findfont exch
      dup type /arraytype eq {makefont}{scalefont} ifelse setfont} bind def
/sf /selectfont where {pop {1.2 mul selectfont}}{{1.2 mul *sf}} ifelse def

% Special version of stroke which allows the dash pattern to continue
% across path segments.  (This may be needed for PostScript although
% modern printers seem to do this correctly.)
/vg&stroke {
  currentdash pop length 0 eq
  {stroke}
  {
    currentdash /vg&doffset exch def pop
    flattenpath
    {m vg&resetdash}
    {2 copy
     currentpoint
     3 -1 roll sub dup mul
     3 1 roll sub dup mul
     add sqrt
     3 1 roll l
     currentdash 3 -1 roll add setdash}
     {}
     {h vg&resetdash}
     pathforall
     stroke
     vg&resetdash
  } ifelse
} def
/vg&resetdash {currentdash pop vg&doffset setdash} def

% Initialize variables for safety.
/delta 0 def
/xv 0 def  /yv 0 def  /width 0 def  /height 0 def

% Initialize to portrait INTERNATIONAL (Letter-height, A4-width) page.
/pw 595 def  /ph 791  def  /po true def /ftp false def

% Initialize margins to 20 points.
/ml 20 def  /mr 20 def  /mt 20 def  /mb 20 def

% Temporary matrices.
/smatrix 0 def  /nmatrix 0 def

% set page size (usage: <page width><page height> setpagesize)
/setpagesize {/ph exch def /pw exch def} def

% set page orientation (usage: portrait or landscape)
/portrait {/po true def} def
/landscape {/po false def} def

% force natural size for image (usage: naturalsize)
/naturalsize {/ftp false def} def

% resize image to fill page (usage: fittopage)
/fittopage {/ftp true def} def

% set margins of the page (usage: <left><bottom><top><right> setmargins)
/setmargins {/mr exch def /mt exch def /mb exch def /ml exch def} def

% set the graphic's size (usage: <width><height> setsize)
/setsize {/gh exch def /gw exch def} def

% set the graphic's origin (usage: <x0><y0> setorigin)
/setorigin {/gy exch def /gx exch def} def

% calculate image center
/imagecenter {pw ml sub mr sub 2 div ml add
              ph mt sub mb sub 2 div mb add} def

% calculate the necessary scaling
/imagescale {po {gw}{gh} ifelse pw ml sub mr sub div
             po {gh}{gw} ifelse ph mt sub mb sub div
             2 copy lt {exch} if pop
             ftp not {1 2 copy lt {exch} if pop} if
             1 exch div /sfactor exch def
             /gw gw sfactor mul def /gh gh sfactor mul def} def

% calculate image origin
/imageorigin {pw ml sub mr sub 2 div ml add
              po {gw}{gh} ifelse 2 div sub
              ph mt sub mb sub 2 div mb add
              po {gh}{gw} ifelse 2 div po {add}{sub} ifelse} def

% calculate the clipping origin
/cliporigin  {pw ml sub mr sub 2 div ml add
              po {gw}{gh} ifelse 2 div sub floor
              ph mt sub mb sub 2 div mb add
              po {gh}{gw} ifelse 2 div sub floor} def

% Set the clipping region to the bounding box.
/cliptobounds {cliporigin po {gw}{gh} ifelse 1 add
                          po {gh}{gw} ifelse 1 add rc} def

% set the base transformation matrix (usage: setbasematrix)
/setbasematrix {imageorigin translate
                po {0}{90} ifelse rotate
                sfactor sfactor neg scale
                /defaultmatrix matrix currentmatrix def} def

% The lower-right bias in drawing 1 pt. wide lines.
/bias  {q 0.5 0.5 translate} def
/unbias {Q} def

% Define the composite fonts used to print Unicode strings.
% Undefine particular values in an encoding array.
/vg&undef { {exch dup 3 -1 roll /.notdef put} forall } def
/vg&redef { {3 -1 roll dup 4 2 roll put} forall } def

% usage: key encoding basefontname vg&newbasefont font
/vg&newbasefont {
findfont dup length dict copy
  begin
    currentdict /FID undef
    /Encoding exch def
    dup /FontName exch def
    currentdict
  end
definefont
} def

% usage: key encoding basefontname vg&newskewedbasefont font
/vg&newskewedbasefont {
findfont dup length dict copy
  begin
    currentdict /FID undef
    /Encoding exch def
    dup /FontName exch def
    exch FontMatrix exch matrix concatmatrix /FontMatrix exch def
    currentdict
  end
definefont
} def

% usage: basekey suffix vg&nconcat name
/vg&nconcat {
  2 {dup length string cvs exch} repeat
  dup length 3 -1 roll dup length 3 -1 roll add string
  dup 0 4 -1 roll dup length 5 1 roll putinterval
  dup 4 -2 roll exch putinterval cvn
} def

%usage: fontname vg&skewmatrix matrix
/vg&skewmatrix {
findfont dup /FontInfo known
  {
    /FontInfo get dup /ItalicAngle known
    {
      [ 1 0 4 -1 roll /ItalicAngle get neg dup sin exch cos div 1 0 0 ]
    }
    {pop matrix} ifelse
  }
  {pop matrix} ifelse
} def

% usage: newfontname basefontname vg&newcompositefont --
/vg&newcompositefont {
/vg&fstyle exch def
/vg&bfont exch def
/vg&fname exch def
<<
/FontStyleBits vg&fstyle
/FontType 0
/FontMatrix matrix
/FontName vg&fname
/FMapType 2
/Encoding [ 0 1 255 {pop 6} for ]
          dup 16#00 0 put % Latin
          dup 16#03 1 put % Greek
          dup 16#20 2 put % Punctuation
          dup 16#21 3 put % Arrows
          dup 16#22 4 put % MathOps
          dup 16#27 5 put % Dingbats

/FDepVector [
vg&bfont /-UC-Latin vg&nconcat UCLatinEncoding
vg&bfont vg&newbasefont

vg&bfont vg&skewmatrix
vg&bfont /-UC-Greek vg&nconcat UCGreekEncoding
/Symbol vg&newskewedbasefont

vg&bfont /-UC-Punctuation vg&nconcat UCPunctuationEncoding
vg&bfont vg&newbasefont

/Arrows-UC findfont
/MathOps-UC findfont
/Dingbats-UC findfont
/Undefined-UC findfont ]
>>
vg&fname exch definefont pop
} def

% Null encoding vector (all elements set to .notdef)
/NullEncoding [ 256 {/.notdef} repeat ] def

% Unicode Latin encoding (unicode codes \u0000-\u00ff)
/UCLatinEncoding
  ISOLatin1Encoding dup length array copy
  dup 16#60 /grave put
  [ 16#90 16#91 16#92 16#93 16#94 16#95 16#96
    16#97 16#98 16#9a 16#9b 16#9d 16#9e 16#9f
  ] vg&undef
  def

% Unicode Greek encoding (unicode codes \u0370-\u03ff)
/UCGreekEncoding
  NullEncoding dup length array copy
  << 16#91 /Alpha    16#92 /Beta      16#93 /Gamma    16#94 /Delta
     16#95 /Epsilon  16#96 /Zeta      16#97 /Eta      16#98 /Theta
     16#99 /Iota     16#9a /Kappa     16#9b /Lambda   16#9c /Mu
     16#9d /Nu       16#9e /Xi        16#9f /Omicron  16#a0 /Pi
     16#a1 /Rho      16#a3 /Sigma     16#a4 /Tau      16#a5 /Upsilon
     16#a6 /Phi      16#a7 /Chi       16#a8 /Psi      16#a9 /Omega
     16#b1 /alpha    16#b2 /beta      16#b3 /gamma    16#b4 /delta
     16#b5 /epsilon  16#b6 /zeta      16#b7 /eta      16#b8 /theta
     16#b9 /iota     16#ba /kappa     16#bb /lambda   16#bc /mu
     16#bd /nu       16#be /xi        16#bf /omicron  16#c0 /pi
     16#c1 /rho      16#c2 /sigma1    16#c3 /sigma    16#c4 /tau
     16#c5 /upsilon  16#c6 /phi1      16#c7 /chi      16#c8 /psi
     16#c9 /omega    16#7e /semicolon 16#87 /dotmath  16#d1 /theta1
     16#d2 /Upsilon1 16#d5 /phi       16#d6 /omega1
  >> vg&redef
  def

% Unicode punctuation encoding (unicode codes \u2000-\u206f)
/UCPunctuationEncoding
  NullEncoding dup length array copy
  << 16#10 /hyphen          16#11 /hyphen              16#12 /endash
     16#13 /emdash          16#18 /quoteleft           16#19 /quoteright
     16#1a /quotesinglbase  16#1b /quotesingle         16#1c /quotedblleft
     16#1d /quotedblright   16#1e /quotedblbase        16#1f /quotedbl
     16#20 /dagger          16#21 /daggerdbl           16#22 /bullet
     16#24 /period          16#26 /ellipsis            16#27 /periodcentered
     16#30 /perthousand     16#44 /fraction
     16#70 /zerosuperior    16#74 /foursuperior        16#75 /fivesuperior
     16#76 /sixsuperior     16#77 /sevensuperior       16#78 /eightsuperior
     16#79 /ninesuperior    16#7b /hyphensuperior      16#7d /parenleftsuperior
     16#7e /parenrightsuperior
     16#80 /zeroinferior    16#84 /fourinferior        16#85 /fiveinferior
     16#81 /oneinferior     16#82 /twoinferior         16#83 /threeinferior
     16#86 /sixinferior     16#87 /seveninferior       16#88 /eightinferior
     16#89 /nineinferior    16#8b /hypheninferior      16#8d /parenleftinferior
     16#8e /parenrightinferior
  >> vg&redef
  def

% Unicode mathematical operators encoding (unicode codes \u2200-\u22ff)
/UCMathOpsEncoding
  NullEncoding dup length array copy
  << 16#00 /universal       16#02 /partialdiff         16#03 /existential
     16#05 /emptyset        16#06 /Delta               16#07 /gradient
     16#08 /element         16#09 /notelement          16#0b /suchthat
     16#0f /product         16#11 /summation           16#12 /minus
     16#15 /fraction        16#17 /asteriskmath        16#19 /bullet
     16#1a /radical         16#1d /proportional        16#1e /infinity
     16#20 /angle           16#23 /bar                 16#27 /logicaland
     16#28 /logicalor       16#29 /intersection        16#2a /union
     16#2b /integral        16#34 /therefore           16#36 /colon
     16#3c /similar         16#45 /congruent           16#48 /approxequal
     16#60 /notequal        16#61 /equivalence         16#64 /lessequal
     16#65 /greaterequal    16#82 /propersubset        16#83 /propersuperset
     16#86 /reflexsubset    16#87 /reflexsuperset      16#95 /circleplus
     16#97 /circlemultiply  16#a5 /perpendicular       16#03 /existential
     16#c0 /logicaland      16#c1 /logicalor           16#c2 /intersection
     16#c3 /union           16#c4 /diamond             16#c5 /dotmath
  >> vg&redef
  def

% Unicode arrows encoding (unicode codes \u2190-\u21ff)
% Also includes those "Letterlike" unicode characters
% which are available in the symbol font. (unicode codes \u2100-\u214f)
/UCArrowsEncoding
  NullEncoding dup length array copy
  << 16#11 /Ifraktur        16#1c /Rfraktur            16#22 /trademarkserif
     16#35 /aleph
     16#90 /arrowleft       16#91 /arrowup             16#92 /arrowright
     16#93 /arrowdown       16#94 /arrowboth           16#d0 /arrowdblleft
     16#d1 /arrowdblup      16#d2 /arrowdblright       16#d3 /arrowdbldown
     16#d4 /arrowdblboth
  >> vg&redef
  def

/ZapfDingbats findfont /Encoding get
dup length array copy /UCDingbatsEncoding exch def
16#20 1 16#7f {
  dup 16#20 sub exch
  UCDingbatsEncoding exch get
  UCDingbatsEncoding 3 1 roll put
} for
16#a0 1 16#ff {
  dup 16#40 sub exch
  UCDingbatsEncoding exch get
  UCDingbatsEncoding 3 1 roll put
} for
UCDingbatsEncoding [ 16#c0 1 16#ff {} for ] vg&undef
[ 16#00  16#05 16#0a 16#0b  16#28 16#4c 16#4e  16#53 16#54 16#55  16#57 16#5f
  16#60  16#68 16#69 16#6a  16#6b 16#6c 16#6d  16#6e 16#6f 16#70  16#71 16#72
  16#73  16#74 16#75 16#95  16#96 16#97 16#b0  16#bf
] vg&undef pop

% Define the base fonts which don't change.
/Undefined-UC NullEncoding       /Helvetica    vg&newbasefont pop
/MathOps-UC   UCMathOpsEncoding  /Symbol       vg&newbasefont pop
/Arrows-UC    UCArrowsEncoding   /Symbol       vg&newbasefont pop
/Dingbats-UC  UCDingbatsEncoding /ZapfDingbats vg&newbasefont pop

% Make the SansSerif composite fonts.
/SansSerif /Helvetica 16#00 vg&newcompositefont
/SansSerif-Bold /Helvetica-Bold 16#01 vg&newcompositefont
/SansSerif-Italic /Helvetica-Oblique 16#02 vg&newcompositefont
/SansSerif-BoldItalic /Helvetica-BoldOblique 16#03 vg&newcompositefont

% Make the Serif composite fonts.
/Serif /Times-Roman 16#00 vg&newcompositefont
/Serif-Bold /Times-Bold 16#01 vg&newcompositefont
/Serif-Italic /Times-Italic 16#02 vg&newcompositefont
/Serif-BoldItalic /Times-BoldItalic 16#03 vg&newcompositefont

% Make the Monospaced composite fonts.
/Monospaced /Courier 16#00 vg&newcompositefont
/Monospaced-Bold /Courier-Bold 16#01 vg&newcompositefont
/Monospaced-Italic /Courier-Oblique 16#02 vg&newcompositefont
/Monospaced-BoldItalic /Courier-BoldOblique 16#03 vg&newcompositefont

% Make the Dialog composite fonts.
/Dialog /Helvetica 16#00 vg&newcompositefont
/Dialog-Bold /Helvetica-Bold 16#01 vg&newcompositefont
/Dialog-Italic /Helvetica-Oblique 16#02 vg&newcompositefont
/Dialog-BoldItalic /Helvetica-BoldOblique 16#03 vg&newcompositefont

% Make the DialogInput composite fonts.
/DialogInput /Courier 16#00 vg&newcompositefont
/DialogInput-Bold /Courier-Bold 16#01 vg&newcompositefont
/DialogInput-Italic /Courier-Oblique 16#02 vg&newcompositefont
/DialogInput-BoldItalic /Courier-BoldOblique 16#03 vg&newcompositefont

% Make the Typewriter composite fonts (JDK 1.1 only).
/Typewriter /Courier 16#00 vg&newcompositefont
/Typewriter-Bold /Courier-Bold 16#01 vg&newcompositefont
/Typewriter-Italic /Courier-Oblique 16#02 vg&newcompositefont
/Typewriter-BoldItalic /Courier-BoldOblique 16#03 vg&newcompositefont


/cfontH {
 dup /fontsize exch def /SansSerif exch sf
 /vg&fontstyles [{cfontH} {cfontHB} {cfontHI} {cfontHBI}] def
} def
/cfontHB {
  dup /fontsize exch def /SansSerif-Bold exch sf
 /vg&fontstyles [{cfontH} {cfontHB} {cfontHI} {cfontHBI}] def
} def
/cfontHI {
 dup /fontsize exch def /SansSerif-Italic exch sf
 /vg&fontstyles [{cfontH} {cfontHB} {cfontHI} {cfontHBI}] def
} def
/cfontHBI {
 dup /fontsize exch def /SansSerif-BoldItalic exch sf
 /vg&fontstyles [{cfontH} {cfontHB} {cfontHI} {cfontHBI}] def
} def

/cfontT {
 dup /fontsize exch def /Serif exch sf
 /vg&fontstyles [{cfontT} {cfontTB} {cfontTI} {cfontTBI}] def
} def
/cfontTB {
 dup /fontsize exch def /Serif-Bold exch sf
 /vg&fontstyles [{cfontT} {cfontTB} {cfontTI} {cfontTBI}] def
} def
/cfontTI {
 dup /fontsize exch def /Serif-Italic exch sf
 /vg&fontstyles [{cfontT} {cfontTB} {cfontTI} {cfontTBI}] def
} def
/cfontTBI {
 dup /fontsize exch def /Serif-BoldItalic exch sf
 /vg&fontstyles [{cfontT} {cfontTB} {cfontTI} {cfontTBI}] def
} def

/cfontC {
 dup /fontsize exch def /Typewriter exch sf
 /vg&fontstyles [{cfontC} {cfontCB} {cfontCI} {cfontCBI}] def
} def
/cfontCB {
 dup /fontsize exch def /Typewriter-Bold exch sf
 /vg&fontstyles [{cfontC} {cfontCB} {cfontCI} {cfontCBI}] def
} def
/cfontCI {
 dup /fontsize exch def /Typewriter-Italic exch sf
 /vg&fontstyles [{cfontC} {cfontCB} {cfontCI} {cfontCBI}] def
} def
/cfontCBI {
 dup /fontsize exch def /Typewriter-BoldItalic exch sf
 /vg&fontstyles [{cfontC} {cfontCB} {cfontCI} {cfontCBI}] def
} def

% Darken or lighten the current color.
/darken {0.7 exch exp 3 copy
         q 4 -1 roll vg&C
         currentrgbcolor 3 {4 -2 roll mul} repeat
         3 array astore Q} def

/displayColorMap
<< /Cr   [1.00 0.00 0.00]       /Cg     [0.00 1.00 0.00]
   /Cb   [0.00 0.00 1.00]       /Cc     [1.00 0.00 0.00 0.00]
   /Cm   [0.00 1.00 0.00 0.00]  /Cy     [0.00 0.00 1.00 0.00]
   /Co   [1.00 0.78 0.00]       /Cp     [1.00 0.67 0.67]
   /Cw   [1   ]                 /Cgrl   [0.75]
   /Cgr  [0.50]                 /Cgrd   [0.25]
   /Ck   [0   ]
   /CGr  [1.00 0.00 0.00]       /CGg    [0.00 1.00 0.00]
   /CGb  [0.00 0.00 1.00]       /CGc    [1.00 0.00 0.00 0.00]
   /CGm  [0.00 1.00 0.00 0.00]  /CGy    [0.00 0.00 1.00 0.00]
   /CGo  [1.00 0.78 0.00]       /CGp    [1.00 0.67 0.67]
   /CGw  [1   ]                 /CGgrl  [0.75]
   /CGgr [0.50]                 /CGgrd  [0.25]
   /CGk  [0   ]
   /CIr  [1.00 0.00 0.00]       /CIg    [0.00 1.00 0.00]
   /CIb  [0.00 0.00 1.00]       /CIc    [1.00 0.00 0.00 0.00]
   /CIm  [0.00 1.00 0.00 0.00]  /CIy    [0.00 0.00 1.00 0.00]
   /CIo  [1.00 0.78 0.00]       /CIp    [1.00 0.67 0.67]
   /CIw  [1   ]                 /CIgrl  [0.75]
   /CIgr [0.50]                 /CIgrd  [0.25]
   /CIk  [0   ]
>> def

/printColorMap
<< /Cr   [1.00 0.33 0.33]       /Cg     [0.33 1.00 0.33]
   /Cb   [0.33 0.33 1.00]       /Cc     [1.00 0.00 0.00 0.00]
   /Cm   [0.00 1.00 0.00 0.00]  /Cy     [0.00 0.00 1.00 0.00]
   /Co   [1.00 0.78 0.00]       /Cp     [1.00 0.67 0.67]
   /Cw   [1   ]                 /Cgrl   [0.75]
   /Cgr  [0.50]                 /Cgrd   [0.25]
   /Ck   [0   ]
   /CGr  [1.00 0.33 0.33]       /CGg    [0.33 1.00 0.33]
   /CGb  [0.33 0.33 1.00]       /CGc    [1.00 0.00 0.00 0.00]
   /CGm  [0.00 1.00 0.00 0.00]  /CGy    [0.00 0.00 1.00 0.00]
   /CGo  [1.00 0.78 0.00]       /CGp    [1.00 0.67 0.67]
   /CGw  [1   ]                 /CGgrl  [0.75]
   /CGgr [0.50]                 /CGgrd  [0.25]
   /CGk  [0   ]
   /CIr  [1.00 0.33 0.33]       /CIg    [0.33 1.00 0.33]
   /CIb  [0.33 0.33 1.00]       /CIc    [1.00 0.00 0.00 0.00]
   /CIm  [0.00 1.00 0.00 0.00]  /CIy    [0.00 0.00 1.00 0.00]
   /CIo  [1.00 0.78 0.00]       /CIp    [1.00 0.67 0.67]
   /CIw  [1   ]                 /CIgrl  [0.75]
   /CIgr [0.50]                 /CIgrd  [0.25]
   /CIk  [0   ]
>> def

/grayColorMap
<< /Cr   [0   ]                 /Cg     [0   ]
   /Cb   [0   ]                 /Cc     [0   ]
   /Cm   [0   ]                 /Cy     [0   ]
   /Co   [0   ]                 /Cp     [0   ]
   /Cw   [0   ]                 /Cgrl   [0   ]
   /Cgr  [0   ]                 /Cgrd   [0   ]
   /Ck   [0   ]
   /CGr  [0.75]                 /CGg    [1   ]
   /CGb  [0.50]                 /CGc    [0.75]
   /CGm  [0.50]                 /CGy    [1   ]
   /CGo  [0.75]                 /CGp    [1   ]
   /CGw  [0   ]                 /CGgrl  [0.25]
   /CGgr [0.50]                 /CGgrd  [0.75]
   /CGk  [1   ]
   /CIr  [1   ]                 /CIg    [1   ]
   /CIb  [1   ]                 /CIc    [1   ]
   /CIm  [1   ]                 /CIy    [1   ]
   /CIo  [1   ]                 /CIp    [1   ]
   /CIw  [1   ]                 /CIgrl  [1   ]
   /CIgr [1   ]                 /CIgrd  [1   ]
   /CIk  [1   ]
>> def

/bwColorMap
<< /Cr   [0   ]                 /Cg     [0   ]
   /Cb   [0   ]                 /Cc     [0   ]
   /Cm   [0   ]                 /Cy     [0   ]
   /Co   [0   ]                 /Cp     [0   ]
   /Cw   [0   ]                 /Cgrl   [0   ]
   /Cgr  [0   ]                 /Cgrd   [0   ]
   /Ck   [0   ]
   /CGr  [1   ]                 /CGg    [1   ]
   /CGb  [1   ]                 /CGc    [1   ]
   /CGm  [1   ]                 /CGy    [1   ]
   /CGo  [1   ]                 /CGp    [1   ]
   /CGw  [0   ]                 /CGgrl  [1   ]
   /CGgr [1   ]                 /CGgrd  [1   ]
   /CGk  [1   ]
   /CIr  [1   ]                 /CIg    [1   ]
   /CIb  [1   ]                 /CIc    [1   ]
   /CIm  [1   ]                 /CIy    [1   ]
   /CIo  [1   ]                 /CIp    [1   ]
   /CIw  [1   ]                 /CIgrl  [1   ]
   /CIgr [1   ]                 /CIgrd  [1   ]
   /CIk  [1   ]
>> def

%
% The following routines handle the alignment of and printing of
% tagged strings.
%

% Predefine the bounding box values.
/bbllx 0 def /bblly 0 def /bburx 0 def /bbury 0 def

% This routine pops the first unicode character off of a string and returns
% the remainder of the string, the character code of first character,
% and a "true" if the string was non-zero length.
% <string>      popfirst <remaining string> <true>
% <null string> popfirst <false>
/popfirst {
  dup length 1 gt
    {dup 0 get /vg&fbyte exch def
     dup 1 get /vg&cbyte exch def
     dup length 2 sub 2 exch getinterval true}
    {pop false} ifelse
} def

% This routine shows a single unicode character given the font and
% character codes.
% <font code> <char code> unicharshow --
/unicharshow {
  2 string
  dup 0 5 -1 roll put
  dup 1 4 -1 roll put
  internalshow
} def

% This is an internal routine to alternate between determining the
% bounding box for stringsize and showing the string for recshow.
% <string> internalshow --
/internalshow {show} def

% This is an internal routine to alternate between determining the
% bounding box for stringsize and stroking various ornaments.
% <string> internalstroke --
/internalstroke {S} def

% Sets up internalshow to use the null device to determine string size.
% -- nullinternalshow --
/nullinternalshow {/internalshow {false charpath flattenpath
                                  pathbbox updatebbox} def} def

% Sets up internalstroke to use the null device to determine string size.
% -- nullinternalstroke --
/nullinternalstroke {
 /internalstroke {flattenpath pathbbox updatebbox} def} def

% This routine tests to see if the character code matches the first
% character of a string.
% <char code> <string> testchar <char code> <true or false>
/testchar {exch dup 3 -1 roll 0 get eq} def

% Raise the text baseline for superscripts.
% -- raise --
/raise {
  0 fontsize 2 div rmoveto
  /fontsize fontsize 2 mul 3 div def
  currentfont /FontName get fontsize sf
} def

% Un-raise the text baseline for superscripts.
% -- unraise --
/unraise {
  /fontsize fontsize 1.5 mul def
  0 fontsize 2 div neg rmoveto
} def

% Lower the text baseline for subscripts.
% -- lower --
/lower {
  0 fontsize 3 div neg rmoveto
  /fontsize fontsize 2 mul 3 div def
  currentfont /FontName get fontsize sf
} def

% Un-lower the text baseline for subscripts.
% -- unlower --
/unlower {
  /fontsize fontsize 1.5 mul def
  0 fontsize 3 div rmoveto
} def

% Compare the top two elements on the stack and leave only the
% larger one.
/maxval {2 copy gt {pop} {exch pop} ifelse} def

% Tokenize a string.  Do not use the usual PostScript token because
% parentheses will not be interpreted correctly because of rescanning
% of the string.
/vg&token {/vg&string exch def /vg&index -1 def /vg&level 0 def
0 2 vg&string length 2 sub {
  dup dup 1 add exch vg&string exch get 8 bitshift vg&string 3 -1 roll get or
  dup 16#f0fe eq {pop 1}{16#f0ff eq {-1}{0} ifelse} ifelse
  /vg&level exch vg&level add def
  vg&level 0 eq {/vg&index exch def exit} if pop
} for
vg&index 0 ge {
  vg&string vg&index 2 add dup vg&string length exch sub getinterval
  vg&index 2 gt {vg&string 2 vg&index 2 sub getinterval}{()} ifelse
  true}
{false} ifelse
} bind def

% Recursively show an unicode string.
% <string> recshow --
/recshow {
  popfirst
  {
    % Test to see if this is a string attribute.
    vg&fbyte 16#f0 and 16#e0 eq
    {
      q

      % Font style.
      currentfont dup /FontStyleBits known {/FontStyleBits get}{pop 0} ifelse
      vg&cbyte or vg&fontstyles exch get fontsize exch exec

      vg&token pop recshow currentpoint Q m recshow
    }
    {
      vg&fbyte 16#F8 and 16#F0 eq {

        % Superscript and/or subscript.
        vg&cbyte 16#00 eq {
          vg&token pop exch vg&token pop 3 -1 roll
          q raise recshow unraise currentpoint pop Q exch
          q lower recshow unlower currentpoint pop Q
          maxval currentpoint exch pop m recshow } if

        % Strikeout.
        vg&cbyte 16#01 eq {
          vg&token pop currentpoint 3 -1 roll recshow
          q 0 J vg&underline vg&uthick w
          currentpoint 4 -2 roll fontsize 3 div add moveto
          fontsize 3 div add lineto internalstroke Q
          recshow} if

        % Underline.
        vg&cbyte 16#02 eq {
          vg&token pop currentpoint 3 -1 roll recshow
          q 0 J vg&underline vg&uthick w
          currentpoint 4 -2 roll vg&uoffset add moveto
          vg&uoffset add lineto internalstroke Q
          recshow} if

        % Dashed underline.
        vg&cbyte 16#03 eq {
          vg&token pop currentpoint 3 -1 roll recshow
          q 0 J [ vg&uthick 5 mul vg&uthick 2 mul] 0 d
          vg&underline vg&uthick w
          currentpoint 4 -2 roll vg&uoffset add moveto
          vg&uoffset add lineto internalstroke Q
          recshow} if

        % Dotted underline.
        vg&cbyte 16#04 eq {
          vg&token pop currentpoint 3 -1 roll recshow
          q 1 J [ 0 vg&uthick 3 mul] 0 d
          vg&underline vg&uthick w
          currentpoint 4 -2 roll vg&uoffset add moveto
          vg&uoffset add lineto internalstroke Q
          recshow} if

        % Thick underline.
        vg&cbyte 16#05 eq {
          vg&token pop currentpoint 3 -1 roll recshow
          q 0 J vg&underline vg&uthick 2 mul w
          currentpoint 4 -2 roll vg&uoffset vg&uthick 2 div sub add moveto
          vg&uoffset vg&uthick 2 div sub add lineto internalstroke Q
          recshow} if

        % Gray thick underline.
        vg&cbyte 16#06 eq {
          vg&token pop currentpoint 3 -1 roll recshow
          q 0 J vg&underline vg&uthick 2 mul w 0.5 setgray
          currentpoint 4 -2 roll vg&uoffset vg&uthick 2 div sub add moveto
          vg&uoffset vg&uthick 2 div sub add lineto internalstroke Q
          recshow} if

        % Overbar.
        vg&cbyte 16#07 eq {
          vg&token pop dup stringsize relative 4 1 roll pop pop exch
          3 -1 roll recshow
          q 0 J vg&underline vg&uthick w
          vg&uoffset neg add dup currentpoint pop exch m l internalstroke Q
          recshow} if
      }
      {
        vg&fbyte vg&cbyte unicharshow recshow
      } ifelse
    } ifelse
  } if
} def

% Get the underline position and thickness from the current font.
/vg&underline {

currentfont dup /FontType get 0 eq {/FDepVector get 0 get} if
dup dup /FontInfo known {
  /FontInfo get dup
  dup /UnderlinePosition known {
    /UnderlinePosition get /vg&uoffset exch def
  }
  {
    pop /vg&uoffset 0 def
  } ifelse
  dup /UnderlineThickness known {
    /UnderlineThickness get /vg&uthick exch def
  }
  {
    pop /vg&uthick 0 def
  } ifelse
}
{
  pop /vg&uoffset 0 def /vg&uthick 0 def
} ifelse
/FontMatrix get
currentfont dup /FontType get 0 eq
{/FontMatrix get matrix concatmatrix}{pop} ifelse
dup 0 vg&uoffset 3 -1 roll transform /vg&uoffset exch def pop
0 vg&uthick 3 -1 roll transform /vg&uthick exch def pop
} def

% Make a frame with the coordinates on the stack.
% <llx> <lly> <urx> <ury> frame --
/frame {4 copy m 3 1 roll exch l 4 -2 roll l l h} def

% Resets the accumulated bounding box to a degenerate box at the
% current point.
% -- resetbbox --
/resetbbox {
  currentpoint 2 copy
  /bbury exch def
  /bburx exch def
  /bblly exch def
  /bbllx exch def
} def

% Update the accumulated bounding box.
% <llx'> <lly'> <urx'> <ury'> updatebbox --
/updatebbox {
  dup bbury gt {/bbury exch def} {pop} ifelse
  dup bburx gt {/bburx exch def} {pop} ifelse
  dup bblly lt {/bblly exch def} {pop} ifelse
  dup bbllx lt {/bbllx exch def} {pop} ifelse
} def

% Set the bounding box to the values on the stack.
% <llx'> <lly'> <urx'> <ury'> updatebbox --
/restorebbox {
  /bbury exch def /bburx exch def /bblly exch def /bbllx exch def
} def

% Push the accumulated bounding box onto the stack.
% -- pushbbox <llx> <lly> <urx> <ury>
/pushbbox {bbllx bblly bburx bbury} def

% Make the relative bounding box relative to the currentpoint.
% <llx'> <lly'> <urx'> <ury'> inflate <llx> <lly> <urx> <ury>
/inflate {
  2 {fontsize 0.2 mul add 4 1 roll} repeat
  2 {fontsize 0.2 mul sub 4 1 roll} repeat
} def

% Make the relative bounding box relative to the currentpoint.
% <llx'> <lly'> <urx'> <ury'> relative <llx> <lly> <urx> <ury>
/relative {
  currentpoint 3 -1 roll add 3 1 roll add exch 4 2 roll
  currentpoint 3 -1 roll add 3 1 roll add exch 4 2 roll
} def

% Returns the size of a string appropriate for recshow.
% <string> stringsize <llx> <lly> <urx> <ury>
/stringsize {
  pushbbox /internalshow load /internalstroke load 7 -1 roll
  q
  nulldevice 0 0 m
  nullinternalshow nullinternalstroke
  resetbbox
  recshow
  /internalstroke exch def /internalshow exch def
  pushbbox 8 -4 roll restorebbox
  Q
} def

% Calculate values for string positioning.
/calcval {4 copy
  3 -1 roll sub /widy exch def sub neg /widx exch def
  pop pop /dy exch def /dx exch def} def

% Utilities to position a string.
% First letter (U=upper, C=center, B=baseline, L=lower)
% Second letter (L=left, C=center, R=right)
/align [
{calcval dx neg widy dy add neg rmoveto} % UL
{calcval dx neg widy 2 div dy add neg rmoveto} % CL
{calcval dx neg 0 rmoveto} % BL
{calcval dx neg dy neg rmoveto} % LL
{calcval widx dx add neg widy dy add neg rmoveto} % UR
{calcval widx dx add neg widy 2 div dy add neg rmoveto} % CR
{calcval widx dx add neg 0 rmoveto} % BR
{calcval widx dx add neg dy neg rmoveto} % LR
{calcval widx 2 div dx add neg widy dy add neg rmoveto} % UC
{calcval widx 2 div dx add neg widy 2 div dy add neg rmoveto} % CC
{calcval widx 2 div dx add neg 0 rmoveto} % BC
{calcval widx 2 div dx add neg dy neg rmoveto} % LC
] def

/vg&str {m q 1 -1 scale dup stringsize 4 copy align 11 -1 roll get exec
         q inflate relative frame exch exec Q recshow Q} def

end /procDict exch def
%%EndProlog

%%BeginSetup
save
procDict begin
printColorMap begin
200 171 setpagesize
0 0 0 0 setmargins
0 0 setorigin
200 171 setsize
naturalsize
portrait
imagescale
cliptobounds
setbasematrix
/Helvetica 10 sf
defaultGraphicsState
%%EndSetup

0.00000 0.00000 0.00000 RG
[ 1.00000 0.00000 0.00000 1.00000 0.00000 0.00000 ] defaultmatrix matrix concatmatrix setmatrix
cliprestore
1.00000 1.00000 1.00000 RG
newpath
0.00000 0.00000 m
200.000 0.00000 l
200.000 171.000 l
0.00000 171.000 l
0.00000 0.00000 l
h
f
0.00000 0.00000 0.00000 RG
0.00000 0.00000 0.00000 RG
[ 1.00000 0.00000 0.00000 1.00000 0.00000 0.00000 ] defaultmatrix matrix concatmatrix setmatrix
cliprestore
1.00000 1.00000 1.00000 RG
newpath
0.00000 0.00000 m
200.000 0.00000 l
200.000 171.000 l
0.00000 171.000 l
0.00000 0.00000 l
h
f
0.00000 0.00000 0.00000 RG
0 0 200 171 rc
q
[ 1.00000 0.00000 0.00000 1.00000 0.00000 0.00000 ] concat
[ 1.00000 0.00000 0.00000 1.00000 -5.00000 156.000 ] concat
1.00000 1.00000 1.00000 RG
newpath
5.00000 -156.000 m
205.000 -156.000 l
205.000 15.0000 l
5.00000 15.0000 l
5.00000 -156.000 l
h
f
0.00000 0.00000 0.00000 RG
[ 1.00000 0.00000 0.00000 1.00000 -5.00000 156.000 ] defaultmatrix matrix concatmatrix setmatrix
[ 1.00000 0.00000 0.00000 1.00000 -5.00000 156.000 ] defaultmatrix matrix concatmatrix setmatrix
[ 1.00000 0.00000 0.00000 1.00000 0.00000 0.00000 ] defaultmatrix matrix concatmatrix setmatrix
[ 1.00000 0.00000 0.00000 1.00000 -5.00000 156.000 ] defaultmatrix matrix concatmatrix setmatrix
1.00000 1.00000 1.00000 RG
newpath
70.0000 -30.0000 m
150.000 -30.0000 l
150.000 0.00000 l
70.0000 0.00000 l
70.0000 -30.0000 l
h
f
0 J
1.45000 M
0.00000 0.00000 0.00000 RG
newpath
70.0000 -30.0000 m
150.000 -30.0000 l
150.000 0.00000 l
70.0000 0.00000 l
70.0000 -30.0000 l
h
S
2 J
10.0000 M
0 J
1.45000 M
newpath
84.0156 -18.4238 m
82.4062 -14.0801 l
85.6250 -14.0801 l
84.0156 -18.4238 l
h
83.3438 -19.5957 m
84.6875 -19.5957 l
88.0156 -10.8457 l
86.7812 -10.8457 l
85.9844 -13.0957 l
82.0469 -13.0957 l
81.2500 -10.8457 l
80.0000 -10.8457 l
83.3438 -19.5957 l
h
93.1953 -16.2988 m
100.711 -16.2988 l
100.711 -15.3145 l
93.1953 -15.3145 l
93.1953 -16.2988 l
h
93.1953 -13.9082 m
100.711 -13.9082 l
100.711 -12.9082 l
93.1953 -12.9082 l
93.1953 -13.9082 l
h
108.158 -15.0176 m
108.158 -11.8145 l
110.064 -11.8145 l
110.700 -11.8145 111.169 -11.9447 111.471 -12.2051  c
111.783 -12.4759 111.939 -12.8822 111.939 -13.4238  c
111.939 -13.9759 111.783 -14.3770 111.471 -14.6270  c
111.169 -14.8874 110.700 -15.0176 110.064 -15.0176  c
108.158 -15.0176 l
h
108.158 -18.6270 m
108.158 -15.9863 l
109.908 -15.9863 l
110.492 -15.9863 110.924 -16.0957 111.205 -16.3145  c
111.486 -16.5332 111.627 -16.8613 111.627 -17.2988  c
111.627 -17.7467 111.486 -18.0801 111.205 -18.2988  c
110.924 -18.5176 110.492 -18.6270 109.908 -18.6270  c
108.158 -18.6270 l
h
106.971 -19.5957 m
110.002 -19.5957 l
110.908 -19.5957 111.601 -19.4082 112.080 -19.0332  c
112.570 -18.6582 112.814 -18.1270 112.814 -17.4395  c
112.814 -16.8978 112.689 -16.4655 112.439 -16.1426  c
112.189 -15.8301 111.825 -15.6374 111.346 -15.5645  c
111.929 -15.4395 112.382 -15.1790 112.705 -14.7832  c
113.028 -14.3874 113.189 -13.8926 113.189 -13.2988  c
113.189 -12.5176 112.924 -11.9134 112.393 -11.4863  c
111.861 -11.0592 111.101 -10.8457 110.111 -10.8457  c
106.971 -10.8457 l
106.971 -19.5957 l
h
123.361 -18.3770 m
123.361 -15.1113 l
126.627 -15.1113 l
126.627 -14.1113 l
123.361 -14.1113 l
123.361 -10.8457 l
122.377 -10.8457 l
122.377 -14.1113 l
119.111 -14.1113 l
119.111 -15.1113 l
122.377 -15.1113 l
122.377 -18.3770 l
123.361 -18.3770 l
h
139.449 -18.9238 m
139.449 -17.6738 l
139.043 -18.0488 138.616 -18.3249 138.168 -18.5020  c
137.720 -18.6895 137.241 -18.7832 136.730 -18.7832  c
135.730 -18.7832 134.965 -18.4759 134.434 -17.8613  c
133.902 -17.2467 133.637 -16.3613 133.637 -15.2051  c
133.637 -14.0592 133.902 -13.1790 134.434 -12.5645  c
134.965 -11.9499 135.730 -11.6426 136.730 -11.6426  c
137.241 -11.6426 137.720 -11.7363 138.168 -11.9238  c
138.616 -12.1113 139.043 -12.3874 139.449 -12.7520  c
139.449 -11.5176 l
139.033 -11.2363 138.590 -11.0228 138.121 -10.8770  c
137.663 -10.7415 137.178 -10.6738 136.668 -10.6738  c
135.335 -10.6738 134.288 -11.0801 133.527 -11.8926  c
132.767 -12.7051 132.387 -13.8092 132.387 -15.2051  c
132.387 -16.6113 132.767 -17.7207 133.527 -18.5332  c
134.288 -19.3457 135.335 -19.7520 136.668 -19.7520  c
137.189 -19.7520 137.678 -19.6790 138.137 -19.5332  c
138.605 -19.3978 139.043 -19.1947 139.449 -18.9238  c
h
f
2 J
10.0000 M
1.00000 1.00000 1.00000 RG
newpath
20.0000 -91.0000 m
100.000 -91.0000 l
100.000 -61.0000 l
20.0000 -61.0000 l
20.0000 -91.0000 l
h
f
0 J
1.45000 M
0.00000 0.00000 0.00000 RG
newpath
20.0000 -91.0000 m
100.000 -91.0000 l
100.000 -61.0000 l
20.0000 -61.0000 l
20.0000 -91.0000 l
h
S
2 J
10.0000 M
0 J
1.45000 M
newpath
32.1221 -76.0176 m
32.1221 -72.8145 l
34.0283 -72.8145 l
34.6637 -72.8145 35.1325 -72.9447 35.4346 -73.2051  c
35.7471 -73.4759 35.9033 -73.8822 35.9033 -74.4238  c
35.9033 -74.9759 35.7471 -75.3770 35.4346 -75.6270  c
35.1325 -75.8874 34.6637 -76.0176 34.0283 -76.0176  c
32.1221 -76.0176 l
h
32.1221 -79.6270 m
32.1221 -76.9863 l
33.8721 -76.9863 l
34.4554 -76.9863 34.8877 -77.0957 35.1689 -77.3145  c
35.4502 -77.5332 35.5908 -77.8613 35.5908 -78.2988  c
35.5908 -78.7467 35.4502 -79.0801 35.1689 -79.2988  c
34.8877 -79.5176 34.4554 -79.6270 33.8721 -79.6270  c
32.1221 -79.6270 l
h
30.9346 -80.5957 m
33.9658 -80.5957 l
34.8721 -80.5957 35.5648 -80.4082 36.0439 -80.0332  c
36.5335 -79.6582 36.7783 -79.1270 36.7783 -78.4395  c
36.7783 -77.8978 36.6533 -77.4655 36.4033 -77.1426  c
36.1533 -76.8301 35.7887 -76.6374 35.3096 -76.5645  c
35.8929 -76.4395 36.3460 -76.1790 36.6689 -75.7832  c
36.9919 -75.3874 37.1533 -74.8926 37.1533 -74.2988  c
37.1533 -73.5176 36.8877 -72.9134 36.3564 -72.4863  c
35.8252 -72.0592 35.0648 -71.8457 34.0752 -71.8457  c
30.9346 -71.8457 l
30.9346 -80.5957 l
h
43.0752 -77.2988 m
50.5908 -77.2988 l
50.5908 -76.3145 l
43.0752 -76.3145 l
43.0752 -77.2988 l
h
43.0752 -74.9082 m
50.5908 -74.9082 l
50.5908 -73.9082 l
43.0752 -73.9082 l
43.0752 -74.9082 l
h
58.0381 -79.6270 m
58.0381 -72.8145 l
59.4756 -72.8145 l
60.6839 -72.8145 61.5641 -73.0853 62.1162 -73.6270  c
62.6787 -74.1790 62.9600 -75.0488 62.9600 -76.2363  c
62.9600 -77.4030 62.6787 -78.2572 62.1162 -78.7988  c
61.5641 -79.3509 60.6839 -79.6270 59.4756 -79.6270  c
58.0381 -79.6270 l
h
56.8506 -80.5957 m
59.2881 -80.5957 l
60.9860 -80.5957 62.2308 -80.2415 63.0225 -79.5332  c
63.8141 -78.8353 64.2100 -77.7363 64.2100 -76.2363  c
64.2100 -74.7259 63.8089 -73.6165 63.0068 -72.9082  c
62.2152 -72.1999 60.9756 -71.8457 59.2881 -71.8457  c
56.8506 -71.8457 l
56.8506 -80.5957 l
h
74.2490 -79.3770 m
74.2490 -76.1113 l
77.5146 -76.1113 l
77.5146 -75.1113 l
74.2490 -75.1113 l
74.2490 -71.8457 l
73.2646 -71.8457 l
73.2646 -75.1113 l
69.9990 -75.1113 l
69.9990 -76.1113 l
73.2646 -76.1113 l
73.2646 -79.3770 l
74.2490 -79.3770 l
h
84.8994 -72.8457 m
89.0400 -72.8457 l
89.0400 -71.8457 l
83.4775 -71.8457 l
83.4775 -72.8457 l
83.9255 -73.3040 84.5348 -73.9238 85.3057 -74.7051  c
86.0869 -75.4967 86.5765 -76.0072 86.7744 -76.2363  c
87.1598 -76.6530 87.4255 -77.0072 87.5713 -77.2988  c
87.7275 -77.6009 87.8057 -77.8926 87.8057 -78.1738  c
87.8057 -78.6426 87.6390 -79.0228 87.3057 -79.3145  c
86.9827 -79.6061 86.5609 -79.7520 86.0400 -79.7520  c
85.6650 -79.7520 85.2692 -79.6895 84.8525 -79.5645  c
84.4463 -79.4395 84.0088 -79.2415 83.5400 -78.9707  c
83.5400 -80.1738 l
84.0192 -80.3613 84.4619 -80.5020 84.8682 -80.5957  c
85.2848 -80.6999 85.6650 -80.7520 86.0088 -80.7520  c
86.9150 -80.7520 87.6390 -80.5228 88.1807 -80.0645  c
88.7223 -79.6165 88.9932 -79.0124 88.9932 -78.2520  c
88.9932 -77.8978 88.9255 -77.5592 88.7900 -77.2363  c
88.6546 -76.9134 88.4098 -76.5332 88.0557 -76.0957  c
87.9515 -75.9811 87.6390 -75.6530 87.1182 -75.1113  c
86.5973 -74.5697 85.8577 -73.8145 84.8994 -72.8457  c
h
f
2 J
10.0000 M
1.00000 1.00000 1.00000 RG
newpath
130.000 -91.0000 m
190.000 -91.0000 l
190.000 -61.0000 l
130.000 -61.0000 l
130.000 -91.0000 l
h
f
0 J
1.45000 M
0.00000 0.00000 0.00000 RG
newpath
130.000 -91.0000 m
190.000 -91.0000 l
190.000 -61.0000 l
130.000 -61.0000 l
130.000 -91.0000 l
h
S
2 J
10.0000 M
0 J
1.45000 M
newpath
150.886 -79.9238 m
150.886 -78.6738 l
150.479 -79.0488 150.052 -79.3249 149.604 -79.5020  c
149.157 -79.6895 148.677 -79.7832 148.167 -79.7832  c
147.167 -79.7832 146.401 -79.4759 145.870 -78.8613  c
145.339 -78.2467 145.073 -77.3613 145.073 -76.2051  c
145.073 -75.0592 145.339 -74.1790 145.870 -73.5645  c
146.401 -72.9499 147.167 -72.6426 148.167 -72.6426  c
148.677 -72.6426 149.157 -72.7363 149.604 -72.9238  c
150.052 -73.1113 150.479 -73.3874 150.886 -73.7520  c
150.886 -72.5176 l
150.469 -72.2363 150.026 -72.0228 149.558 -71.8770  c
149.099 -71.7415 148.615 -71.6738 148.104 -71.6738  c
146.771 -71.6738 145.724 -72.0801 144.964 -72.8926  c
144.203 -73.7051 143.823 -74.8092 143.823 -76.2051  c
143.823 -77.6113 144.203 -78.7207 144.964 -79.5332  c
145.724 -80.3457 146.771 -80.7520 148.104 -80.7520  c
148.625 -80.7520 149.115 -80.6790 149.573 -80.5332  c
150.042 -80.3978 150.479 -80.1947 150.886 -79.9238  c
h
156.610 -77.2988 m
164.126 -77.2988 l
164.126 -76.3145 l
156.610 -76.3145 l
156.610 -77.2988 l
h
156.610 -74.9082 m
164.126 -74.9082 l
164.126 -73.9082 l
156.610 -73.9082 l
156.610 -74.9082 l
h
174.089 -76.5645 m
174.651 -76.4395 175.089 -76.1842 175.401 -75.7988  c
175.724 -75.4238 175.886 -74.9551 175.886 -74.3926  c
175.886 -73.5280 175.589 -72.8561 174.995 -72.3770  c
174.401 -71.9082 173.558 -71.6738 172.464 -71.6738  c
172.099 -71.6738 171.719 -71.7103 171.323 -71.7832  c
170.938 -71.8561 170.542 -71.9655 170.136 -72.1113  c
170.136 -73.2520 l
170.459 -73.0645 170.813 -72.9186 171.198 -72.8145  c
171.594 -72.7207 172.006 -72.6738 172.433 -72.6738  c
173.172 -72.6738 173.735 -72.8197 174.120 -73.1113  c
174.516 -73.4030 174.714 -73.8301 174.714 -74.3926  c
174.714 -74.9030 174.532 -75.3040 174.167 -75.5957  c
173.802 -75.8874 173.302 -76.0332 172.667 -76.0332  c
171.636 -76.0332 l
171.636 -77.0020 l
172.714 -77.0020 l
173.287 -77.0020 173.729 -77.1165 174.042 -77.3457  c
174.354 -77.5853 174.511 -77.9238 174.511 -78.3613  c
174.511 -78.8092 174.349 -79.1530 174.026 -79.3926  c
173.714 -79.6322 173.261 -79.7520 172.667 -79.7520  c
172.334 -79.7520 171.979 -79.7155 171.604 -79.6426  c
171.240 -79.5801 170.834 -79.4759 170.386 -79.3301  c
170.386 -80.3770 l
170.844 -80.5020 171.266 -80.5957 171.651 -80.6582  c
172.047 -80.7207 172.417 -80.7520 172.761 -80.7520  c
173.667 -80.7520 174.381 -80.5488 174.901 -80.1426  c
175.422 -79.7363 175.683 -79.1842 175.683 -78.4863  c
175.683 -77.9967 175.542 -77.5853 175.261 -77.2520  c
174.990 -76.9186 174.599 -76.6895 174.089 -76.5645  c
h
f
2 J
10.0000 M
1.00000 1.00000 1.00000 RG
newpath
30.0000 -141.000 m
90.0000 -141.000 l
90.0000 -111.000 l
30.0000 -111.000 l
30.0000 -141.000 l
h
f
0 J
1.45000 M
0.00000 0.00000 0.00000 RG
newpath
30.0000 -141.000 m
90.0000 -141.000 l
90.0000 -111.000 l
30.0000 -111.000 l
30.0000 -141.000 l
h
S
2 J
10.0000 M
0 J
1.45000 M
newpath
45.0801 -129.627 m
45.0801 -122.814 l
46.5176 -122.814 l
47.7259 -122.814 48.6061 -123.085 49.1582 -123.627  c
49.7207 -124.179 50.0020 -125.049 50.0020 -126.236  c
50.0020 -127.403 49.7207 -128.257 49.1582 -128.799  c
48.6061 -129.351 47.7259 -129.627 46.5176 -129.627  c
45.0801 -129.627 l
h
43.8926 -130.596 m
46.3301 -130.596 l
48.0280 -130.596 49.2728 -130.242 50.0645 -129.533  c
50.8561 -128.835 51.2520 -127.736 51.2520 -126.236  c
51.2520 -124.726 50.8509 -123.617 50.0488 -122.908  c
49.2572 -122.200 48.0176 -121.846 46.3301 -121.846  c
43.8926 -121.846 l
43.8926 -130.596 l
h
57.0410 -127.299 m
64.5566 -127.299 l
64.5566 -126.314 l
57.0410 -126.314 l
57.0410 -127.299 l
h
57.0410 -124.908 m
64.5566 -124.908 l
64.5566 -123.908 l
57.0410 -123.908 l
57.0410 -124.908 l
h
74.1758 -129.564 m
71.1914 -124.893 l
74.1758 -124.893 l
74.1758 -129.564 l
h
73.8633 -130.596 m
75.3633 -130.596 l
75.3633 -124.893 l
76.6133 -124.893 l
76.6133 -123.908 l
75.3633 -123.908 l
75.3633 -121.846 l
74.1758 -121.846 l
74.1758 -123.908 l
70.2383 -123.908 l
70.2383 -125.049 l
73.8633 -130.596 l
h
f
2 J
10.0000 M
0 J
1.45000 M
newpath
72.2951 -61.0000 m
92.6335 -36.1871 l
S
newpath
97.7049 -30.0000 m
93.9647 -42.4503 l
91.9996 -36.9605 l
86.2308 -36.1111 l
h
f
2 J
10.0000 M
0 J
1.45000 M
newpath
147.705 -61.0000 m
127.367 -36.1871 l
S
newpath
122.295 -30.0000 m
133.769 -36.1111 l
128.000 -36.9605 l
126.035 -42.4503 l
h
f
2 J
10.0000 M
0 J
1.45000 M
newpath
60.0000 -111.000 m
60.0000 -99.0000 l
S
newpath
60.0000 -91.0000 m
65.0000 -103.000 l
60.0000 -100.000 l
55.0000 -103.000 l
h
f
2 J
10.0000 M
Q
[ 1.00000 0.00000 0.00000 1.00000 0.00000 0.00000 ] defaultmatrix matrix concatmatrix setmatrix
cliprestore

%%Trailer
%%EOF
