%!PS-Adobe-3.0 EPSF-3.0
%%BoundingBox: 0 0 319 293
%%Creator: yExport 1.5
%%Producer: org.freehep.graphicsio.ps.EPSGraphics2D Revision: 12753 
%%For: 
%%Title: 
%%CreationDate: Tuesday, February 27, 2018 at 11:45:20 AM Eastern Standard Time
%%LanguageLevel: 3
%%EndComments
%%BeginProlog
100 dict dup begin

%
% File: org/freehep/graphicsio.ps/PSProlog.txt
% Author: Charles Loomis
%

% Redefinitions which save some space in the output file.  These are also
% the same as the PDF operators.
/q {gsave} def
/Q {grestore} def

/n {newpath} def
/m {moveto} def
/l {lineto} def
/c {curveto} def
/h {closepath} def

/re {4 -2 roll moveto
     dup 0 exch rlineto exch 0 rlineto
     neg 0 exch rlineto closepath} def

/f {fill} def
/f* {eofill} def
/F {gsave vg&FC fill grestore} def
/F* {gsave vg&FC eofill grestore} def

/s {closepath stroke} def
/S {stroke} def

/b {closepath gsave vg&FC fill grestore
    gsave stroke grestore newpath} def
/B {gsave vg&FC fill grestore gsave stroke grestore newpath} def
/b* {closepath gsave vg&FC eofill grestore
    gsave stroke grestore newpath} def
/B* {gsave vg&FC eofill grestore gsave stroke grestore newpath} def

/g {1 array astore /vg&fcolor exch def} def
/G {setgray} def
/k {4 array astore /vg&fcolor exch def} def
/K {setcmykcolor} def
/rg {3 array astore /vg&fcolor exch def} def
/RG {setrgbcolor} def

% Initialize the fill color.
0 0 0 rg

/vg&FC {mark vg&fcolor aload pop
        counttomark 1 eq {G} if
        counttomark 3 eq {RG} if
        counttomark 4 eq {K} if
        cleartomark } def

/vg&DFC {/vg&fcolor exch def} def

/vg&C {mark exch aload pop
       counttomark 1 eq {G} if
       counttomark 3 eq {RG} if
       counttomark 4 eq {K} if
       cleartomark } def

/w {setlinewidth} def
/j {setlinejoin} def
/J {setlinecap} def
/M {setmiterlimit} def
/d {setdash} def
/i {setflat} def

/W {clip} def
/W* {eoclip} def

% Setup the default graphics state.
% (black; 1 pt. linewidth; miter join; butt-ends; solid)
/defaultGraphicsState {0 g 1 w 0 j 0 J [] 0 d} def

% Emulation of the rectangle operators for PostScript implementations
% which do not implement all Level 2 features.  This is an INCOMPLETE
% emulation; only the "x y width height rect..." form is emulated.
/*rf {gsave newpath re fill grestore} def
/*rs {gsave newpath re stroke grestore} def
/*rc {newpath re clip} def
/rf  /rectfill where {pop /rectfill}{/*rf} ifelse load def
/rs  /rectstroke where {pop /rectstroke}{/*rs} ifelse load def
/rc  /rectclip where {pop /rectclip}{/*rc} ifelse load def

% Emulation of the selectfont operator.  This includes a 20% increase in
% the fontsize which is necessary to get sizes similar to the Java fonts.
/*sf {exch findfont exch
      dup type /arraytype eq {makefont}{scalefont} ifelse setfont} bind def
/sf /selectfont where {pop {1.2 mul selectfont}}{{1.2 mul *sf}} ifelse def

% Special version of stroke which allows the dash pattern to continue
% across path segments.  (This may be needed for PostScript although
% modern printers seem to do this correctly.)
/vg&stroke {
  currentdash pop length 0 eq
  {stroke}
  {
    currentdash /vg&doffset exch def pop
    flattenpath
    {m vg&resetdash}
    {2 copy
     currentpoint
     3 -1 roll sub dup mul
     3 1 roll sub dup mul
     add sqrt
     3 1 roll l
     currentdash 3 -1 roll add setdash}
     {}
     {h vg&resetdash}
     pathforall
     stroke
     vg&resetdash
  } ifelse
} def
/vg&resetdash {currentdash pop vg&doffset setdash} def

% Initialize variables for safety.
/delta 0 def
/xv 0 def  /yv 0 def  /width 0 def  /height 0 def

% Initialize to portrait INTERNATIONAL (Letter-height, A4-width) page.
/pw 595 def  /ph 791  def  /po true def /ftp false def

% Initialize margins to 20 points.
/ml 20 def  /mr 20 def  /mt 20 def  /mb 20 def

% Temporary matrices.
/smatrix 0 def  /nmatrix 0 def

% set page size (usage: <page width><page height> setpagesize)
/setpagesize {/ph exch def /pw exch def} def

% set page orientation (usage: portrait or landscape)
/portrait {/po true def} def
/landscape {/po false def} def

% force natural size for image (usage: naturalsize)
/naturalsize {/ftp false def} def

% resize image to fill page (usage: fittopage)
/fittopage {/ftp true def} def

% set margins of the page (usage: <left><bottom><top><right> setmargins)
/setmargins {/mr exch def /mt exch def /mb exch def /ml exch def} def

% set the graphic's size (usage: <width><height> setsize)
/setsize {/gh exch def /gw exch def} def

% set the graphic's origin (usage: <x0><y0> setorigin)
/setorigin {/gy exch def /gx exch def} def

% calculate image center
/imagecenter {pw ml sub mr sub 2 div ml add
              ph mt sub mb sub 2 div mb add} def

% calculate the necessary scaling
/imagescale {po {gw}{gh} ifelse pw ml sub mr sub div
             po {gh}{gw} ifelse ph mt sub mb sub div
             2 copy lt {exch} if pop
             ftp not {1 2 copy lt {exch} if pop} if
             1 exch div /sfactor exch def
             /gw gw sfactor mul def /gh gh sfactor mul def} def

% calculate image origin
/imageorigin {pw ml sub mr sub 2 div ml add
              po {gw}{gh} ifelse 2 div sub
              ph mt sub mb sub 2 div mb add
              po {gh}{gw} ifelse 2 div po {add}{sub} ifelse} def

% calculate the clipping origin
/cliporigin  {pw ml sub mr sub 2 div ml add
              po {gw}{gh} ifelse 2 div sub floor
              ph mt sub mb sub 2 div mb add
              po {gh}{gw} ifelse 2 div sub floor} def

% Set the clipping region to the bounding box.
/cliptobounds {cliporigin po {gw}{gh} ifelse 1 add
                          po {gh}{gw} ifelse 1 add rc} def

% set the base transformation matrix (usage: setbasematrix)
/setbasematrix {imageorigin translate
                po {0}{90} ifelse rotate
                sfactor sfactor neg scale
                /defaultmatrix matrix currentmatrix def} def

% The lower-right bias in drawing 1 pt. wide lines.
/bias  {q 0.5 0.5 translate} def
/unbias {Q} def

% Define the composite fonts used to print Unicode strings.
% Undefine particular values in an encoding array.
/vg&undef { {exch dup 3 -1 roll /.notdef put} forall } def
/vg&redef { {3 -1 roll dup 4 2 roll put} forall } def

% usage: key encoding basefontname vg&newbasefont font
/vg&newbasefont {
findfont dup length dict copy
  begin
    currentdict /FID undef
    /Encoding exch def
    dup /FontName exch def
    currentdict
  end
definefont
} def

% usage: key encoding basefontname vg&newskewedbasefont font
/vg&newskewedbasefont {
findfont dup length dict copy
  begin
    currentdict /FID undef
    /Encoding exch def
    dup /FontName exch def
    exch FontMatrix exch matrix concatmatrix /FontMatrix exch def
    currentdict
  end
definefont
} def

% usage: basekey suffix vg&nconcat name
/vg&nconcat {
  2 {dup length string cvs exch} repeat
  dup length 3 -1 roll dup length 3 -1 roll add string
  dup 0 4 -1 roll dup length 5 1 roll putinterval
  dup 4 -2 roll exch putinterval cvn
} def

%usage: fontname vg&skewmatrix matrix
/vg&skewmatrix {
findfont dup /FontInfo known
  {
    /FontInfo get dup /ItalicAngle known
    {
      [ 1 0 4 -1 roll /ItalicAngle get neg dup sin exch cos div 1 0 0 ]
    }
    {pop matrix} ifelse
  }
  {pop matrix} ifelse
} def

% usage: newfontname basefontname vg&newcompositefont --
/vg&newcompositefont {
/vg&fstyle exch def
/vg&bfont exch def
/vg&fname exch def
<<
/FontStyleBits vg&fstyle
/FontType 0
/FontMatrix matrix
/FontName vg&fname
/FMapType 2
/Encoding [ 0 1 255 {pop 6} for ]
          dup 16#00 0 put % Latin
          dup 16#03 1 put % Greek
          dup 16#20 2 put % Punctuation
          dup 16#21 3 put % Arrows
          dup 16#22 4 put % MathOps
          dup 16#27 5 put % Dingbats

/FDepVector [
vg&bfont /-UC-Latin vg&nconcat UCLatinEncoding
vg&bfont vg&newbasefont

vg&bfont vg&skewmatrix
vg&bfont /-UC-Greek vg&nconcat UCGreekEncoding
/Symbol vg&newskewedbasefont

vg&bfont /-UC-Punctuation vg&nconcat UCPunctuationEncoding
vg&bfont vg&newbasefont

/Arrows-UC findfont
/MathOps-UC findfont
/Dingbats-UC findfont
/Undefined-UC findfont ]
>>
vg&fname exch definefont pop
} def

% Null encoding vector (all elements set to .notdef)
/NullEncoding [ 256 {/.notdef} repeat ] def

% Unicode Latin encoding (unicode codes \u0000-\u00ff)
/UCLatinEncoding
  ISOLatin1Encoding dup length array copy
  dup 16#60 /grave put
  [ 16#90 16#91 16#92 16#93 16#94 16#95 16#96
    16#97 16#98 16#9a 16#9b 16#9d 16#9e 16#9f
  ] vg&undef
  def

% Unicode Greek encoding (unicode codes \u0370-\u03ff)
/UCGreekEncoding
  NullEncoding dup length array copy
  << 16#91 /Alpha    16#92 /Beta      16#93 /Gamma    16#94 /Delta
     16#95 /Epsilon  16#96 /Zeta      16#97 /Eta      16#98 /Theta
     16#99 /Iota     16#9a /Kappa     16#9b /Lambda   16#9c /Mu
     16#9d /Nu       16#9e /Xi        16#9f /Omicron  16#a0 /Pi
     16#a1 /Rho      16#a3 /Sigma     16#a4 /Tau      16#a5 /Upsilon
     16#a6 /Phi      16#a7 /Chi       16#a8 /Psi      16#a9 /Omega
     16#b1 /alpha    16#b2 /beta      16#b3 /gamma    16#b4 /delta
     16#b5 /epsilon  16#b6 /zeta      16#b7 /eta      16#b8 /theta
     16#b9 /iota     16#ba /kappa     16#bb /lambda   16#bc /mu
     16#bd /nu       16#be /xi        16#bf /omicron  16#c0 /pi
     16#c1 /rho      16#c2 /sigma1    16#c3 /sigma    16#c4 /tau
     16#c5 /upsilon  16#c6 /phi1      16#c7 /chi      16#c8 /psi
     16#c9 /omega    16#7e /semicolon 16#87 /dotmath  16#d1 /theta1
     16#d2 /Upsilon1 16#d5 /phi       16#d6 /omega1
  >> vg&redef
  def

% Unicode punctuation encoding (unicode codes \u2000-\u206f)
/UCPunctuationEncoding
  NullEncoding dup length array copy
  << 16#10 /hyphen          16#11 /hyphen              16#12 /endash
     16#13 /emdash          16#18 /quoteleft           16#19 /quoteright
     16#1a /quotesinglbase  16#1b /quotesingle         16#1c /quotedblleft
     16#1d /quotedblright   16#1e /quotedblbase        16#1f /quotedbl
     16#20 /dagger          16#21 /daggerdbl           16#22 /bullet
     16#24 /period          16#26 /ellipsis            16#27 /periodcentered
     16#30 /perthousand     16#44 /fraction
     16#70 /zerosuperior    16#74 /foursuperior        16#75 /fivesuperior
     16#76 /sixsuperior     16#77 /sevensuperior       16#78 /eightsuperior
     16#79 /ninesuperior    16#7b /hyphensuperior      16#7d /parenleftsuperior
     16#7e /parenrightsuperior
     16#80 /zeroinferior    16#84 /fourinferior        16#85 /fiveinferior
     16#81 /oneinferior     16#82 /twoinferior         16#83 /threeinferior
     16#86 /sixinferior     16#87 /seveninferior       16#88 /eightinferior
     16#89 /nineinferior    16#8b /hypheninferior      16#8d /parenleftinferior
     16#8e /parenrightinferior
  >> vg&redef
  def

% Unicode mathematical operators encoding (unicode codes \u2200-\u22ff)
/UCMathOpsEncoding
  NullEncoding dup length array copy
  << 16#00 /universal       16#02 /partialdiff         16#03 /existential
     16#05 /emptyset        16#06 /Delta               16#07 /gradient
     16#08 /element         16#09 /notelement          16#0b /suchthat
     16#0f /product         16#11 /summation           16#12 /minus
     16#15 /fraction        16#17 /asteriskmath        16#19 /bullet
     16#1a /radical         16#1d /proportional        16#1e /infinity
     16#20 /angle           16#23 /bar                 16#27 /logicaland
     16#28 /logicalor       16#29 /intersection        16#2a /union
     16#2b /integral        16#34 /therefore           16#36 /colon
     16#3c /similar         16#45 /congruent           16#48 /approxequal
     16#60 /notequal        16#61 /equivalence         16#64 /lessequal
     16#65 /greaterequal    16#82 /propersubset        16#83 /propersuperset
     16#86 /reflexsubset    16#87 /reflexsuperset      16#95 /circleplus
     16#97 /circlemultiply  16#a5 /perpendicular       16#03 /existential
     16#c0 /logicaland      16#c1 /logicalor           16#c2 /intersection
     16#c3 /union           16#c4 /diamond             16#c5 /dotmath
  >> vg&redef
  def

% Unicode arrows encoding (unicode codes \u2190-\u21ff)
% Also includes those "Letterlike" unicode characters
% which are available in the symbol font. (unicode codes \u2100-\u214f)
/UCArrowsEncoding
  NullEncoding dup length array copy
  << 16#11 /Ifraktur        16#1c /Rfraktur            16#22 /trademarkserif
     16#35 /aleph
     16#90 /arrowleft       16#91 /arrowup             16#92 /arrowright
     16#93 /arrowdown       16#94 /arrowboth           16#d0 /arrowdblleft
     16#d1 /arrowdblup      16#d2 /arrowdblright       16#d3 /arrowdbldown
     16#d4 /arrowdblboth
  >> vg&redef
  def

/ZapfDingbats findfont /Encoding get
dup length array copy /UCDingbatsEncoding exch def
16#20 1 16#7f {
  dup 16#20 sub exch
  UCDingbatsEncoding exch get
  UCDingbatsEncoding 3 1 roll put
} for
16#a0 1 16#ff {
  dup 16#40 sub exch
  UCDingbatsEncoding exch get
  UCDingbatsEncoding 3 1 roll put
} for
UCDingbatsEncoding [ 16#c0 1 16#ff {} for ] vg&undef
[ 16#00  16#05 16#0a 16#0b  16#28 16#4c 16#4e  16#53 16#54 16#55  16#57 16#5f
  16#60  16#68 16#69 16#6a  16#6b 16#6c 16#6d  16#6e 16#6f 16#70  16#71 16#72
  16#73  16#74 16#75 16#95  16#96 16#97 16#b0  16#bf
] vg&undef pop

% Define the base fonts which don't change.
/Undefined-UC NullEncoding       /Helvetica    vg&newbasefont pop
/MathOps-UC   UCMathOpsEncoding  /Symbol       vg&newbasefont pop
/Arrows-UC    UCArrowsEncoding   /Symbol       vg&newbasefont pop
/Dingbats-UC  UCDingbatsEncoding /ZapfDingbats vg&newbasefont pop

% Make the SansSerif composite fonts.
/SansSerif /Helvetica 16#00 vg&newcompositefont
/SansSerif-Bold /Helvetica-Bold 16#01 vg&newcompositefont
/SansSerif-Italic /Helvetica-Oblique 16#02 vg&newcompositefont
/SansSerif-BoldItalic /Helvetica-BoldOblique 16#03 vg&newcompositefont

% Make the Serif composite fonts.
/Serif /Times-Roman 16#00 vg&newcompositefont
/Serif-Bold /Times-Bold 16#01 vg&newcompositefont
/Serif-Italic /Times-Italic 16#02 vg&newcompositefont
/Serif-BoldItalic /Times-BoldItalic 16#03 vg&newcompositefont

% Make the Monospaced composite fonts.
/Monospaced /Courier 16#00 vg&newcompositefont
/Monospaced-Bold /Courier-Bold 16#01 vg&newcompositefont
/Monospaced-Italic /Courier-Oblique 16#02 vg&newcompositefont
/Monospaced-BoldItalic /Courier-BoldOblique 16#03 vg&newcompositefont

% Make the Dialog composite fonts.
/Dialog /Helvetica 16#00 vg&newcompositefont
/Dialog-Bold /Helvetica-Bold 16#01 vg&newcompositefont
/Dialog-Italic /Helvetica-Oblique 16#02 vg&newcompositefont
/Dialog-BoldItalic /Helvetica-BoldOblique 16#03 vg&newcompositefont

% Make the DialogInput composite fonts.
/DialogInput /Courier 16#00 vg&newcompositefont
/DialogInput-Bold /Courier-Bold 16#01 vg&newcompositefont
/DialogInput-Italic /Courier-Oblique 16#02 vg&newcompositefont
/DialogInput-BoldItalic /Courier-BoldOblique 16#03 vg&newcompositefont

% Make the Typewriter composite fonts (JDK 1.1 only).
/Typewriter /Courier 16#00 vg&newcompositefont
/Typewriter-Bold /Courier-Bold 16#01 vg&newcompositefont
/Typewriter-Italic /Courier-Oblique 16#02 vg&newcompositefont
/Typewriter-BoldItalic /Courier-BoldOblique 16#03 vg&newcompositefont


/cfontH {
 dup /fontsize exch def /SansSerif exch sf
 /vg&fontstyles [{cfontH} {cfontHB} {cfontHI} {cfontHBI}] def
} def
/cfontHB {
  dup /fontsize exch def /SansSerif-Bold exch sf
 /vg&fontstyles [{cfontH} {cfontHB} {cfontHI} {cfontHBI}] def
} def
/cfontHI {
 dup /fontsize exch def /SansSerif-Italic exch sf
 /vg&fontstyles [{cfontH} {cfontHB} {cfontHI} {cfontHBI}] def
} def
/cfontHBI {
 dup /fontsize exch def /SansSerif-BoldItalic exch sf
 /vg&fontstyles [{cfontH} {cfontHB} {cfontHI} {cfontHBI}] def
} def

/cfontT {
 dup /fontsize exch def /Serif exch sf
 /vg&fontstyles [{cfontT} {cfontTB} {cfontTI} {cfontTBI}] def
} def
/cfontTB {
 dup /fontsize exch def /Serif-Bold exch sf
 /vg&fontstyles [{cfontT} {cfontTB} {cfontTI} {cfontTBI}] def
} def
/cfontTI {
 dup /fontsize exch def /Serif-Italic exch sf
 /vg&fontstyles [{cfontT} {cfontTB} {cfontTI} {cfontTBI}] def
} def
/cfontTBI {
 dup /fontsize exch def /Serif-BoldItalic exch sf
 /vg&fontstyles [{cfontT} {cfontTB} {cfontTI} {cfontTBI}] def
} def

/cfontC {
 dup /fontsize exch def /Typewriter exch sf
 /vg&fontstyles [{cfontC} {cfontCB} {cfontCI} {cfontCBI}] def
} def
/cfontCB {
 dup /fontsize exch def /Typewriter-Bold exch sf
 /vg&fontstyles [{cfontC} {cfontCB} {cfontCI} {cfontCBI}] def
} def
/cfontCI {
 dup /fontsize exch def /Typewriter-Italic exch sf
 /vg&fontstyles [{cfontC} {cfontCB} {cfontCI} {cfontCBI}] def
} def
/cfontCBI {
 dup /fontsize exch def /Typewriter-BoldItalic exch sf
 /vg&fontstyles [{cfontC} {cfontCB} {cfontCI} {cfontCBI}] def
} def

% Darken or lighten the current color.
/darken {0.7 exch exp 3 copy
         q 4 -1 roll vg&C
         currentrgbcolor 3 {4 -2 roll mul} repeat
         3 array astore Q} def

/displayColorMap
<< /Cr   [1.00 0.00 0.00]       /Cg     [0.00 1.00 0.00]
   /Cb   [0.00 0.00 1.00]       /Cc     [1.00 0.00 0.00 0.00]
   /Cm   [0.00 1.00 0.00 0.00]  /Cy     [0.00 0.00 1.00 0.00]
   /Co   [1.00 0.78 0.00]       /Cp     [1.00 0.67 0.67]
   /Cw   [1   ]                 /Cgrl   [0.75]
   /Cgr  [0.50]                 /Cgrd   [0.25]
   /Ck   [0   ]
   /CGr  [1.00 0.00 0.00]       /CGg    [0.00 1.00 0.00]
   /CGb  [0.00 0.00 1.00]       /CGc    [1.00 0.00 0.00 0.00]
   /CGm  [0.00 1.00 0.00 0.00]  /CGy    [0.00 0.00 1.00 0.00]
   /CGo  [1.00 0.78 0.00]       /CGp    [1.00 0.67 0.67]
   /CGw  [1   ]                 /CGgrl  [0.75]
   /CGgr [0.50]                 /CGgrd  [0.25]
   /CGk  [0   ]
   /CIr  [1.00 0.00 0.00]       /CIg    [0.00 1.00 0.00]
   /CIb  [0.00 0.00 1.00]       /CIc    [1.00 0.00 0.00 0.00]
   /CIm  [0.00 1.00 0.00 0.00]  /CIy    [0.00 0.00 1.00 0.00]
   /CIo  [1.00 0.78 0.00]       /CIp    [1.00 0.67 0.67]
   /CIw  [1   ]                 /CIgrl  [0.75]
   /CIgr [0.50]                 /CIgrd  [0.25]
   /CIk  [0   ]
>> def

/printColorMap
<< /Cr   [1.00 0.33 0.33]       /Cg     [0.33 1.00 0.33]
   /Cb   [0.33 0.33 1.00]       /Cc     [1.00 0.00 0.00 0.00]
   /Cm   [0.00 1.00 0.00 0.00]  /Cy     [0.00 0.00 1.00 0.00]
   /Co   [1.00 0.78 0.00]       /Cp     [1.00 0.67 0.67]
   /Cw   [1   ]                 /Cgrl   [0.75]
   /Cgr  [0.50]                 /Cgrd   [0.25]
   /Ck   [0   ]
   /CGr  [1.00 0.33 0.33]       /CGg    [0.33 1.00 0.33]
   /CGb  [0.33 0.33 1.00]       /CGc    [1.00 0.00 0.00 0.00]
   /CGm  [0.00 1.00 0.00 0.00]  /CGy    [0.00 0.00 1.00 0.00]
   /CGo  [1.00 0.78 0.00]       /CGp    [1.00 0.67 0.67]
   /CGw  [1   ]                 /CGgrl  [0.75]
   /CGgr [0.50]                 /CGgrd  [0.25]
   /CGk  [0   ]
   /CIr  [1.00 0.33 0.33]       /CIg    [0.33 1.00 0.33]
   /CIb  [0.33 0.33 1.00]       /CIc    [1.00 0.00 0.00 0.00]
   /CIm  [0.00 1.00 0.00 0.00]  /CIy    [0.00 0.00 1.00 0.00]
   /CIo  [1.00 0.78 0.00]       /CIp    [1.00 0.67 0.67]
   /CIw  [1   ]                 /CIgrl  [0.75]
   /CIgr [0.50]                 /CIgrd  [0.25]
   /CIk  [0   ]
>> def

/grayColorMap
<< /Cr   [0   ]                 /Cg     [0   ]
   /Cb   [0   ]                 /Cc     [0   ]
   /Cm   [0   ]                 /Cy     [0   ]
   /Co   [0   ]                 /Cp     [0   ]
   /Cw   [0   ]                 /Cgrl   [0   ]
   /Cgr  [0   ]                 /Cgrd   [0   ]
   /Ck   [0   ]
   /CGr  [0.75]                 /CGg    [1   ]
   /CGb  [0.50]                 /CGc    [0.75]
   /CGm  [0.50]                 /CGy    [1   ]
   /CGo  [0.75]                 /CGp    [1   ]
   /CGw  [0   ]                 /CGgrl  [0.25]
   /CGgr [0.50]                 /CGgrd  [0.75]
   /CGk  [1   ]
   /CIr  [1   ]                 /CIg    [1   ]
   /CIb  [1   ]                 /CIc    [1   ]
   /CIm  [1   ]                 /CIy    [1   ]
   /CIo  [1   ]                 /CIp    [1   ]
   /CIw  [1   ]                 /CIgrl  [1   ]
   /CIgr [1   ]                 /CIgrd  [1   ]
   /CIk  [1   ]
>> def

/bwColorMap
<< /Cr   [0   ]                 /Cg     [0   ]
   /Cb   [0   ]                 /Cc     [0   ]
   /Cm   [0   ]                 /Cy     [0   ]
   /Co   [0   ]                 /Cp     [0   ]
   /Cw   [0   ]                 /Cgrl   [0   ]
   /Cgr  [0   ]                 /Cgrd   [0   ]
   /Ck   [0   ]
   /CGr  [1   ]                 /CGg    [1   ]
   /CGb  [1   ]                 /CGc    [1   ]
   /CGm  [1   ]                 /CGy    [1   ]
   /CGo  [1   ]                 /CGp    [1   ]
   /CGw  [0   ]                 /CGgrl  [1   ]
   /CGgr [1   ]                 /CGgrd  [1   ]
   /CGk  [1   ]
   /CIr  [1   ]                 /CIg    [1   ]
   /CIb  [1   ]                 /CIc    [1   ]
   /CIm  [1   ]                 /CIy    [1   ]
   /CIo  [1   ]                 /CIp    [1   ]
   /CIw  [1   ]                 /CIgrl  [1   ]
   /CIgr [1   ]                 /CIgrd  [1   ]
   /CIk  [1   ]
>> def

%
% The following routines handle the alignment of and printing of
% tagged strings.
%

% Predefine the bounding box values.
/bbllx 0 def /bblly 0 def /bburx 0 def /bbury 0 def

% This routine pops the first unicode character off of a string and returns
% the remainder of the string, the character code of first character,
% and a "true" if the string was non-zero length.
% <string>      popfirst <remaining string> <true>
% <null string> popfirst <false>
/popfirst {
  dup length 1 gt
    {dup 0 get /vg&fbyte exch def
     dup 1 get /vg&cbyte exch def
     dup length 2 sub 2 exch getinterval true}
    {pop false} ifelse
} def

% This routine shows a single unicode character given the font and
% character codes.
% <font code> <char code> unicharshow --
/unicharshow {
  2 string
  dup 0 5 -1 roll put
  dup 1 4 -1 roll put
  internalshow
} def

% This is an internal routine to alternate between determining the
% bounding box for stringsize and showing the string for recshow.
% <string> internalshow --
/internalshow {show} def

% This is an internal routine to alternate between determining the
% bounding box for stringsize and stroking various ornaments.
% <string> internalstroke --
/internalstroke {S} def

% Sets up internalshow to use the null device to determine string size.
% -- nullinternalshow --
/nullinternalshow {/internalshow {false charpath flattenpath
                                  pathbbox updatebbox} def} def

% Sets up internalstroke to use the null device to determine string size.
% -- nullinternalstroke --
/nullinternalstroke {
 /internalstroke {flattenpath pathbbox updatebbox} def} def

% This routine tests to see if the character code matches the first
% character of a string.
% <char code> <string> testchar <char code> <true or false>
/testchar {exch dup 3 -1 roll 0 get eq} def

% Raise the text baseline for superscripts.
% -- raise --
/raise {
  0 fontsize 2 div rmoveto
  /fontsize fontsize 2 mul 3 div def
  currentfont /FontName get fontsize sf
} def

% Un-raise the text baseline for superscripts.
% -- unraise --
/unraise {
  /fontsize fontsize 1.5 mul def
  0 fontsize 2 div neg rmoveto
} def

% Lower the text baseline for subscripts.
% -- lower --
/lower {
  0 fontsize 3 div neg rmoveto
  /fontsize fontsize 2 mul 3 div def
  currentfont /FontName get fontsize sf
} def

% Un-lower the text baseline for subscripts.
% -- unlower --
/unlower {
  /fontsize fontsize 1.5 mul def
  0 fontsize 3 div rmoveto
} def

% Compare the top two elements on the stack and leave only the
% larger one.
/maxval {2 copy gt {pop} {exch pop} ifelse} def

% Tokenize a string.  Do not use the usual PostScript token because
% parentheses will not be interpreted correctly because of rescanning
% of the string.
/vg&token {/vg&string exch def /vg&index -1 def /vg&level 0 def
0 2 vg&string length 2 sub {
  dup dup 1 add exch vg&string exch get 8 bitshift vg&string 3 -1 roll get or
  dup 16#f0fe eq {pop 1}{16#f0ff eq {-1}{0} ifelse} ifelse
  /vg&level exch vg&level add def
  vg&level 0 eq {/vg&index exch def exit} if pop
} for
vg&index 0 ge {
  vg&string vg&index 2 add dup vg&string length exch sub getinterval
  vg&index 2 gt {vg&string 2 vg&index 2 sub getinterval}{()} ifelse
  true}
{false} ifelse
} bind def

% Recursively show an unicode string.
% <string> recshow --
/recshow {
  popfirst
  {
    % Test to see if this is a string attribute.
    vg&fbyte 16#f0 and 16#e0 eq
    {
      q

      % Font style.
      currentfont dup /FontStyleBits known {/FontStyleBits get}{pop 0} ifelse
      vg&cbyte or vg&fontstyles exch get fontsize exch exec

      vg&token pop recshow currentpoint Q m recshow
    }
    {
      vg&fbyte 16#F8 and 16#F0 eq {

        % Superscript and/or subscript.
        vg&cbyte 16#00 eq {
          vg&token pop exch vg&token pop 3 -1 roll
          q raise recshow unraise currentpoint pop Q exch
          q lower recshow unlower currentpoint pop Q
          maxval currentpoint exch pop m recshow } if

        % Strikeout.
        vg&cbyte 16#01 eq {
          vg&token pop currentpoint 3 -1 roll recshow
          q 0 J vg&underline vg&uthick w
          currentpoint 4 -2 roll fontsize 3 div add moveto
          fontsize 3 div add lineto internalstroke Q
          recshow} if

        % Underline.
        vg&cbyte 16#02 eq {
          vg&token pop currentpoint 3 -1 roll recshow
          q 0 J vg&underline vg&uthick w
          currentpoint 4 -2 roll vg&uoffset add moveto
          vg&uoffset add lineto internalstroke Q
          recshow} if

        % Dashed underline.
        vg&cbyte 16#03 eq {
          vg&token pop currentpoint 3 -1 roll recshow
          q 0 J [ vg&uthick 5 mul vg&uthick 2 mul] 0 d
          vg&underline vg&uthick w
          currentpoint 4 -2 roll vg&uoffset add moveto
          vg&uoffset add lineto internalstroke Q
          recshow} if

        % Dotted underline.
        vg&cbyte 16#04 eq {
          vg&token pop currentpoint 3 -1 roll recshow
          q 1 J [ 0 vg&uthick 3 mul] 0 d
          vg&underline vg&uthick w
          currentpoint 4 -2 roll vg&uoffset add moveto
          vg&uoffset add lineto internalstroke Q
          recshow} if

        % Thick underline.
        vg&cbyte 16#05 eq {
          vg&token pop currentpoint 3 -1 roll recshow
          q 0 J vg&underline vg&uthick 2 mul w
          currentpoint 4 -2 roll vg&uoffset vg&uthick 2 div sub add moveto
          vg&uoffset vg&uthick 2 div sub add lineto internalstroke Q
          recshow} if

        % Gray thick underline.
        vg&cbyte 16#06 eq {
          vg&token pop currentpoint 3 -1 roll recshow
          q 0 J vg&underline vg&uthick 2 mul w 0.5 setgray
          currentpoint 4 -2 roll vg&uoffset vg&uthick 2 div sub add moveto
          vg&uoffset vg&uthick 2 div sub add lineto internalstroke Q
          recshow} if

        % Overbar.
        vg&cbyte 16#07 eq {
          vg&token pop dup stringsize relative 4 1 roll pop pop exch
          3 -1 roll recshow
          q 0 J vg&underline vg&uthick w
          vg&uoffset neg add dup currentpoint pop exch m l internalstroke Q
          recshow} if
      }
      {
        vg&fbyte vg&cbyte unicharshow recshow
      } ifelse
    } ifelse
  } if
} def

% Get the underline position and thickness from the current font.
/vg&underline {

currentfont dup /FontType get 0 eq {/FDepVector get 0 get} if
dup dup /FontInfo known {
  /FontInfo get dup
  dup /UnderlinePosition known {
    /UnderlinePosition get /vg&uoffset exch def
  }
  {
    pop /vg&uoffset 0 def
  } ifelse
  dup /UnderlineThickness known {
    /UnderlineThickness get /vg&uthick exch def
  }
  {
    pop /vg&uthick 0 def
  } ifelse
}
{
  pop /vg&uoffset 0 def /vg&uthick 0 def
} ifelse
/FontMatrix get
currentfont dup /FontType get 0 eq
{/FontMatrix get matrix concatmatrix}{pop} ifelse
dup 0 vg&uoffset 3 -1 roll transform /vg&uoffset exch def pop
0 vg&uthick 3 -1 roll transform /vg&uthick exch def pop
} def

% Make a frame with the coordinates on the stack.
% <llx> <lly> <urx> <ury> frame --
/frame {4 copy m 3 1 roll exch l 4 -2 roll l l h} def

% Resets the accumulated bounding box to a degenerate box at the
% current point.
% -- resetbbox --
/resetbbox {
  currentpoint 2 copy
  /bbury exch def
  /bburx exch def
  /bblly exch def
  /bbllx exch def
} def

% Update the accumulated bounding box.
% <llx'> <lly'> <urx'> <ury'> updatebbox --
/updatebbox {
  dup bbury gt {/bbury exch def} {pop} ifelse
  dup bburx gt {/bburx exch def} {pop} ifelse
  dup bblly lt {/bblly exch def} {pop} ifelse
  dup bbllx lt {/bbllx exch def} {pop} ifelse
} def

% Set the bounding box to the values on the stack.
% <llx'> <lly'> <urx'> <ury'> updatebbox --
/restorebbox {
  /bbury exch def /bburx exch def /bblly exch def /bbllx exch def
} def

% Push the accumulated bounding box onto the stack.
% -- pushbbox <llx> <lly> <urx> <ury>
/pushbbox {bbllx bblly bburx bbury} def

% Make the relative bounding box relative to the currentpoint.
% <llx'> <lly'> <urx'> <ury'> inflate <llx> <lly> <urx> <ury>
/inflate {
  2 {fontsize 0.2 mul add 4 1 roll} repeat
  2 {fontsize 0.2 mul sub 4 1 roll} repeat
} def

% Make the relative bounding box relative to the currentpoint.
% <llx'> <lly'> <urx'> <ury'> relative <llx> <lly> <urx> <ury>
/relative {
  currentpoint 3 -1 roll add 3 1 roll add exch 4 2 roll
  currentpoint 3 -1 roll add 3 1 roll add exch 4 2 roll
} def

% Returns the size of a string appropriate for recshow.
% <string> stringsize <llx> <lly> <urx> <ury>
/stringsize {
  pushbbox /internalshow load /internalstroke load 7 -1 roll
  q
  nulldevice 0 0 m
  nullinternalshow nullinternalstroke
  resetbbox
  recshow
  /internalstroke exch def /internalshow exch def
  pushbbox 8 -4 roll restorebbox
  Q
} def

% Calculate values for string positioning.
/calcval {4 copy
  3 -1 roll sub /widy exch def sub neg /widx exch def
  pop pop /dy exch def /dx exch def} def

% Utilities to position a string.
% First letter (U=upper, C=center, B=baseline, L=lower)
% Second letter (L=left, C=center, R=right)
/align [
{calcval dx neg widy dy add neg rmoveto} % UL
{calcval dx neg widy 2 div dy add neg rmoveto} % CL
{calcval dx neg 0 rmoveto} % BL
{calcval dx neg dy neg rmoveto} % LL
{calcval widx dx add neg widy dy add neg rmoveto} % UR
{calcval widx dx add neg widy 2 div dy add neg rmoveto} % CR
{calcval widx dx add neg 0 rmoveto} % BR
{calcval widx dx add neg dy neg rmoveto} % LR
{calcval widx 2 div dx add neg widy dy add neg rmoveto} % UC
{calcval widx 2 div dx add neg widy 2 div dy add neg rmoveto} % CC
{calcval widx 2 div dx add neg 0 rmoveto} % BC
{calcval widx 2 div dx add neg dy neg rmoveto} % LC
] def

/vg&str {m q 1 -1 scale dup stringsize 4 copy align 11 -1 roll get exec
         q inflate relative frame exch exec Q recshow Q} def

end /procDict exch def
%%EndProlog

%%BeginSetup
save
procDict begin
printColorMap begin
319 293 setpagesize
0 0 0 0 setmargins
0 0 setorigin
319 293 setsize
naturalsize
portrait
imagescale
cliptobounds
setbasematrix
/Helvetica 10 sf
defaultGraphicsState
%%EndSetup

0.00000 0.00000 0.00000 RG
[ 1.00000 0.00000 0.00000 1.00000 0.00000 0.00000 ] defaultmatrix matrix concatmatrix setmatrix
cliprestore
1.00000 1.00000 1.00000 RG
newpath
0.00000 0.00000 m
319.000 0.00000 l
319.000 293.000 l
0.00000 293.000 l
0.00000 0.00000 l
h
f
0.00000 0.00000 0.00000 RG
0.00000 0.00000 0.00000 RG
[ 1.00000 0.00000 0.00000 1.00000 0.00000 0.00000 ] defaultmatrix matrix concatmatrix setmatrix
cliprestore
1.00000 1.00000 1.00000 RG
newpath
0.00000 0.00000 m
319.000 0.00000 l
319.000 293.000 l
0.00000 293.000 l
0.00000 0.00000 l
h
f
0.00000 0.00000 0.00000 RG
0 0 319 293 rc
q
[ 1.00000 0.00000 0.00000 1.00000 0.00000 0.00000 ] concat
[ 1.00000 0.00000 0.00000 1.00000 -5.00000 76.0000 ] concat
1.00000 1.00000 1.00000 RG
newpath
5.00000 -76.0000 m
324.000 -76.0000 l
324.000 217.000 l
5.00000 217.000 l
5.00000 -76.0000 l
h
f
0.00000 0.00000 0.00000 RG
[ 1.00000 0.00000 0.00000 1.00000 -5.00000 76.0000 ] defaultmatrix matrix concatmatrix setmatrix
[ 1.00000 0.00000 0.00000 1.00000 -5.00000 76.0000 ] defaultmatrix matrix concatmatrix setmatrix
[ 1.00000 0.00000 0.00000 1.00000 0.00000 0.00000 ] defaultmatrix matrix concatmatrix setmatrix
[ 1.00000 0.00000 0.00000 1.00000 -5.00000 76.0000 ] defaultmatrix matrix concatmatrix setmatrix
1.00000 1.00000 1.00000 RG
newpath
197.794 0.00000 m
282.794 0.00000 l
282.794 30.0000 l
197.794 30.0000 l
197.794 0.00000 l
h
f
0 J
1.45000 M
0.00000 0.00000 0.00000 RG
newpath
197.794 0.00000 m
282.794 0.00000 l
282.794 30.0000 l
197.794 30.0000 l
197.794 0.00000 l
h
S
2 J
10.0000 M
0 J
1.45000 M
newpath
212.517 12.5918 m
213.595 12.5918 l
214.955 17.7168 l
216.283 12.5918 l
217.564 12.5918 l
218.908 17.7168 l
220.251 12.5918 l
221.330 12.5918 l
219.611 19.1543 l
218.345 19.1543 l
216.923 13.7793 l
215.517 19.1543 l
214.236 19.1543 l
212.517 12.5918 l
h
226.769 13.5918 m
226.644 13.5293 226.509 13.4824 226.363 13.4512  c
226.227 13.4095 226.071 13.3887 225.894 13.3887  c
225.290 13.3887 224.821 13.5866 224.488 13.9824  c
224.165 14.3783 224.003 14.9512 224.003 15.7012  c
224.003 19.1543 l
222.925 19.1543 l
222.925 12.5918 l
224.003 12.5918 l
224.003 13.6074 l
224.233 13.2116 224.529 12.9199 224.894 12.7324  c
225.259 12.5345 225.701 12.4355 226.222 12.4355  c
226.295 12.4355 226.373 12.4408 226.457 12.4512  c
226.550 12.4616 226.649 12.4772 226.753 12.4980  c
226.769 13.5918 l
h
233.515 15.6074 m
233.515 16.1230 l
228.546 16.1230 l
228.598 16.8730 228.822 17.4408 229.218 17.8262  c
229.625 18.2116 230.182 18.4043 230.890 18.4043  c
231.307 18.4043 231.708 18.3574 232.093 18.2637  c
232.489 18.1595 232.880 18.0033 233.265 17.7949  c
233.265 18.8262 l
232.869 18.9824 232.468 19.1022 232.062 19.1855  c
231.656 19.2793 231.244 19.3262 230.828 19.3262  c
229.786 19.3262 228.958 19.0241 228.343 18.4199  c
227.729 17.8053 227.421 16.9772 227.421 15.9355  c
227.421 14.8626 227.713 14.0137 228.296 13.3887  c
228.880 12.7533 229.661 12.4355 230.640 12.4355  c
231.526 12.4355 232.223 12.7220 232.734 13.2949  c
233.255 13.8574 233.515 14.6283 233.515 15.6074  c
h
232.437 15.2793 m
232.427 14.6960 232.260 14.2272 231.937 13.8730  c
231.614 13.5189 231.187 13.3418 230.656 13.3418  c
230.052 13.3418 229.567 13.5137 229.203 13.8574  c
228.848 14.2012 228.645 14.6803 228.593 15.2949  c
232.437 15.2793 l
h
235.242 10.0293 m
236.320 10.0293 l
236.320 15.4199 l
239.539 12.5918 l
240.914 12.5918 l
237.429 15.6543 l
241.070 19.1543 l
239.664 19.1543 l
236.320 15.9512 l
236.320 19.1543 l
235.242 19.1543 l
235.242 10.0293 l
h
247.222 21.1543 m
247.222 21.9824 l
240.972 21.9824 l
240.972 21.1543 l
247.222 21.1543 l
h
252.410 12.7793 m
252.410 13.8105 l
252.108 13.6543 251.790 13.5397 251.457 13.4668  c
251.134 13.3835 250.795 13.3418 250.441 13.3418  c
249.910 13.3418 249.509 13.4251 249.238 13.5918  c
248.967 13.7480 248.832 13.9928 248.832 14.3262  c
248.832 14.5762 248.925 14.7741 249.113 14.9199  c
249.311 15.0553 249.701 15.1855 250.285 15.3105  c
250.644 15.4043 l
251.415 15.5605 251.962 15.7897 252.285 16.0918  c
252.608 16.3939 252.769 16.8105 252.769 17.3418  c
252.769 17.9564 252.524 18.4408 252.035 18.7949  c
251.556 19.1491 250.894 19.3262 250.050 19.3262  c
249.696 19.3262 249.326 19.2897 248.941 19.2168  c
248.566 19.1543 248.170 19.0553 247.753 18.9199  c
247.753 17.7949 l
248.149 18.0033 248.540 18.1595 248.925 18.2637  c
249.311 18.3678 249.696 18.4199 250.082 18.4199  c
250.582 18.4199 250.967 18.3366 251.238 18.1699  c
251.519 17.9928 251.660 17.7428 251.660 17.4199  c
251.660 17.1283 251.561 16.9043 251.363 16.7480  c
251.165 16.5918 250.733 16.4408 250.066 16.2949  c
249.691 16.2168 l
249.024 16.0710 248.540 15.8522 248.238 15.5605  c
247.946 15.2689 247.800 14.8730 247.800 14.3730  c
247.800 13.7480 248.019 13.2689 248.457 12.9355  c
248.894 12.6022 249.514 12.4355 250.316 12.4355  c
250.712 12.4355 251.087 12.4668 251.441 12.5293  c
251.795 12.5814 252.118 12.6647 252.410 12.7793  c
h
254.365 16.5605 m
254.365 12.5918 l
255.443 12.5918 l
255.443 16.5293 l
255.443 17.1439 255.563 17.6074 255.802 17.9199  c
256.052 18.2324 256.417 18.3887 256.896 18.3887  c
257.479 18.3887 257.938 18.2064 258.271 17.8418  c
258.615 17.4668 258.787 16.9564 258.787 16.3105  c
258.787 12.5918 l
259.865 12.5918 l
259.865 19.1543 l
258.787 19.1543 l
258.787 18.1387 l
258.526 18.5449 258.224 18.8470 257.880 19.0449  c
257.537 19.2324 257.136 19.3262 256.677 19.3262  c
255.917 19.3262 255.339 19.0918 254.943 18.6230  c
254.557 18.1543 254.365 17.4668 254.365 16.5605  c
h
257.083 12.4355 m
257.083 12.4355 l
h
263.126 18.1699 m
263.126 21.6543 l
262.048 21.6543 l
262.048 12.5918 l
263.126 12.5918 l
263.126 13.5918 l
263.356 13.1960 263.642 12.9043 263.986 12.7168  c
264.330 12.5293 264.741 12.4355 265.220 12.4355  c
266.022 12.4355 266.673 12.7533 267.173 13.3887  c
267.673 14.0137 267.923 14.8418 267.923 15.8730  c
267.923 16.9043 267.673 17.7376 267.173 18.3730  c
266.673 19.0085 266.022 19.3262 265.220 19.3262  c
264.741 19.3262 264.330 19.2324 263.986 19.0449  c
263.642 18.8470 263.356 18.5553 263.126 18.1699  c
h
266.798 15.8730 m
266.798 15.0814 266.632 14.4616 266.298 14.0137  c
265.975 13.5658 265.533 13.3418 264.970 13.3418  c
264.397 13.3418 263.944 13.5658 263.611 14.0137  c
263.288 14.4616 263.126 15.0814 263.126 15.8730  c
263.126 16.6647 263.288 17.2897 263.611 17.7480  c
263.944 18.1960 264.397 18.4199 264.970 18.4199  c
265.533 18.4199 265.975 18.1960 266.298 17.7480  c
266.632 17.2897 266.798 16.6647 266.798 15.8730  c
h
f
2 J
10.0000 M
1.00000 1.00000 1.00000 RG
newpath
155.000 61.0000 m
240.000 61.0000 l
240.000 91.0000 l
155.000 91.0000 l
155.000 61.0000 l
h
f
0 J
1.45000 M
0.00000 0.00000 0.00000 RG
newpath
155.000 61.0000 m
240.000 61.0000 l
240.000 91.0000 l
155.000 91.0000 l
155.000 61.0000 l
h
S
2 J
10.0000 M
0 J
1.45000 M
newpath
183.460 73.5918 m
184.538 73.5918 l
185.897 78.7168 l
187.226 73.5918 l
188.507 73.5918 l
189.851 78.7168 l
191.194 73.5918 l
192.272 73.5918 l
190.554 80.1543 l
189.288 80.1543 l
187.866 74.7793 l
186.460 80.1543 l
185.179 80.1543 l
183.460 73.5918 l
h
197.712 74.5918 m
197.587 74.5293 197.451 74.4824 197.306 74.4512  c
197.170 74.4095 197.014 74.3887 196.837 74.3887  c
196.233 74.3887 195.764 74.5866 195.431 74.9824  c
195.108 75.3783 194.946 75.9512 194.946 76.7012  c
194.946 80.1543 l
193.868 80.1543 l
193.868 73.5918 l
194.946 73.5918 l
194.946 74.6074 l
195.175 74.2116 195.472 73.9199 195.837 73.7324  c
196.201 73.5345 196.644 73.4355 197.165 73.4355  c
197.238 73.4355 197.316 73.4408 197.399 73.4512  c
197.493 73.4616 197.592 73.4772 197.696 73.4980  c
197.712 74.5918 l
h
204.458 76.6074 m
204.458 77.1230 l
199.489 77.1230 l
199.541 77.8730 199.765 78.4408 200.161 78.8262  c
200.567 79.2116 201.125 79.4043 201.833 79.4043  c
202.250 79.4043 202.651 79.3574 203.036 79.2637  c
203.432 79.1595 203.823 79.0033 204.208 78.7949  c
204.208 79.8262 l
203.812 79.9824 203.411 80.1022 203.005 80.1855  c
202.599 80.2793 202.187 80.3262 201.771 80.3262  c
200.729 80.3262 199.901 80.0241 199.286 79.4199  c
198.672 78.8053 198.364 77.9772 198.364 76.9355  c
198.364 75.8626 198.656 75.0137 199.239 74.3887  c
199.823 73.7533 200.604 73.4355 201.583 73.4355  c
202.468 73.4355 203.166 73.7220 203.677 74.2949  c
204.198 74.8574 204.458 75.6283 204.458 76.6074  c
h
203.380 76.2793 m
203.369 75.6960 203.203 75.2272 202.880 74.8730  c
202.557 74.5189 202.130 74.3418 201.599 74.3418  c
200.994 74.3418 200.510 74.5137 200.146 74.8574  c
199.791 75.2012 199.588 75.6803 199.536 76.2949  c
203.380 76.2793 l
h
206.185 71.0293 m
207.263 71.0293 l
207.263 76.4199 l
210.481 73.5918 l
211.856 73.5918 l
208.372 76.6543 l
212.013 80.1543 l
210.606 80.1543 l
207.263 76.9512 l
207.263 80.1543 l
206.185 80.1543 l
206.185 71.0293 l
h
f
2 J
10.0000 M
0 J
1.45000 M
newpath
278.203 67.7520 m
277.328 69.2415 276.677 70.7207 276.250 72.1895  c
275.833 73.6582 275.625 75.1426 275.625 76.6426  c
275.625 78.1426 275.839 79.6322 276.266 81.1113  c
276.693 82.5905 277.339 84.0749 278.203 85.5645  c
276.641 85.5645 l
275.661 84.0332 274.927 82.5280 274.438 81.0488  c
273.958 79.5697 273.719 78.1009 273.719 76.6426  c
273.719 75.1947 273.958 73.7363 274.438 72.2676  c
274.927 70.7884 275.661 69.2832 276.641 67.7520  c
278.203 67.7520 l
h
281.943 80.4395 m
284.006 80.4395 l
284.006 82.9238 l
281.943 82.9238 l
281.943 80.4395 l
h
288.301 80.4395 m
290.363 80.4395 l
290.363 82.9238 l
288.301 82.9238 l
288.301 80.4395 l
h
294.658 80.4395 m
296.721 80.4395 l
296.721 82.9238 l
294.658 82.9238 l
294.658 80.4395 l
h
300.484 67.7520 m
302.047 67.7520 l
303.016 69.2832 303.740 70.7884 304.219 72.2676  c
304.708 73.7363 304.953 75.1947 304.953 76.6426  c
304.953 78.1009 304.708 79.5697 304.219 81.0488  c
303.740 82.5280 303.016 84.0332 302.047 85.5645  c
300.484 85.5645 l
301.349 84.0749 301.995 82.5905 302.422 81.1113  c
302.849 79.6322 303.063 78.1426 303.063 76.6426  c
303.063 75.1426 302.849 73.6582 302.422 72.1895  c
301.995 70.7207 301.349 69.2415 300.484 67.7520  c
h
f
2 J
10.0000 M
1.00000 1.00000 1.00000 RG
newpath
20.0000 122.000 m
105.000 122.000 l
105.000 152.000 l
20.0000 152.000 l
20.0000 122.000 l
h
f
0 J
1.45000 M
0.00000 0.00000 0.00000 RG
newpath
20.0000 122.000 m
105.000 122.000 l
105.000 152.000 l
20.0000 152.000 l
20.0000 122.000 l
h
S
2 J
10.0000 M
0 J
1.45000 M
newpath
33.3984 134.592 m
34.4766 134.592 l
35.8359 139.717 l
37.1641 134.592 l
38.4453 134.592 l
39.7891 139.717 l
41.1328 134.592 l
42.2109 134.592 l
40.4922 141.154 l
39.2266 141.154 l
37.8047 135.779 l
36.3984 141.154 l
35.1172 141.154 l
33.3984 134.592 l
h
47.6504 135.592 m
47.5254 135.529 47.3900 135.482 47.2441 135.451  c
47.1087 135.410 46.9525 135.389 46.7754 135.389  c
46.1712 135.389 45.7025 135.587 45.3691 135.982  c
45.0462 136.378 44.8848 136.951 44.8848 137.701  c
44.8848 141.154 l
43.8066 141.154 l
43.8066 134.592 l
44.8848 134.592 l
44.8848 135.607 l
45.1139 135.212 45.4108 134.920 45.7754 134.732  c
46.1400 134.535 46.5827 134.436 47.1035 134.436  c
47.1764 134.436 47.2546 134.441 47.3379 134.451  c
47.4316 134.462 47.5306 134.477 47.6348 134.498  c
47.6504 135.592 l
h
54.3965 137.607 m
54.3965 138.123 l
49.4277 138.123 l
49.4798 138.873 49.7038 139.441 50.0996 139.826  c
50.5059 140.212 51.0632 140.404 51.7715 140.404  c
52.1882 140.404 52.5892 140.357 52.9746 140.264  c
53.3704 140.160 53.7611 140.003 54.1465 139.795  c
54.1465 140.826 l
53.7507 140.982 53.3496 141.102 52.9434 141.186  c
52.5371 141.279 52.1257 141.326 51.7090 141.326  c
50.6673 141.326 49.8392 141.024 49.2246 140.420  c
48.6100 139.805 48.3027 138.977 48.3027 137.936  c
48.3027 136.863 48.5944 136.014 49.1777 135.389  c
49.7611 134.753 50.5423 134.436 51.5215 134.436  c
52.4069 134.436 53.1048 134.722 53.6152 135.295  c
54.1361 135.857 54.3965 136.628 54.3965 137.607  c
h
53.3184 137.279 m
53.3079 136.696 53.1413 136.227 52.8184 135.873  c
52.4954 135.519 52.0684 135.342 51.5371 135.342  c
50.9329 135.342 50.4486 135.514 50.0840 135.857  c
49.7298 136.201 49.5267 136.680 49.4746 137.295  c
53.3184 137.279 l
h
56.1230 132.029 m
57.2012 132.029 l
57.2012 137.420 l
60.4199 134.592 l
61.7949 134.592 l
58.3105 137.654 l
61.9512 141.154 l
60.5449 141.154 l
57.2012 137.951 l
57.2012 141.154 l
56.1230 141.154 l
56.1230 132.029 l
h
68.1035 143.154 m
68.1035 143.982 l
61.8535 143.982 l
61.8535 143.154 l
68.1035 143.154 l
h
68.3379 134.592 m
69.4785 134.592 l
71.5254 140.092 l
73.5879 134.592 l
74.7285 134.592 l
72.2598 141.154 l
70.7910 141.154 l
68.3379 134.592 l
h
81.8301 137.607 m
81.8301 138.123 l
76.8613 138.123 l
76.9134 138.873 77.1374 139.441 77.5332 139.826  c
77.9395 140.212 78.4967 140.404 79.2051 140.404  c
79.6217 140.404 80.0228 140.357 80.4082 140.264  c
80.8040 140.160 81.1947 140.003 81.5801 139.795  c
81.5801 140.826 l
81.1842 140.982 80.7832 141.102 80.3770 141.186  c
79.9707 141.279 79.5592 141.326 79.1426 141.326  c
78.1009 141.326 77.2728 141.024 76.6582 140.420  c
76.0436 139.805 75.7363 138.977 75.7363 137.936  c
75.7363 136.863 76.0280 136.014 76.6113 135.389  c
77.1947 134.753 77.9759 134.436 78.9551 134.436  c
79.8405 134.436 80.5384 134.722 81.0488 135.295  c
81.5697 135.857 81.8301 136.628 81.8301 137.607  c
h
80.7520 137.279 m
80.7415 136.696 80.5749 136.227 80.2520 135.873  c
79.9290 135.519 79.5020 135.342 78.9707 135.342  c
78.3665 135.342 77.8822 135.514 77.5176 135.857  c
77.1634 136.201 76.9603 136.680 76.9082 137.295  c
80.7520 137.279 l
h
87.4004 135.592 m
87.2754 135.529 87.1400 135.482 86.9941 135.451  c
86.8587 135.410 86.7025 135.389 86.5254 135.389  c
85.9212 135.389 85.4525 135.587 85.1191 135.982  c
84.7962 136.378 84.6348 136.951 84.6348 137.701  c
84.6348 141.154 l
83.5566 141.154 l
83.5566 134.592 l
84.6348 134.592 l
84.6348 135.607 l
84.8639 135.212 85.1608 134.920 85.5254 134.732  c
85.8900 134.535 86.3327 134.436 86.8535 134.436  c
86.9264 134.436 87.0046 134.441 87.0879 134.451  c
87.1816 134.462 87.2806 134.477 87.3848 134.498  c
87.4004 135.592 l
h
89.5996 132.732 m
89.5996 134.592 l
91.8184 134.592 l
91.8184 135.436 l
89.5996 135.436 l
89.5996 138.998 l
89.5996 139.529 89.6725 139.873 89.8184 140.029  c
89.9642 140.175 90.2611 140.248 90.7090 140.248  c
91.8184 140.248 l
91.8184 141.154 l
90.7090 141.154 l
89.8757 141.154 89.2975 140.998 88.9746 140.686  c
88.6621 140.373 88.5059 139.811 88.5059 138.998  c
88.5059 135.436 l
87.7246 135.436 l
87.7246 134.592 l
88.5059 134.592 l
88.5059 132.732 l
89.5996 132.732 l
h
f
2 J
10.0000 M
0 J
1.45000 M
newpath
278.203 128.752 m
277.328 130.242 276.677 131.721 276.250 133.189  c
275.833 134.658 275.625 136.143 275.625 137.643  c
275.625 139.143 275.839 140.632 276.266 142.111  c
276.693 143.590 277.339 145.075 278.203 146.564  c
276.641 146.564 l
275.661 145.033 274.927 143.528 274.438 142.049  c
273.958 140.570 273.719 139.101 273.719 137.643  c
273.719 136.195 273.958 134.736 274.438 133.268  c
274.927 131.788 275.661 130.283 276.641 128.752  c
278.203 128.752 l
h
281.943 141.439 m
284.006 141.439 l
284.006 143.924 l
281.943 143.924 l
281.943 141.439 l
h
288.301 141.439 m
290.363 141.439 l
290.363 143.924 l
288.301 143.924 l
288.301 141.439 l
h
294.658 141.439 m
296.721 141.439 l
296.721 143.924 l
294.658 143.924 l
294.658 141.439 l
h
300.484 128.752 m
302.047 128.752 l
303.016 130.283 303.740 131.788 304.219 133.268  c
304.708 134.736 304.953 136.195 304.953 137.643  c
304.953 139.101 304.708 140.570 304.219 142.049  c
303.740 143.528 303.016 145.033 302.047 146.564  c
300.484 146.564 l
301.349 145.075 301.995 143.590 302.422 142.111  c
302.849 140.632 303.063 139.143 303.063 137.643  c
303.063 136.143 302.849 134.658 302.422 133.189  c
301.995 131.721 301.349 130.242 300.484 128.752  c
h
f
2 J
10.0000 M
1.00000 1.00000 1.00000 RG
newpath
20.0000 172.000 m
105.000 172.000 l
105.000 202.000 l
20.0000 202.000 l
20.0000 172.000 l
h
f
0 J
1.45000 M
0.00000 0.00000 0.00000 RG
newpath
20.0000 172.000 m
105.000 172.000 l
105.000 202.000 l
20.0000 202.000 l
20.0000 172.000 l
h
S
2 J
10.0000 M
0 J
1.45000 M
newpath
27.3828 191.764 m
27.0807 192.545 26.7839 193.055 26.4922 193.295  c
26.2005 193.535 25.8151 193.654 25.3359 193.654  c
24.4766 193.654 l
24.4766 192.748 l
25.1016 192.748 l
25.4036 192.748 25.6328 192.675 25.7891 192.529  c
25.9557 192.394 26.1380 192.066 26.3359 191.545  c
26.5391 191.045 l
23.8828 184.592 l
25.0234 184.592 l
27.0703 189.717 l
29.1328 184.592 l
30.2734 184.592 l
27.3828 191.764 l
h
34.2969 185.342 m
33.7240 185.342 33.2656 185.571 32.9219 186.029  c
32.5885 186.477 32.4219 187.092 32.4219 187.873  c
32.4219 188.665 32.5885 189.285 32.9219 189.732  c
33.2552 190.180 33.7135 190.404 34.2969 190.404  c
34.8698 190.404 35.3229 190.180 35.6562 189.732  c
36.0000 189.274 36.1719 188.654 36.1719 187.873  c
36.1719 187.102 36.0000 186.488 35.6562 186.029  c
35.3229 185.571 34.8698 185.342 34.2969 185.342  c
h
34.2969 184.436 m
35.2344 184.436 35.9688 184.743 36.5000 185.357  c
37.0417 185.962 37.3125 186.800 37.3125 187.873  c
37.3125 188.946 37.0417 189.790 36.5000 190.404  c
35.9688 191.019 35.2344 191.326 34.2969 191.326  c
33.3594 191.326 32.6198 191.019 32.0781 190.404  c
31.5469 189.790 31.2812 188.946 31.2812 187.873  c
31.2812 186.800 31.5469 185.962 32.0781 185.357  c
32.6198 184.743 33.3594 184.436 34.2969 184.436  c
h
38.9824 188.561 m
38.9824 184.592 l
40.0605 184.592 l
40.0605 188.529 l
40.0605 189.144 40.1803 189.607 40.4199 189.920  c
40.6699 190.232 41.0345 190.389 41.5137 190.389  c
42.0970 190.389 42.5553 190.206 42.8887 189.842  c
43.2324 189.467 43.4043 188.956 43.4043 188.311  c
43.4043 184.592 l
44.4824 184.592 l
44.4824 191.154 l
43.4043 191.154 l
43.4043 190.139 l
43.1439 190.545 42.8418 190.847 42.4980 191.045  c
42.1543 191.232 41.7533 191.326 41.2949 191.326  c
40.5345 191.326 39.9564 191.092 39.5605 190.623  c
39.1751 190.154 38.9824 189.467 38.9824 188.561  c
h
41.7012 184.436 m
41.7012 184.436 l
h
50.5098 185.592 m
50.3848 185.529 50.2493 185.482 50.1035 185.451  c
49.9681 185.410 49.8118 185.389 49.6348 185.389  c
49.0306 185.389 48.5618 185.587 48.2285 185.982  c
47.9056 186.378 47.7441 186.951 47.7441 187.701  c
47.7441 191.154 l
46.6660 191.154 l
46.6660 184.592 l
47.7441 184.592 l
47.7441 185.607 l
47.9733 185.212 48.2702 184.920 48.6348 184.732  c
48.9993 184.535 49.4421 184.436 49.9629 184.436  c
50.0358 184.436 50.1139 184.441 50.1973 184.451  c
50.2910 184.462 50.3900 184.477 50.4941 184.498  c
50.5098 185.592 l
h
56.6309 193.154 m
56.6309 193.982 l
50.3809 193.982 l
50.3809 193.154 l
56.6309 193.154 l
h
62.7402 185.857 m
63.0111 185.368 63.3340 185.008 63.7090 184.779  c
64.0840 184.550 64.5267 184.436 65.0371 184.436  c
65.7246 184.436 66.2507 184.675 66.6152 185.154  c
66.9902 185.633 67.1777 186.311 67.1777 187.186  c
67.1777 191.154 l
66.0996 191.154 l
66.0996 187.232 l
66.0996 186.597 65.9850 186.128 65.7559 185.826  c
65.5371 185.524 65.1986 185.373 64.7402 185.373  c
64.1777 185.373 63.7350 185.561 63.4121 185.936  c
63.0892 186.300 62.9277 186.805 62.9277 187.451  c
62.9277 191.154 l
61.8496 191.154 l
61.8496 187.232 l
61.8496 186.597 61.7350 186.128 61.5059 185.826  c
61.2871 185.524 60.9434 185.373 60.4746 185.373  c
59.9225 185.373 59.4850 185.561 59.1621 185.936  c
58.8392 186.300 58.6777 186.805 58.6777 187.451  c
58.6777 191.154 l
57.5996 191.154 l
57.5996 184.592 l
58.6777 184.592 l
58.6777 185.607 l
58.9277 185.212 59.2246 184.920 59.5684 184.732  c
59.9121 184.535 60.3184 184.436 60.7871 184.436  c
61.2663 184.436 61.6725 184.555 62.0059 184.795  c
62.3392 185.035 62.5840 185.389 62.7402 185.857  c
h
71.8672 185.342 m
71.2943 185.342 70.8359 185.571 70.4922 186.029  c
70.1589 186.477 69.9922 187.092 69.9922 187.873  c
69.9922 188.665 70.1589 189.285 70.4922 189.732  c
70.8255 190.180 71.2839 190.404 71.8672 190.404  c
72.4401 190.404 72.8932 190.180 73.2266 189.732  c
73.5703 189.274 73.7422 188.654 73.7422 187.873  c
73.7422 187.102 73.5703 186.488 73.2266 186.029  c
72.8932 185.571 72.4401 185.342 71.8672 185.342  c
h
71.8672 184.436 m
72.8047 184.436 73.5391 184.743 74.0703 185.357  c
74.6120 185.962 74.8828 186.800 74.8828 187.873  c
74.8828 188.946 74.6120 189.790 74.0703 190.404  c
73.5391 191.019 72.8047 191.326 71.8672 191.326  c
70.9297 191.326 70.1901 191.019 69.6484 190.404  c
69.1172 189.790 68.8516 188.946 68.8516 187.873  c
68.8516 186.800 69.1172 185.962 69.6484 185.357  c
70.1901 184.743 70.9297 184.436 71.8672 184.436  c
h
80.9902 185.592 m
80.9902 182.029 l
82.0684 182.029 l
82.0684 191.154 l
80.9902 191.154 l
80.9902 190.170 l
80.7611 190.555 80.4746 190.847 80.1309 191.045  c
79.7871 191.232 79.3704 191.326 78.8809 191.326  c
78.0892 191.326 77.4434 191.008 76.9434 190.373  c
76.4434 189.738 76.1934 188.904 76.1934 187.873  c
76.1934 186.842 76.4434 186.014 76.9434 185.389  c
77.4434 184.753 78.0892 184.436 78.8809 184.436  c
79.3704 184.436 79.7871 184.529 80.1309 184.717  c
80.4746 184.904 80.7611 185.196 80.9902 185.592  c
h
77.3184 187.873 m
77.3184 188.665 77.4798 189.290 77.8027 189.748  c
78.1257 190.196 78.5736 190.420 79.1465 190.420  c
79.7194 190.420 80.1673 190.196 80.4902 189.748  c
80.8236 189.290 80.9902 188.665 80.9902 187.873  c
80.9902 187.081 80.8236 186.462 80.4902 186.014  c
80.1673 185.566 79.7194 185.342 79.1465 185.342  c
78.5736 185.342 78.1257 185.566 77.8027 186.014  c
77.4798 186.462 77.3184 187.081 77.3184 187.873  c
h
84.1699 188.561 m
84.1699 184.592 l
85.2480 184.592 l
85.2480 188.529 l
85.2480 189.144 85.3678 189.607 85.6074 189.920  c
85.8574 190.232 86.2220 190.389 86.7012 190.389  c
87.2845 190.389 87.7428 190.206 88.0762 189.842  c
88.4199 189.467 88.5918 188.956 88.5918 188.311  c
88.5918 184.592 l
89.6699 184.592 l
89.6699 191.154 l
88.5918 191.154 l
88.5918 190.139 l
88.3314 190.545 88.0293 190.847 87.6855 191.045  c
87.3418 191.232 86.9408 191.326 86.4824 191.326  c
85.7220 191.326 85.1439 191.092 84.7480 190.623  c
84.3626 190.154 84.1699 189.467 84.1699 188.561  c
h
86.8887 184.436 m
86.8887 184.436 l
h
91.8848 182.029 m
92.9629 182.029 l
92.9629 191.154 l
91.8848 191.154 l
91.8848 182.029 l
h
100.844 187.607 m
100.844 188.123 l
95.8750 188.123 l
95.9271 188.873 96.1510 189.441 96.5469 189.826  c
96.9531 190.212 97.5104 190.404 98.2188 190.404  c
98.6354 190.404 99.0365 190.357 99.4219 190.264  c
99.8177 190.160 100.208 190.003 100.594 189.795  c
100.594 190.826 l
100.198 190.982 99.7969 191.102 99.3906 191.186  c
98.9844 191.279 98.5729 191.326 98.1562 191.326  c
97.1146 191.326 96.2865 191.024 95.6719 190.420  c
95.0573 189.805 94.7500 188.977 94.7500 187.936  c
94.7500 186.863 95.0417 186.014 95.6250 185.389  c
96.2083 184.753 96.9896 184.436 97.9688 184.436  c
98.8542 184.436 99.5521 184.722 100.062 185.295  c
100.583 185.857 100.844 186.628 100.844 187.607  c
h
99.7656 187.279 m
99.7552 186.696 99.5885 186.227 99.2656 185.873  c
98.9427 185.519 98.5156 185.342 97.9844 185.342  c
97.3802 185.342 96.8958 185.514 96.5312 185.857  c
96.1771 186.201 95.9740 186.680 95.9219 187.295  c
99.7656 187.279 l
h
f
2 J
10.0000 M
1.00000 1.00000 1.00000 RG
newpath
155.000 122.000 m
240.000 122.000 l
240.000 152.000 l
155.000 152.000 l
155.000 122.000 l
h
f
0 J
1.45000 M
0.00000 0.00000 0.00000 RG
newpath
155.000 122.000 m
240.000 122.000 l
240.000 152.000 l
155.000 152.000 l
155.000 122.000 l
h
S
2 J
10.0000 M
0 J
1.45000 M
newpath
168.398 134.592 m
169.477 134.592 l
170.836 139.717 l
172.164 134.592 l
173.445 134.592 l
174.789 139.717 l
176.133 134.592 l
177.211 134.592 l
175.492 141.154 l
174.227 141.154 l
172.805 135.779 l
171.398 141.154 l
170.117 141.154 l
168.398 134.592 l
h
182.650 135.592 m
182.525 135.529 182.390 135.482 182.244 135.451  c
182.109 135.410 181.952 135.389 181.775 135.389  c
181.171 135.389 180.702 135.587 180.369 135.982  c
180.046 136.378 179.885 136.951 179.885 137.701  c
179.885 141.154 l
178.807 141.154 l
178.807 134.592 l
179.885 134.592 l
179.885 135.607 l
180.114 135.212 180.411 134.920 180.775 134.732  c
181.140 134.535 181.583 134.436 182.104 134.436  c
182.176 134.436 182.255 134.441 182.338 134.451  c
182.432 134.462 182.531 134.477 182.635 134.498  c
182.650 135.592 l
h
189.396 137.607 m
189.396 138.123 l
184.428 138.123 l
184.480 138.873 184.704 139.441 185.100 139.826  c
185.506 140.212 186.063 140.404 186.771 140.404  c
187.188 140.404 187.589 140.357 187.975 140.264  c
188.370 140.160 188.761 140.003 189.146 139.795  c
189.146 140.826 l
188.751 140.982 188.350 141.102 187.943 141.186  c
187.537 141.279 187.126 141.326 186.709 141.326  c
185.667 141.326 184.839 141.024 184.225 140.420  c
183.610 139.805 183.303 138.977 183.303 137.936  c
183.303 136.863 183.594 136.014 184.178 135.389  c
184.761 134.753 185.542 134.436 186.521 134.436  c
187.407 134.436 188.105 134.722 188.615 135.295  c
189.136 135.857 189.396 136.628 189.396 137.607  c
h
188.318 137.279 m
188.308 136.696 188.141 136.227 187.818 135.873  c
187.495 135.519 187.068 135.342 186.537 135.342  c
185.933 135.342 185.449 135.514 185.084 135.857  c
184.730 136.201 184.527 136.680 184.475 137.295  c
188.318 137.279 l
h
191.123 132.029 m
192.201 132.029 l
192.201 137.420 l
195.420 134.592 l
196.795 134.592 l
193.311 137.654 l
196.951 141.154 l
195.545 141.154 l
192.201 137.951 l
192.201 141.154 l
191.123 141.154 l
191.123 132.029 l
h
203.104 143.154 m
203.104 143.982 l
196.854 143.982 l
196.854 143.154 l
203.104 143.154 l
h
203.338 134.592 m
204.479 134.592 l
206.525 140.092 l
208.588 134.592 l
209.729 134.592 l
207.260 141.154 l
205.791 141.154 l
203.338 134.592 l
h
216.830 137.607 m
216.830 138.123 l
211.861 138.123 l
211.913 138.873 212.137 139.441 212.533 139.826  c
212.939 140.212 213.497 140.404 214.205 140.404  c
214.622 140.404 215.023 140.357 215.408 140.264  c
215.804 140.160 216.195 140.003 216.580 139.795  c
216.580 140.826 l
216.184 140.982 215.783 141.102 215.377 141.186  c
214.971 141.279 214.559 141.326 214.143 141.326  c
213.101 141.326 212.273 141.024 211.658 140.420  c
211.044 139.805 210.736 138.977 210.736 137.936  c
210.736 136.863 211.028 136.014 211.611 135.389  c
212.195 134.753 212.976 134.436 213.955 134.436  c
214.840 134.436 215.538 134.722 216.049 135.295  c
216.570 135.857 216.830 136.628 216.830 137.607  c
h
215.752 137.279 m
215.742 136.696 215.575 136.227 215.252 135.873  c
214.929 135.519 214.502 135.342 213.971 135.342  c
213.367 135.342 212.882 135.514 212.518 135.857  c
212.163 136.201 211.960 136.680 211.908 137.295  c
215.752 137.279 l
h
222.400 135.592 m
222.275 135.529 222.140 135.482 221.994 135.451  c
221.859 135.410 221.702 135.389 221.525 135.389  c
220.921 135.389 220.452 135.587 220.119 135.982  c
219.796 136.378 219.635 136.951 219.635 137.701  c
219.635 141.154 l
218.557 141.154 l
218.557 134.592 l
219.635 134.592 l
219.635 135.607 l
219.864 135.212 220.161 134.920 220.525 134.732  c
220.890 134.535 221.333 134.436 221.854 134.436  c
221.926 134.436 222.005 134.441 222.088 134.451  c
222.182 134.462 222.281 134.477 222.385 134.498  c
222.400 135.592 l
h
224.600 132.732 m
224.600 134.592 l
226.818 134.592 l
226.818 135.436 l
224.600 135.436 l
224.600 138.998 l
224.600 139.529 224.673 139.873 224.818 140.029  c
224.964 140.175 225.261 140.248 225.709 140.248  c
226.818 140.248 l
226.818 141.154 l
225.709 141.154 l
224.876 141.154 224.298 140.998 223.975 140.686  c
223.662 140.373 223.506 139.811 223.506 138.998  c
223.506 135.436 l
222.725 135.436 l
222.725 134.592 l
223.506 134.592 l
223.506 132.732 l
224.600 132.732 l
h
f
2 J
10.0000 M
1.00000 1.00000 1.00000 RG
newpath
135.000 172.000 m
260.000 172.000 l
260.000 202.000 l
135.000 202.000 l
135.000 172.000 l
h
f
0 J
1.45000 M
0.00000 0.00000 0.00000 RG
newpath
135.000 172.000 m
260.000 172.000 l
260.000 202.000 l
135.000 202.000 l
135.000 172.000 l
h
S
2 J
10.0000 M
0 J
1.45000 M
newpath
143.398 191.764 m
143.096 192.545 142.799 193.055 142.508 193.295  c
142.216 193.535 141.831 193.654 141.352 193.654  c
140.492 193.654 l
140.492 192.748 l
141.117 192.748 l
141.419 192.748 141.648 192.675 141.805 192.529  c
141.971 192.394 142.154 192.066 142.352 191.545  c
142.555 191.045 l
139.898 184.592 l
141.039 184.592 l
143.086 189.717 l
145.148 184.592 l
146.289 184.592 l
143.398 191.764 l
h
150.312 185.342 m
149.740 185.342 149.281 185.571 148.938 186.029  c
148.604 186.477 148.438 187.092 148.438 187.873  c
148.438 188.665 148.604 189.285 148.938 189.732  c
149.271 190.180 149.729 190.404 150.312 190.404  c
150.885 190.404 151.339 190.180 151.672 189.732  c
152.016 189.274 152.188 188.654 152.188 187.873  c
152.188 187.102 152.016 186.488 151.672 186.029  c
151.339 185.571 150.885 185.342 150.312 185.342  c
h
150.312 184.436 m
151.250 184.436 151.984 184.743 152.516 185.357  c
153.057 185.962 153.328 186.800 153.328 187.873  c
153.328 188.946 153.057 189.790 152.516 190.404  c
151.984 191.019 151.250 191.326 150.312 191.326  c
149.375 191.326 148.635 191.019 148.094 190.404  c
147.562 189.790 147.297 188.946 147.297 187.873  c
147.297 186.800 147.562 185.962 148.094 185.357  c
148.635 184.743 149.375 184.436 150.312 184.436  c
h
154.998 188.561 m
154.998 184.592 l
156.076 184.592 l
156.076 188.529 l
156.076 189.144 156.196 189.607 156.436 189.920  c
156.686 190.232 157.050 190.389 157.529 190.389  c
158.113 190.389 158.571 190.206 158.904 189.842  c
159.248 189.467 159.420 188.956 159.420 188.311  c
159.420 184.592 l
160.498 184.592 l
160.498 191.154 l
159.420 191.154 l
159.420 190.139 l
159.160 190.545 158.857 190.847 158.514 191.045  c
158.170 191.232 157.769 191.326 157.311 191.326  c
156.550 191.326 155.972 191.092 155.576 190.623  c
155.191 190.154 154.998 189.467 154.998 188.561  c
h
157.717 184.436 m
157.717 184.436 l
h
166.525 185.592 m
166.400 185.529 166.265 185.482 166.119 185.451  c
165.984 185.410 165.827 185.389 165.650 185.389  c
165.046 185.389 164.577 185.587 164.244 185.982  c
163.921 186.378 163.760 186.951 163.760 187.701  c
163.760 191.154 l
162.682 191.154 l
162.682 184.592 l
163.760 184.592 l
163.760 185.607 l
163.989 185.212 164.286 184.920 164.650 184.732  c
165.015 184.535 165.458 184.436 165.979 184.436  c
166.051 184.436 166.130 184.441 166.213 184.451  c
166.307 184.462 166.406 184.477 166.510 184.498  c
166.525 185.592 l
h
172.646 193.154 m
172.646 193.982 l
166.396 193.982 l
166.396 193.154 l
172.646 193.154 l
h
176.193 185.342 m
175.620 185.342 175.162 185.571 174.818 186.029  c
174.485 186.477 174.318 187.092 174.318 187.873  c
174.318 188.665 174.485 189.285 174.818 189.732  c
175.152 190.180 175.610 190.404 176.193 190.404  c
176.766 190.404 177.219 190.180 177.553 189.732  c
177.896 189.274 178.068 188.654 178.068 187.873  c
178.068 187.102 177.896 186.488 177.553 186.029  c
177.219 185.571 176.766 185.342 176.193 185.342  c
h
176.193 184.436 m
177.131 184.436 177.865 184.743 178.396 185.357  c
178.938 185.962 179.209 186.800 179.209 187.873  c
179.209 188.946 178.938 189.790 178.396 190.404  c
177.865 191.019 177.131 191.326 176.193 191.326  c
175.256 191.326 174.516 191.019 173.975 190.404  c
173.443 189.790 173.178 188.946 173.178 187.873  c
173.178 186.800 173.443 185.962 173.975 185.357  c
174.516 184.743 175.256 184.436 176.193 184.436  c
h
182.066 182.732 m
182.066 184.592 l
184.285 184.592 l
184.285 185.436 l
182.066 185.436 l
182.066 188.998 l
182.066 189.529 182.139 189.873 182.285 190.029  c
182.431 190.175 182.728 190.248 183.176 190.248  c
184.285 190.248 l
184.285 191.154 l
183.176 191.154 l
182.342 191.154 181.764 190.998 181.441 190.686  c
181.129 190.373 180.973 189.811 180.973 188.998  c
180.973 185.436 l
180.191 185.436 l
180.191 184.592 l
180.973 184.592 l
180.973 182.732 l
182.066 182.732 l
h
191.162 187.186 m
191.162 191.154 l
190.084 191.154 l
190.084 187.232 l
190.084 186.607 189.959 186.144 189.709 185.842  c
189.469 185.529 189.110 185.373 188.631 185.373  c
188.048 185.373 187.584 185.561 187.240 185.936  c
186.907 186.300 186.740 186.805 186.740 187.451  c
186.740 191.154 l
185.662 191.154 l
185.662 182.029 l
186.740 182.029 l
186.740 185.607 l
187.001 185.212 187.303 184.920 187.646 184.732  c
188.001 184.535 188.407 184.436 188.865 184.436  c
189.615 184.436 190.183 184.670 190.568 185.139  c
190.964 185.597 191.162 186.279 191.162 187.186  c
h
198.924 187.607 m
198.924 188.123 l
193.955 188.123 l
194.007 188.873 194.231 189.441 194.627 189.826  c
195.033 190.212 195.590 190.404 196.299 190.404  c
196.715 190.404 197.117 190.357 197.502 190.264  c
197.898 190.160 198.288 190.003 198.674 189.795  c
198.674 190.826 l
198.278 190.982 197.877 191.102 197.471 191.186  c
197.064 191.279 196.653 191.326 196.236 191.326  c
195.195 191.326 194.367 191.024 193.752 190.420  c
193.137 189.805 192.830 188.977 192.830 187.936  c
192.830 186.863 193.122 186.014 193.705 185.389  c
194.288 184.753 195.070 184.436 196.049 184.436  c
196.934 184.436 197.632 184.722 198.143 185.295  c
198.663 185.857 198.924 186.628 198.924 187.607  c
h
197.846 187.279 m
197.835 186.696 197.669 186.227 197.346 185.873  c
197.023 185.519 196.596 185.342 196.064 185.342  c
195.460 185.342 194.976 185.514 194.611 185.857  c
194.257 186.201 194.054 186.680 194.002 187.295  c
197.846 187.279 l
h
204.494 185.592 m
204.369 185.529 204.234 185.482 204.088 185.451  c
203.952 185.410 203.796 185.389 203.619 185.389  c
203.015 185.389 202.546 185.587 202.213 185.982  c
201.890 186.378 201.729 186.951 201.729 187.701  c
201.729 191.154 l
200.650 191.154 l
200.650 184.592 l
201.729 184.592 l
201.729 185.607 l
201.958 185.212 202.255 184.920 202.619 184.732  c
202.984 184.535 203.426 184.436 203.947 184.436  c
204.020 184.436 204.098 184.441 204.182 184.451  c
204.275 184.462 204.374 184.477 204.479 184.498  c
204.494 185.592 l
h
210.615 193.154 m
210.615 193.982 l
204.365 193.982 l
204.365 193.154 l
210.615 193.154 l
h
216.725 185.857 m
216.995 185.368 217.318 185.008 217.693 184.779  c
218.068 184.550 218.511 184.436 219.021 184.436  c
219.709 184.436 220.235 184.675 220.600 185.154  c
220.975 185.633 221.162 186.311 221.162 187.186  c
221.162 191.154 l
220.084 191.154 l
220.084 187.232 l
220.084 186.597 219.969 186.128 219.740 185.826  c
219.521 185.524 219.183 185.373 218.725 185.373  c
218.162 185.373 217.719 185.561 217.396 185.936  c
217.074 186.300 216.912 186.805 216.912 187.451  c
216.912 191.154 l
215.834 191.154 l
215.834 187.232 l
215.834 186.597 215.719 186.128 215.490 185.826  c
215.271 185.524 214.928 185.373 214.459 185.373  c
213.907 185.373 213.469 185.561 213.146 185.936  c
212.824 186.300 212.662 186.805 212.662 187.451  c
212.662 191.154 l
211.584 191.154 l
211.584 184.592 l
212.662 184.592 l
212.662 185.607 l
212.912 185.212 213.209 184.920 213.553 184.732  c
213.896 184.535 214.303 184.436 214.771 184.436  c
215.251 184.436 215.657 184.555 215.990 184.795  c
216.324 185.035 216.568 185.389 216.725 185.857  c
h
225.852 185.342 m
225.279 185.342 224.820 185.571 224.477 186.029  c
224.143 186.477 223.977 187.092 223.977 187.873  c
223.977 188.665 224.143 189.285 224.477 189.732  c
224.810 190.180 225.268 190.404 225.852 190.404  c
226.424 190.404 226.878 190.180 227.211 189.732  c
227.555 189.274 227.727 188.654 227.727 187.873  c
227.727 187.102 227.555 186.488 227.211 186.029  c
226.878 185.571 226.424 185.342 225.852 185.342  c
h
225.852 184.436 m
226.789 184.436 227.523 184.743 228.055 185.357  c
228.596 185.962 228.867 186.800 228.867 187.873  c
228.867 188.946 228.596 189.790 228.055 190.404  c
227.523 191.019 226.789 191.326 225.852 191.326  c
224.914 191.326 224.174 191.019 223.633 190.404  c
223.102 189.790 222.836 188.946 222.836 187.873  c
222.836 186.800 223.102 185.962 223.633 185.357  c
224.174 184.743 224.914 184.436 225.852 184.436  c
h
234.975 185.592 m
234.975 182.029 l
236.053 182.029 l
236.053 191.154 l
234.975 191.154 l
234.975 190.170 l
234.745 190.555 234.459 190.847 234.115 191.045  c
233.771 191.232 233.355 191.326 232.865 191.326  c
232.074 191.326 231.428 191.008 230.928 190.373  c
230.428 189.738 230.178 188.904 230.178 187.873  c
230.178 186.842 230.428 186.014 230.928 185.389  c
231.428 184.753 232.074 184.436 232.865 184.436  c
233.355 184.436 233.771 184.529 234.115 184.717  c
234.459 184.904 234.745 185.196 234.975 185.592  c
h
231.303 187.873 m
231.303 188.665 231.464 189.290 231.787 189.748  c
232.110 190.196 232.558 190.420 233.131 190.420  c
233.704 190.420 234.152 190.196 234.475 189.748  c
234.808 189.290 234.975 188.665 234.975 187.873  c
234.975 187.081 234.808 186.462 234.475 186.014  c
234.152 185.566 233.704 185.342 233.131 185.342  c
232.558 185.342 232.110 185.566 231.787 186.014  c
231.464 186.462 231.303 187.081 231.303 187.873  c
h
238.154 188.561 m
238.154 184.592 l
239.232 184.592 l
239.232 188.529 l
239.232 189.144 239.352 189.607 239.592 189.920  c
239.842 190.232 240.206 190.389 240.686 190.389  c
241.269 190.389 241.727 190.206 242.061 189.842  c
242.404 189.467 242.576 188.956 242.576 188.311  c
242.576 184.592 l
243.654 184.592 l
243.654 191.154 l
242.576 191.154 l
242.576 190.139 l
242.316 190.545 242.014 190.847 241.670 191.045  c
241.326 191.232 240.925 191.326 240.467 191.326  c
239.706 191.326 239.128 191.092 238.732 190.623  c
238.347 190.154 238.154 189.467 238.154 188.561  c
h
240.873 184.436 m
240.873 184.436 l
h
245.869 182.029 m
246.947 182.029 l
246.947 191.154 l
245.869 191.154 l
245.869 182.029 l
h
254.828 187.607 m
254.828 188.123 l
249.859 188.123 l
249.911 188.873 250.135 189.441 250.531 189.826  c
250.938 190.212 251.495 190.404 252.203 190.404  c
252.620 190.404 253.021 190.357 253.406 190.264  c
253.802 190.160 254.193 190.003 254.578 189.795  c
254.578 190.826 l
254.182 190.982 253.781 191.102 253.375 191.186  c
252.969 191.279 252.557 191.326 252.141 191.326  c
251.099 191.326 250.271 191.024 249.656 190.420  c
249.042 189.805 248.734 188.977 248.734 187.936  c
248.734 186.863 249.026 186.014 249.609 185.389  c
250.193 184.753 250.974 184.436 251.953 184.436  c
252.839 184.436 253.536 184.722 254.047 185.295  c
254.568 185.857 254.828 186.628 254.828 187.607  c
h
253.750 187.279 m
253.740 186.696 253.573 186.227 253.250 185.873  c
252.927 185.519 252.500 185.342 251.969 185.342  c
251.365 185.342 250.880 185.514 250.516 185.857  c
250.161 186.201 249.958 186.680 249.906 187.295  c
253.750 187.279 l
h
f
2 J
10.0000 M
1.00000 1.00000 1.00000 RG
newpath
197.794 -61.0000 m
282.794 -61.0000 l
282.794 -31.0000 l
197.794 -31.0000 l
197.794 -61.0000 l
h
f
0 J
1.45000 M
0.00000 0.00000 0.00000 RG
newpath
197.794 -61.0000 m
282.794 -61.0000 l
282.794 -31.0000 l
197.794 -31.0000 l
197.794 -61.0000 l
h
S
2 J
10.0000 M
0 J
1.45000 M
newpath
211.960 -48.4082 m
213.039 -48.4082 l
214.398 -43.2832 l
215.726 -48.4082 l
217.007 -48.4082 l
218.351 -43.2832 l
219.695 -48.4082 l
220.773 -48.4082 l
219.054 -41.8457 l
217.789 -41.8457 l
216.367 -47.2207 l
214.960 -41.8457 l
213.679 -41.8457 l
211.960 -48.4082 l
h
226.212 -47.4082 m
226.087 -47.4707 225.952 -47.5176 225.806 -47.5488  c
225.671 -47.5905 225.515 -47.6113 225.337 -47.6113  c
224.733 -47.6113 224.265 -47.4134 223.931 -47.0176  c
223.608 -46.6217 223.447 -46.0488 223.447 -45.2988  c
223.447 -41.8457 l
222.369 -41.8457 l
222.369 -48.4082 l
223.447 -48.4082 l
223.447 -47.3926 l
223.676 -47.7884 223.973 -48.0801 224.337 -48.2676  c
224.702 -48.4655 225.145 -48.5645 225.666 -48.5645  c
225.738 -48.5645 225.817 -48.5592 225.900 -48.5488  c
225.994 -48.5384 226.093 -48.5228 226.197 -48.5020  c
226.212 -47.4082 l
h
232.959 -45.3926 m
232.959 -44.8770 l
227.990 -44.8770 l
228.042 -44.1270 228.266 -43.5592 228.662 -43.1738  c
229.068 -42.7884 229.625 -42.5957 230.334 -42.5957  c
230.750 -42.5957 231.151 -42.6426 231.537 -42.7363  c
231.932 -42.8405 232.323 -42.9967 232.709 -43.2051  c
232.709 -42.1738 l
232.313 -42.0176 231.912 -41.8978 231.505 -41.8145  c
231.099 -41.7207 230.688 -41.6738 230.271 -41.6738  c
229.229 -41.6738 228.401 -41.9759 227.787 -42.5801  c
227.172 -43.1947 226.865 -44.0228 226.865 -45.0645  c
226.865 -46.1374 227.156 -46.9863 227.740 -47.6113  c
228.323 -48.2467 229.104 -48.5645 230.084 -48.5645  c
230.969 -48.5645 231.667 -48.2780 232.177 -47.7051  c
232.698 -47.1426 232.959 -46.3717 232.959 -45.3926  c
h
231.880 -45.7207 m
231.870 -46.3040 231.703 -46.7728 231.380 -47.1270  c
231.057 -47.4811 230.630 -47.6582 230.099 -47.6582  c
229.495 -47.6582 229.011 -47.4863 228.646 -47.1426  c
228.292 -46.7988 228.089 -46.3197 228.037 -45.7051  c
231.880 -45.7207 l
h
234.685 -50.9707 m
235.763 -50.9707 l
235.763 -45.5801 l
238.982 -48.4082 l
240.357 -48.4082 l
236.873 -45.3457 l
240.513 -41.8457 l
239.107 -41.8457 l
235.763 -45.0488 l
235.763 -41.8457 l
234.685 -41.8457 l
234.685 -50.9707 l
h
246.666 -39.8457 m
246.666 -39.0176 l
240.416 -39.0176 l
240.416 -39.8457 l
246.666 -39.8457 l
h
250.650 -45.1426 m
249.785 -45.1426 249.181 -45.0436 248.837 -44.8457  c
248.504 -44.6478 248.337 -44.3092 248.337 -43.8301  c
248.337 -43.4447 248.462 -43.1374 248.712 -42.9082  c
248.973 -42.6895 249.317 -42.5801 249.744 -42.5801  c
250.348 -42.5801 250.827 -42.7884 251.181 -43.2051  c
251.546 -43.6322 251.728 -44.1999 251.728 -44.9082  c
251.728 -45.1426 l
250.650 -45.1426 l
h
252.806 -45.5957 m
252.806 -41.8457 l
251.728 -41.8457 l
251.728 -42.8457 l
251.478 -42.4499 251.171 -42.1530 250.806 -41.9551  c
250.442 -41.7676 249.994 -41.6738 249.462 -41.6738  c
248.785 -41.6738 248.249 -41.8613 247.853 -42.2363  c
247.457 -42.6217 247.259 -43.1270 247.259 -43.7520  c
247.259 -44.4915 247.504 -45.0488 247.994 -45.4238  c
248.494 -45.7988 249.233 -45.9863 250.212 -45.9863  c
251.728 -45.9863 l
251.728 -46.0957 l
251.728 -46.5957 251.561 -46.9811 251.228 -47.2520  c
250.905 -47.5228 250.452 -47.6582 249.869 -47.6582  c
249.494 -47.6582 249.124 -47.6113 248.759 -47.5176  c
248.405 -47.4238 248.067 -47.2884 247.744 -47.1113  c
247.744 -48.1113 l
248.140 -48.2676 248.520 -48.3822 248.884 -48.4551  c
249.259 -48.5280 249.624 -48.5645 249.978 -48.5645  c
250.926 -48.5645 251.634 -48.3197 252.103 -47.8301  c
252.572 -47.3405 252.806 -46.5957 252.806 -45.5957  c
h
256.066 -42.8301 m
256.066 -39.3457 l
254.988 -39.3457 l
254.988 -48.4082 l
256.066 -48.4082 l
256.066 -47.4082 l
256.295 -47.8040 256.582 -48.0957 256.925 -48.2832  c
257.269 -48.4707 257.681 -48.5645 258.160 -48.5645  c
258.962 -48.5645 259.613 -48.2467 260.113 -47.6113  c
260.613 -46.9863 260.863 -46.1582 260.863 -45.1270  c
260.863 -44.0957 260.613 -43.2624 260.113 -42.6270  c
259.613 -41.9915 258.962 -41.6738 258.160 -41.6738  c
257.681 -41.6738 257.269 -41.7676 256.925 -41.9551  c
256.582 -42.1530 256.295 -42.4447 256.066 -42.8301  c
h
259.738 -45.1270 m
259.738 -45.9186 259.571 -46.5384 259.238 -46.9863  c
258.915 -47.4342 258.472 -47.6582 257.910 -47.6582  c
257.337 -47.6582 256.884 -47.4342 256.550 -46.9863  c
256.227 -46.5384 256.066 -45.9186 256.066 -45.1270  c
256.066 -44.3353 256.227 -43.7103 256.550 -43.2520  c
256.884 -42.8040 257.337 -42.5801 257.910 -42.5801  c
258.472 -42.5801 258.915 -42.8040 259.238 -43.2520  c
259.571 -43.7103 259.738 -44.3353 259.738 -45.1270  c
h
263.683 -42.8301 m
263.683 -39.3457 l
262.605 -39.3457 l
262.605 -48.4082 l
263.683 -48.4082 l
263.683 -47.4082 l
263.912 -47.8040 264.199 -48.0957 264.542 -48.2832  c
264.886 -48.4707 265.298 -48.5645 265.777 -48.5645  c
266.579 -48.5645 267.230 -48.2467 267.730 -47.6113  c
268.230 -46.9863 268.480 -46.1582 268.480 -45.1270  c
268.480 -44.0957 268.230 -43.2624 267.730 -42.6270  c
267.230 -41.9915 266.579 -41.6738 265.777 -41.6738  c
265.298 -41.6738 264.886 -41.7676 264.542 -41.9551  c
264.199 -42.1530 263.912 -42.4447 263.683 -42.8301  c
h
267.355 -45.1270 m
267.355 -45.9186 267.188 -46.5384 266.855 -46.9863  c
266.532 -47.4342 266.089 -47.6582 265.527 -47.6582  c
264.954 -47.6582 264.501 -47.4342 264.167 -46.9863  c
263.845 -46.5384 263.683 -45.9186 263.683 -45.1270  c
263.683 -44.3353 263.845 -43.7103 264.167 -43.2520  c
264.501 -42.8040 264.954 -42.5801 265.527 -42.5801  c
266.089 -42.5801 266.532 -42.8040 266.855 -43.2520  c
267.188 -43.7103 267.355 -44.3353 267.355 -45.1270  c
h
f
2 J
10.0000 M
0 J
1.45000 M
newpath
229.771 30.0000 m
212.618 54.4509 l
S
newpath
208.023 61.0000 m
219.008 54.0479 l
213.192 53.6323 l
210.822 48.3048 l
h
f
2 J
10.0000 M
0 J
1.45000 M
newpath
252.355 30.0000 m
272.266 54.7653 l
S
newpath
277.279 61.0000 m
273.656 48.5149 l
271.639 53.9859 l
265.863 54.7809 l
h
f
2 J
10.0000 M
0 J
1.45000 M
newpath
164.303 91.0000 m
102.987 118.706 l
S
newpath
95.6967 122.000 m
108.691 121.615 l
103.898 118.294 l
104.573 112.502 l
h
f
2 J
10.0000 M
0 J
1.45000 M
newpath
220.083 91.0000 m
267.675 122.611 l
S
newpath
274.339 127.037 m
267.109 116.233 l
266.842 122.057 l
261.577 124.563 l
h
f
2 J
10.0000 M
0 J
1.45000 M
newpath
62.5000 152.000 m
62.5000 163.961 l
S
newpath
62.5000 171.961 m
67.5000 159.961 l
62.5000 162.961 l
57.5000 159.961 l
h
f
2 J
10.0000 M
0 J
1.45000 M
newpath
197.500 91.0000 m
197.500 113.970 l
S
newpath
197.500 121.970 m
202.500 109.970 l
197.500 112.970 l
192.500 109.970 l
h
f
2 J
10.0000 M
0 J
1.45000 M
newpath
197.500 152.000 m
197.500 163.961 l
S
newpath
197.500 171.961 m
202.500 159.961 l
197.500 162.961 l
192.500 159.961 l
h
f
2 J
10.0000 M
0 J
1.45000 M
newpath
240.294 -31.0000 m
240.294 -8.00000 l
S
newpath
240.294 0.00000 m
245.294 -12.0000 l
240.294 -9.00000 l
235.294 -12.0000 l
h
f
2 J
10.0000 M
Q
[ 1.00000 0.00000 0.00000 1.00000 0.00000 0.00000 ] defaultmatrix matrix concatmatrix setmatrix
cliprestore

%%Trailer
%%EOF
